Nov 26 21:56:31.130 HYPERVISOR: Release 0.2.17-amd64/Linux (tag 2017072410)
Nov 26 21:56:31.130 HYPERVISOR: Started on IP = 127.0.0.1, TCP port = 53325.
Nov 26 21:56:31.154 HYPERVISOR: exec_cmd: hypervisor version 
Nov 26 21:56:31.155 HYPERVISOR: exec_cmd: hypervisor working_dir /media/actionmystique/SAMSUNG5-VMs/Labs/GNS3/v1-solutions-linux-/project-files/dynamips 
Nov 26 21:56:31.155 GENERAL: working_dir=/media/actionmystique/SAMSUNG5-VMs/Labs/GNS3/v1-solutions-linux-/project-files/dynamips
Nov 26 21:56:31.155 HYPERVISOR: exec_cmd: vm create ASW1 3 c3725 
Nov 26 21:56:31.155 VM: VM ASW1 created.
Nov 26 21:56:31.156 HYPERVISOR: exec_cmd: vm set_con_tcp_port ASW1 2007 
Nov 26 21:56:31.156 HYPERVISOR: exec_cmd: c3725 get_mac_addr ASW1 
Nov 26 21:56:31.156 HYPERVISOR: exec_cmd: vm slot_add_binding ASW1 0 16 WIC-2T 
Nov 26 21:56:31.157 HYPERVISOR: exec_cmd: vm get_status ASW1 
Nov 26 21:56:31.157 HYPERVISOR: exec_cmd: vm set_idle_pc ASW1 0x6026b804 
Nov 26 21:56:31.157 HYPERVISOR: exec_cmd: vm set_nvram ASW1 256 
Nov 26 21:56:31.162 HYPERVISOR: exec_cmd: vm get_status ASW1 
Nov 26 21:56:31.164 HYPERVISOR: exec_cmd: vm slot_add_binding ASW1 1 0 NM-16ESW 
Nov 26 21:56:31.166 HYPERVISOR: exec_cmd: vm set_ios ASW1 /media/actionmystique/SAMSUNG5-VMs/Images/GNS3/IOS/c3725-adventerprisek9-mz.124-15.T10.image 
Nov 26 21:56:31.168 HYPERVISOR: exec_cmd: vm set_disk0 ASW1 1 
Nov 26 21:56:31.169 HYPERVISOR: exec_cmd: c3725 set_mac_addr ASW1 c203.2c73.0000 
Nov 26 21:56:31.170 HYPERVISOR: exec_cmd: vm set_config ASW1 configs/i3_startup-config.cfg 
Nov 26 21:56:31.171 HYPERVISOR: exec_cmd: vm set_config ASW1 configs/i3_startup-config.cfg configs/i3_private-config.cfg 
Nov 26 21:56:32.077 HYPERVISOR: exec_cmd: nio create_udp udp-c23a2c9b-f2ac-49a3-ad7d-8a90c7e8b871 15001 127.0.0.1 15000 
Nov 26 21:56:32.077 HYPERVISOR: exec_cmd: vm slot_add_nio_binding ASW1 1 1 udp-c23a2c9b-f2ac-49a3-ad7d-8a90c7e8b871 
Nov 26 21:56:32.078 HYPERVISOR: exec_cmd: vm get_status ASW1 
Nov 26 21:56:32.085 HYPERVISOR: exec_cmd: nio create_udp udp-2f3fd6ee-34ee-489d-bb3b-13a1f8ef6cd5 15002 127.0.0.1 15003 
Nov 26 21:56:32.085 HYPERVISOR: exec_cmd: vm slot_add_nio_binding ASW1 1 2 udp-2f3fd6ee-34ee-489d-bb3b-13a1f8ef6cd5 
Nov 26 21:56:32.086 HYPERVISOR: exec_cmd: vm get_status ASW1 
Nov 26 21:56:32.111 HYPERVISOR: exec_cmd: nio create_udp udp-54836720-67b6-40a9-be80-13a6818746d5 15005 127.0.0.1 15004 
Nov 26 21:56:32.112 HYPERVISOR: exec_cmd: vm slot_add_nio_binding ASW1 1 11 udp-54836720-67b6-40a9-be80-13a6818746d5 
Nov 26 21:56:32.112 HYPERVISOR: exec_cmd: vm get_status ASW1 
Nov 26 21:56:32.132 HYPERVISOR: exec_cmd: nio create_udp udp-2813c00c-b819-413f-ab50-05b7ec89a39b 15007 127.0.0.1 15006 
Nov 26 21:56:32.133 HYPERVISOR: exec_cmd: vm slot_add_nio_binding ASW1 1 12 udp-2813c00c-b819-413f-ab50-05b7ec89a39b 
Nov 26 21:56:32.133 HYPERVISOR: exec_cmd: vm get_status ASW1 
Nov 26 21:56:32.196 HYPERVISOR: exec_cmd: nio create_udp udp-d0fa6958-64c1-443c-945b-d58dbbcb9221 15013 127.0.0.1 15012 
Nov 26 21:56:32.197 HYPERVISOR: exec_cmd: vm slot_add_nio_binding ASW1 1 9 udp-d0fa6958-64c1-443c-945b-d58dbbcb9221 
Nov 26 21:56:32.197 HYPERVISOR: exec_cmd: vm get_status ASW1 
Nov 26 21:56:32.216 HYPERVISOR: exec_cmd: nio create_udp udp-d3fefd38-8d31-486f-874b-3cfa2aa1efb0 15015 127.0.0.1 15014 
Nov 26 21:56:32.217 HYPERVISOR: exec_cmd: vm slot_add_nio_binding ASW1 1 10 udp-d3fefd38-8d31-486f-874b-3cfa2aa1efb0 
Nov 26 21:56:32.217 HYPERVISOR: exec_cmd: vm get_status ASW1 
Nov 26 21:56:32.570 HYPERVISOR: exec_cmd: nio create_udp udp-ec931fab-9cb9-4a5c-bd0b-acad83337f9c 15053 127.0.0.1 15052 
Nov 26 21:56:32.570 HYPERVISOR: exec_cmd: vm slot_add_nio_binding ASW1 1 3 udp-ec931fab-9cb9-4a5c-bd0b-acad83337f9c 
Nov 26 21:56:32.571 HYPERVISOR: exec_cmd: vm get_status ASW1 
Nov 26 21:56:42.438 HYPERVISOR: exec_cmd: vm get_status ASW1 
Nov 26 21:56:42.445 HYPERVISOR: exec_cmd: vm extract_config ASW1 
Nov 26 21:56:42.456 HYPERVISOR: exec_cmd: vm delete ASW1 
Nov 26 21:56:42.456 VM: VM ASW1 destroyed.
Nov 26 21:56:42.461 HYPERVISOR: exec_cmd: hypervisor stop 
Nov 26 21:56:42.665 HYPERVISOR: Stopped.
Nov 26 21:56:42.665 GENERAL: reset done.
