Nov 26 21:56:31.443 HYPERVISOR: Release 0.2.17-amd64/Linux (tag 2017072410)
Nov 26 21:56:31.443 HYPERVISOR: Started on IP = 127.0.0.1, TCP port = 44571.
Nov 26 21:56:31.456 HYPERVISOR: exec_cmd: hypervisor version 
Nov 26 21:56:31.456 HYPERVISOR: exec_cmd: hypervisor working_dir /media/actionmystique/SAMSUNG5-VMs/Labs/GNS3/v1-solutions-linux-/project-files/dynamips 
Nov 26 21:56:31.456 GENERAL: working_dir=/media/actionmystique/SAMSUNG5-VMs/Labs/GNS3/v1-solutions-linux-/project-files/dynamips
Nov 26 21:56:31.456 HYPERVISOR: exec_cmd: vm create POP 10 c3725 
Nov 26 21:56:31.456 VM: VM POP created.
Nov 26 21:56:31.457 HYPERVISOR: exec_cmd: vm set_con_tcp_port POP 2017 
Nov 26 21:56:31.457 HYPERVISOR: exec_cmd: c3725 get_mac_addr POP 
Nov 26 21:56:31.458 HYPERVISOR: exec_cmd: vm slot_add_binding POP 0 16 WIC-2T 
Nov 26 21:56:31.458 HYPERVISOR: exec_cmd: vm get_status POP 
Nov 26 21:56:31.459 HYPERVISOR: exec_cmd: vm set_idle_pc POP 0x6026b804 
Nov 26 21:56:31.459 HYPERVISOR: exec_cmd: vm set_nvram POP 256 
Nov 26 21:56:31.460 HYPERVISOR: exec_cmd: vm get_status POP 
Nov 26 21:56:31.460 HYPERVISOR: exec_cmd: vm slot_add_binding POP 1 0 NM-16ESW 
Nov 26 21:56:31.460 HYPERVISOR: exec_cmd: vm set_ios POP /media/actionmystique/SAMSUNG5-VMs/Images/GNS3/IOS/c3725-adventerprisek9-mz.124-15.T10.image 
Nov 26 21:56:31.461 HYPERVISOR: exec_cmd: vm set_disk0 POP 1 
Nov 26 21:56:31.461 HYPERVISOR: exec_cmd: c3725 set_mac_addr POP c20a.12bf.0000 
Nov 26 21:56:31.462 HYPERVISOR: exec_cmd: vm set_config POP configs/i10_startup-config.cfg 
Nov 26 21:56:31.462 HYPERVISOR: exec_cmd: vm set_config POP configs/i10_startup-config.cfg configs/i10_private-config.cfg 
Nov 26 21:56:32.621 HYPERVISOR: exec_cmd: nio create_udp udp-029f8b3f-b553-4170-918c-5142e725de81 15054 127.0.0.1 15055 
Nov 26 21:56:32.621 HYPERVISOR: exec_cmd: vm slot_add_nio_binding POP 1 4 udp-029f8b3f-b553-4170-918c-5142e725de81 
Nov 26 21:56:32.622 HYPERVISOR: exec_cmd: vm get_status POP 
Nov 26 21:56:32.644 HYPERVISOR: exec_cmd: nio create_udp udp-f1d0f81f-517d-40b1-b7f1-256a40ff9be2 15057 127.0.0.1 15056 
Nov 26 21:56:32.645 HYPERVISOR: exec_cmd: vm slot_add_nio_binding POP 1 2 udp-f1d0f81f-517d-40b1-b7f1-256a40ff9be2 
Nov 26 21:56:32.645 HYPERVISOR: exec_cmd: vm get_status POP 
Nov 26 21:56:32.673 HYPERVISOR: exec_cmd: nio create_udp udp-b2cb7442-3af9-49ef-8d4a-b4ed452ad6c2 15059 127.0.0.1 15058 
Nov 26 21:56:32.673 HYPERVISOR: exec_cmd: vm slot_add_nio_binding POP 1 1 udp-b2cb7442-3af9-49ef-8d4a-b4ed452ad6c2 
Nov 26 21:56:32.674 HYPERVISOR: exec_cmd: vm get_status POP 
Nov 26 21:56:32.679 HYPERVISOR: exec_cmd: nio create_udp udp-f7515fdd-46a1-4b54-af7a-fe3411379686 15060 127.0.0.1 15061 
Nov 26 21:56:32.680 HYPERVISOR: exec_cmd: vm slot_add_nio_binding POP 1 3 udp-f7515fdd-46a1-4b54-af7a-fe3411379686 
Nov 26 21:56:32.680 HYPERVISOR: exec_cmd: vm get_status POP 
Nov 26 21:56:42.438 HYPERVISOR: exec_cmd: vm get_status POP 
Nov 26 21:56:42.444 HYPERVISOR: exec_cmd: vm extract_config POP 
Nov 26 21:56:42.450 HYPERVISOR: exec_cmd: vm delete POP 
Nov 26 21:56:42.450 VM: VM POP destroyed.
Nov 26 21:56:42.460 HYPERVISOR: exec_cmd: hypervisor stop 
Nov 26 21:56:42.466 HYPERVISOR: Stopped.
Nov 26 21:56:42.466 GENERAL: reset done.
