Nov 26 21:56:31.147 HYPERVISOR: Release 0.2.17-amd64/Linux (tag 2017072410)
Nov 26 21:56:31.147 HYPERVISOR: Started on IP = 127.0.0.1, TCP port = 53827.
Nov 26 21:56:31.171 HYPERVISOR: exec_cmd: hypervisor version 
Nov 26 21:56:31.171 HYPERVISOR: exec_cmd: hypervisor working_dir /media/actionmystique/SAMSUNG5-VMs/Labs/GNS3/v1-solutions-linux-/project-files/dynamips 
Nov 26 21:56:31.171 GENERAL: working_dir=/media/actionmystique/SAMSUNG5-VMs/Labs/GNS3/v1-solutions-linux-/project-files/dynamips
Nov 26 21:56:31.177 HYPERVISOR: exec_cmd: vm create DSW1 1 c3725 
Nov 26 21:56:31.177 VM: VM DSW1 created.
Nov 26 21:56:31.185 HYPERVISOR: exec_cmd: vm set_con_tcp_port DSW1 2005 
Nov 26 21:56:31.186 HYPERVISOR: exec_cmd: c3725 get_mac_addr DSW1 
Nov 26 21:56:31.187 HYPERVISOR: exec_cmd: vm slot_add_binding DSW1 0 16 WIC-2T 
Nov 26 21:56:31.188 HYPERVISOR: exec_cmd: vm get_status DSW1 
Nov 26 21:56:31.189 HYPERVISOR: exec_cmd: vm set_idle_pc DSW1 0x6026b804 
Nov 26 21:56:31.189 HYPERVISOR: exec_cmd: vm set_nvram DSW1 256 
Nov 26 21:56:31.190 HYPERVISOR: exec_cmd: vm get_status DSW1 
Nov 26 21:56:31.191 HYPERVISOR: exec_cmd: vm slot_add_binding DSW1 1 0 NM-16ESW 
Nov 26 21:56:31.192 HYPERVISOR: exec_cmd: vm set_ios DSW1 /media/actionmystique/SAMSUNG5-VMs/Images/GNS3/IOS/c3725-adventerprisek9-mz.124-15.T10.image 
Nov 26 21:56:31.193 HYPERVISOR: exec_cmd: vm set_disk0 DSW1 1 
Nov 26 21:56:31.193 HYPERVISOR: exec_cmd: c3725 set_mac_addr DSW1 c201.2c4b.0000 
Nov 26 21:56:31.202 HYPERVISOR: exec_cmd: vm set_config DSW1 configs/i1_startup-config.cfg 
Nov 26 21:56:31.204 HYPERVISOR: exec_cmd: vm set_config DSW1 configs/i1_startup-config.cfg configs/i1_private-config.cfg 
Nov 26 21:56:32.149 HYPERVISOR: exec_cmd: nio create_udp udp-216ef8ee-2c55-4321-804b-1696ada8c7d9 15008 127.0.0.1 15010 
Nov 26 21:56:32.149 HYPERVISOR: exec_cmd: vm slot_add_nio_binding DSW1 1 3 udp-216ef8ee-2c55-4321-804b-1696ada8c7d9 
Nov 26 21:56:32.149 HYPERVISOR: exec_cmd: vm get_status DSW1 
Nov 26 21:56:32.164 HYPERVISOR: exec_cmd: nio create_udp udp-dda17ea3-0006-4fd0-a4de-628bd4b4e030 15009 127.0.0.1 15011 
Nov 26 21:56:32.165 HYPERVISOR: exec_cmd: vm slot_add_nio_binding DSW1 1 4 udp-dda17ea3-0006-4fd0-a4de-628bd4b4e030 
Nov 26 21:56:32.165 HYPERVISOR: exec_cmd: vm get_status DSW1 
Nov 26 21:56:32.180 HYPERVISOR: exec_cmd: nio create_udp udp-111902c5-b4de-4ba2-9557-cc23b95a4e19 15012 127.0.0.1 15013 
Nov 26 21:56:32.180 HYPERVISOR: exec_cmd: vm slot_add_nio_binding DSW1 1 9 udp-111902c5-b4de-4ba2-9557-cc23b95a4e19 
Nov 26 21:56:32.181 HYPERVISOR: exec_cmd: vm get_status DSW1 
Nov 26 21:56:32.209 HYPERVISOR: exec_cmd: nio create_udp udp-15523572-9b83-414b-91a6-571f07f8da23 15014 127.0.0.1 15015 
Nov 26 21:56:32.210 HYPERVISOR: exec_cmd: vm slot_add_nio_binding DSW1 1 10 udp-15523572-9b83-414b-91a6-571f07f8da23 
Nov 26 21:56:32.210 HYPERVISOR: exec_cmd: vm get_status DSW1 
Nov 26 21:56:32.293 HYPERVISOR: exec_cmd: nio create_udp udp-94497195-bb47-4783-a8a6-a6bd0e2cba64 15023 127.0.0.1 15022 
Nov 26 21:56:32.293 HYPERVISOR: exec_cmd: vm slot_add_nio_binding DSW1 1 1 udp-94497195-bb47-4783-a8a6-a6bd0e2cba64 
Nov 26 21:56:32.293 HYPERVISOR: exec_cmd: vm get_status DSW1 
Nov 26 21:56:32.474 HYPERVISOR: exec_cmd: nio create_udp udp-60d8d76f-e1dc-4b90-84c5-c8be7b365a61 15040 127.0.0.1 15041 
Nov 26 21:56:32.478 HYPERVISOR: exec_cmd: vm slot_add_nio_binding DSW1 1 11 udp-60d8d76f-e1dc-4b90-84c5-c8be7b365a61 
Nov 26 21:56:32.480 HYPERVISOR: exec_cmd: vm get_status DSW1 
Nov 26 21:56:32.513 HYPERVISOR: exec_cmd: nio create_udp udp-72a6bc3a-097a-4b64-9fce-8a4dd8737caf 15042 127.0.0.1 15043 
Nov 26 21:56:32.513 HYPERVISOR: exec_cmd: vm slot_add_nio_binding DSW1 1 12 udp-72a6bc3a-097a-4b64-9fce-8a4dd8737caf 
Nov 26 21:56:32.514 HYPERVISOR: exec_cmd: vm get_status DSW1 
Nov 26 21:56:42.439 HYPERVISOR: exec_cmd: vm get_status DSW1 
Nov 26 21:56:42.445 HYPERVISOR: exec_cmd: vm extract_config DSW1 
Nov 26 21:56:42.457 HYPERVISOR: exec_cmd: vm delete DSW1 
Nov 26 21:56:42.457 VM: VM DSW1 destroyed.
Nov 26 21:56:42.461 HYPERVISOR: exec_cmd: hypervisor stop 
Nov 26 21:56:42.678 HYPERVISOR: Stopped.
Nov 26 21:56:42.678 GENERAL: reset done.
