Nov 28 08:09:04.783 HYPERVISOR: Release 0.2.17-amd64/Linux (tag 2017072410)
Nov 28 08:09:04.783 HYPERVISOR: Started on IP = 127.0.0.1, TCP port = 44727.
Nov 28 08:09:04.828 HYPERVISOR: exec_cmd: hypervisor version 
Nov 28 08:09:04.829 HYPERVISOR: exec_cmd: hypervisor working_dir /media/actionmystique/SAMSUNG5-VMs/Labs/GNS3/git-Public-Labs-Collection/CCNP/TBSHOOT/L3-Technologies/IPv4/PBR/Jean-Christophe_Manciot/1+/TT 1-linux/project-files/dynamips 
Nov 28 08:09:04.829 GENERAL: working_dir=/media/actionmystique/SAMSUNG5-VMs/Labs/GNS3/git-Public-Labs-Collection/CCNP/TBSHOOT/L3-Technologies/IPv4/PBR/Jean-Christophe_Manciot/1+/TT 1-linux/project-files/dynamips
Nov 28 08:09:04.830 HYPERVISOR: exec_cmd: vm create ESW5 5 c3725 
Nov 28 08:09:04.830 VM: VM ESW5 created.
Nov 28 08:09:04.830 HYPERVISOR: exec_cmd: vm set_con_tcp_port ESW5 2010 
Nov 28 08:09:04.831 HYPERVISOR: exec_cmd: c3725 get_mac_addr ESW5 
Nov 28 08:09:04.831 HYPERVISOR: exec_cmd: vm get_status ESW5 
Nov 28 08:09:04.831 HYPERVISOR: exec_cmd: vm slot_add_binding ESW5 1 0 NM-16ESW 
Nov 28 08:09:04.832 HYPERVISOR: exec_cmd: vm set_disk0 ESW5 1 
Nov 28 08:09:04.832 HYPERVISOR: exec_cmd: vm slot_add_binding ESW5 0 16 WIC-2T 
Nov 28 08:09:04.833 HYPERVISOR: exec_cmd: vm get_status ESW5 
Nov 28 08:09:04.833 HYPERVISOR: exec_cmd: vm set_idle_pc ESW5 0x614ac27c 
Nov 28 08:09:04.833 HYPERVISOR: exec_cmd: c3725 set_mac_addr ESW5 c205.6a03.0000 
Nov 28 08:09:04.834 HYPERVISOR: exec_cmd: vm set_nvram ESW5 256 
Nov 28 08:09:04.834 HYPERVISOR: exec_cmd: vm set_ios ESW5 /media/actionmystique/SAMSUNG5-VMs/Images/GNS3/IOS/c3725-adventerprisek9-mz.124-15.T10.image 
Nov 28 08:09:04.835 HYPERVISOR: exec_cmd: vm set_config ESW5 configs/ios_base_startup-config.txt 
Nov 28 08:09:04.835 HYPERVISOR: exec_cmd: vm set_config ESW5 configs/ios_base_startup-config.txt configs/ios_base_private-config.txt 
Nov 28 08:09:05.067 HYPERVISOR: exec_cmd: nio create_udp udp-6a3eb33b-752e-45ad-90b5-0a3d576a1220 15017 127.0.0.1 15016 
Nov 28 08:09:05.067 HYPERVISOR: exec_cmd: vm slot_add_nio_binding ESW5 1 0 udp-6a3eb33b-752e-45ad-90b5-0a3d576a1220 
Nov 28 08:09:05.067 HYPERVISOR: exec_cmd: vm get_status ESW5 
Nov 28 08:09:05.083 HYPERVISOR: exec_cmd: nio create_udp udp-34dd9731-a0fa-4f5b-87cd-57cef6bf7b2d 15018 127.0.0.1 15019 
Nov 28 08:09:05.084 HYPERVISOR: exec_cmd: vm slot_add_nio_binding ESW5 1 1 udp-34dd9731-a0fa-4f5b-87cd-57cef6bf7b2d 
Nov 28 08:09:05.084 HYPERVISOR: exec_cmd: vm get_status ESW5 
Nov 28 08:10:09.905 HYPERVISOR: exec_cmd: vm get_status ESW5 
Nov 28 08:10:09.908 HYPERVISOR: exec_cmd: vm extract_config ESW5 
Nov 28 08:10:09.912 HYPERVISOR: exec_cmd: vm delete ESW5 
Nov 28 08:10:09.912 VM: VM ESW5 destroyed.
Nov 28 08:10:09.938 HYPERVISOR: exec_cmd: hypervisor stop 
Nov 28 08:10:10.394 HYPERVISOR: Stopped.
Nov 28 08:10:10.394 GENERAL: reset done.
