autostart = False
[127.0.0.1:7200]
    workingdir = C:\Users\ActionMystique\Documents\Missions\GNS3\Temp
    udp = 10000
    [[3640]]
        image = C:\Users\ActionMystique\Documents\Missions\IOS\Binaries\c3640-jk9o3s-mz.124-16a.bin
        ram = 192
        idlepc = 0x6307ad74
        sparsemem = True
        ghostios = True
        chassis = 3640
    [[ROUTER Sam]]
        model = 3640
        console = 2010
        slot0 = NM-1FE-TX
        f0/0 = Tron f1/0
        slot1 = NM-1FE-TX
        f1/0 = Quorra f1/0
        cnfg = configs/Sam.cfg
        x = -342.71277016
        y = 135.684812205
        hx = 10.1715728753
        hy = 41.4680374315
    [[ROUTER Quorra]]
        model = 3640
        console = 2009
        slot0 = NM-1FE-TX
        f0/0 = Kevin f1/0
        slot1 = NM-1FE-TX
        f1/0 = Sam f1/0
        cnfg = configs/Quorra.cfg
        x = -231.697005513
        y = -3.61522368915
        hx = 63.3969696197
        hy = 8.23401871577
    [[ROUTER Kevin]]
        model = 3640
        console = 2007
        slot0 = NM-1FE-TX
        f0/0 = Tron f0/0
        slot1 = NM-1FE-TX
        f1/0 = Quorra f0/0
        cnfg = configs/Kevin.cfg
        x = -337.763022691
        y = -147.865007051
    [[ROUTER Tron]]
        model = 3640
        console = 2008
        slot0 = NM-1FE-TX
        f0/0 = Kevin f0/0
        slot1 = NM-1FE-TX
        f1/0 = Sam f0/0
        cnfg = configs/Tron.cfg
        x = -435.343758495
        y = -6.4436508139
        hx = -46.8969696197
        hy = 8.23401871577
[GNS3-DATA]
    configs = configs
    m11 = 1.41421356237
    m22 = 1.41421356237
    [[NOTE 1]]
        text = .4
        x = -311.126983722
        y = 116.700576851
        color = "#0000ff"
    [[NOTE 2]]
        text = .4
        x = -329.511760033
        y = 116.901586978
        color = "#0000ff"
    [[NOTE 3]]
        text = .3
        x = -250.31580054
        y = 25.1787155502
        color = "#0000ff"
    [[NOTE 4]]
        text = .3
        x = -246.073159853
        y = -19.875108319
        color = "#0000ff"
    [[NOTE 5]]
        text = .2
        x = -380.423448278
        y = 27.5010460205
        color = "#0000ff"
    [[NOTE 6]]
        text = .2
        x = -381.13055506
        y = -21.0883117546
        color = "#0000ff"
    [[NOTE 7]]
        text = .1
        x = -306.177236254
        y = -109.275649276
        color = "#0000ff"
    [[NOTE 8]]
        text = .1
        x = -325.269119346
        y = -108.367532368
        color = "#0000ff"
    [[NOTE 9]]
        text = L0: 4.4.4.4 /24
        x = -366.988419436
        y = 197.407683632
        color = "#0000ff"
    [[NOTE 10]]
        text = 192.168.34.0 /24
        x = -294.156420974
        y = 73.15790027
        color = "#0000ff"
    [[NOTE 11]]
        text = 192.168.24.0 /24
        x = -455.376767084
        y = 72.6518036156
        color = "#0000ff"
    [[NOTE 12]]
        text = 192.168.13.0 /24
        x = -294.863527755
        y = -72.3050865276
        color = "#0000ff"
    [[NOTE 13]]
        text = 192.168.12.0 /24
        x = -438.406204336
        y = -70.6898628385
        color = "#0000ff"
    [[NOTE 14]]
        text = f0/0
        x = -31.2669457376
        y = -13.6323761614
        interface = Sam f0/0
        color = "#323232"
    [[NOTE 15]]
        text = f1/0
        x = 61.4651995362
        y = -12.8167067031
        interface = Sam f1/0
        color = "#323232"
    [[NOTE 16]]
        text = f0/0
        x = 16.3754497928
        y = -21.539749005
        interface = Quorra f0/0
        color = "#323232"
    [[NOTE 17]]
        text = f1/0
        x = 15.8485089628
        y = 41.9674642982
        interface = Quorra f1/0
        color = "#323232"
    [[NOTE 18]]
        text = f1/0
        x = 6.05017096449
        y = 41.3689201941
        interface = Tron f1/0
        color = "#323232"
    [[NOTE 19]]
        text = f0/0
        x = 13.2906043183
        y = -19.4084859967
        interface = Tron f0/0
        color = "#323232"
    [[NOTE 20]]
        text = f0/0
        x = -28.6078841548
        y = 33.7100011869
        interface = Kevin f0/0
        color = "#323232"
    [[NOTE 21]]
        text = f1/0
        x = 58.8169383627
        y = 33.0128370704
        interface = Kevin f1/0
        color = "#323232"
    [[SHAPE 1]]
        type = rectangle
        x = -407.293505963
        y = 162.634559673
        width = 200.0
        height = 63.6396103068
        fill_color = "#aaffff"
        z = -2.0
    [[SHAPE 2]]
        type = ellipse
        x = -489.518902708
        y = 18.8908729653
        width = 369.816846561
        height = 142.329473145
        fill_color = "#aaff7f"
        border_style = 2
        z = -2.0
    [[SHAPE 3]]
        type = ellipse
        x = -486.489465456
        y = -174.655374953
        width = 369.816846561
        height = 192.928932188
        fill_color = "#ffff7f"
        border_style = 2
        z = -2.0
