Nov 27 16:24:03.886 HYPERVISOR: Release 0.2.17-amd64/Linux (tag 2017072410)
Nov 27 16:24:03.886 HYPERVISOR: Started on IP = 127.0.0.1, TCP port = 34053.
Nov 27 16:24:03.901 HYPERVISOR: exec_cmd: hypervisor version 
Nov 27 16:24:03.901 HYPERVISOR: exec_cmd: hypervisor working_dir /media/actionmystique/SAMSUNG5-VMs/Labs/GNS3/TT 2-linux-/project-files/dynamips 
Nov 27 16:24:03.901 GENERAL: working_dir=/media/actionmystique/SAMSUNG5-VMs/Labs/GNS3/TT 2-linux-/project-files/dynamips
Nov 27 16:24:03.902 HYPERVISOR: exec_cmd: vm create Core 4 c3725 
Nov 27 16:24:03.902 VM: VM Core created.
Nov 27 16:24:03.903 HYPERVISOR: exec_cmd: vm set_con_tcp_port Core 2005 
Nov 27 16:24:03.903 HYPERVISOR: exec_cmd: c3725 get_mac_addr Core 
Nov 27 16:24:03.903 HYPERVISOR: exec_cmd: vm set_ram Core 256 
Nov 27 16:24:03.904 HYPERVISOR: exec_cmd: vm set_nvram Core 256 
Nov 27 16:24:03.904 HYPERVISOR: exec_cmd: vm get_status Core 
Nov 27 16:24:03.904 HYPERVISOR: exec_cmd: vm set_idle_pc Core 0x60c056e4 
Nov 27 16:24:03.905 HYPERVISOR: exec_cmd: c3725 set_mac_addr Core c204.0c3e.0000 
Nov 27 16:24:03.905 HYPERVISOR: exec_cmd: vm get_status Core 
Nov 27 16:24:03.905 HYPERVISOR: exec_cmd: vm slot_add_binding Core 1 0 NM-16ESW 
Nov 27 16:24:03.906 HYPERVISOR: exec_cmd: vm set_disk0 Core 1 
Nov 27 16:24:03.906 HYPERVISOR: exec_cmd: vm set_ios Core /media/actionmystique/SAMSUNG5-VMs/Images/GNS3/IOS/c3725-adventerprisek9-mz.124-15.T10.image 
Nov 27 16:24:03.907 HYPERVISOR: exec_cmd: vm slot_add_binding Core 0 16 WIC-2T 
Nov 27 16:24:03.907 HYPERVISOR: exec_cmd: vm set_config Core configs/i4_startup-config.cfg 
Nov 27 16:24:03.908 HYPERVISOR: exec_cmd: vm set_config Core configs/i4_startup-config.cfg configs/i4_private-config.cfg 
Nov 27 16:24:04.176 HYPERVISOR: exec_cmd: nio create_udp udp-98d5439d-106a-4ad0-8305-e16574a931b6 15003 127.0.0.1 15004 
Nov 27 16:24:04.185 HYPERVISOR: exec_cmd: vm slot_add_nio_binding Core 1 1 udp-98d5439d-106a-4ad0-8305-e16574a931b6 
Nov 27 16:24:04.186 HYPERVISOR: exec_cmd: vm get_status Core 
Nov 27 16:24:04.281 HYPERVISOR: exec_cmd: nio create_udp udp-46dd6e59-55bc-4c30-8434-12113460d6fd 15011 127.0.0.1 15012 
Nov 27 16:24:04.281 HYPERVISOR: exec_cmd: vm slot_add_nio_binding Core 1 0 udp-46dd6e59-55bc-4c30-8434-12113460d6fd 
Nov 27 16:24:04.282 HYPERVISOR: exec_cmd: vm get_status Core 
Nov 27 16:24:18.497 HYPERVISOR: exec_cmd: vm get_status Core 
Nov 27 16:24:18.498 HYPERVISOR: exec_cmd: vm extract_config Core 
Nov 27 16:24:18.500 HYPERVISOR: exec_cmd: vm delete Core 
Nov 27 16:24:18.500 VM: VM Core destroyed.
Nov 27 16:24:18.503 HYPERVISOR: exec_cmd: hypervisor stop 
Nov 27 16:24:18.916 HYPERVISOR: Stopped.
Nov 27 16:24:18.916 GENERAL: reset done.
