Nov 29 15:26:20.262 HYPERVISOR: Release 0.2.17-amd64/Linux (tag 2017072410)
Nov 29 15:26:20.262 HYPERVISOR: Started on IP = 127.0.0.1, TCP port = 49151.
Nov 29 15:26:20.277 HYPERVISOR: exec_cmd: hypervisor version 
Nov 29 15:26:20.278 HYPERVISOR: exec_cmd: hypervisor working_dir /media/actionmystique/SAMSUNG5-VMs/Labs/GNS3/TT 3-linux-/project-files/dynamips 
Nov 29 15:26:20.278 GENERAL: working_dir=/media/actionmystique/SAMSUNG5-VMs/Labs/GNS3/TT 3-linux-/project-files/dynamips
Nov 29 15:26:20.279 HYPERVISOR: exec_cmd: vm create ESW4 4 c3725 
Nov 29 15:26:20.279 VM: VM ESW4 created.
Nov 29 15:26:20.279 HYPERVISOR: exec_cmd: vm set_con_tcp_port ESW4 2009 
Nov 29 15:26:20.284 HYPERVISOR: exec_cmd: c3725 get_mac_addr ESW4 
Nov 29 15:26:20.290 HYPERVISOR: exec_cmd: vm get_status ESW4 
Nov 29 15:26:20.294 HYPERVISOR: exec_cmd: vm slot_add_binding ESW4 1 0 NM-16ESW 
Nov 29 15:26:20.295 HYPERVISOR: exec_cmd: c3725 set_mac_addr ESW4 c204.68ae.0000 
Nov 29 15:26:20.296 HYPERVISOR: exec_cmd: vm set_disk0 ESW4 1 
Nov 29 15:26:20.297 HYPERVISOR: exec_cmd: vm set_nvram ESW4 256 
Nov 29 15:26:20.297 HYPERVISOR: exec_cmd: vm set_ios ESW4 /media/actionmystique/SAMSUNG5-VMs/Images/GNS3/IOS/c3725-adventerprisek9-mz.124-15.T10.image 
Nov 29 15:26:20.299 HYPERVISOR: exec_cmd: vm get_status ESW4 
Nov 29 15:26:20.301 HYPERVISOR: exec_cmd: vm set_idle_pc ESW4 0x614ac27c 
Nov 29 15:26:20.302 HYPERVISOR: exec_cmd: vm slot_add_binding ESW4 0 16 WIC-2T 
Nov 29 15:26:20.303 HYPERVISOR: exec_cmd: vm set_config ESW4 configs/ios_base_startup-config.txt 
Nov 29 15:26:20.303 HYPERVISOR: exec_cmd: vm set_config ESW4 configs/ios_base_startup-config.txt configs/ios_base_private-config.txt 
Nov 29 15:26:20.632 HYPERVISOR: exec_cmd: nio create_udp udp-cf9f2e78-4d6f-400b-b4b0-12899c693c82 15013 127.0.0.1 15012 
Nov 29 15:26:20.633 HYPERVISOR: exec_cmd: vm slot_add_nio_binding ESW4 1 0 udp-cf9f2e78-4d6f-400b-b4b0-12899c693c82 
Nov 29 15:26:20.633 HYPERVISOR: exec_cmd: vm get_status ESW4 
Nov 29 15:26:20.640 HYPERVISOR: exec_cmd: nio create_udp udp-2b5f75e6-276a-459f-881d-5da55d2d9117 15015 127.0.0.1 15016 
Nov 29 15:26:20.640 HYPERVISOR: exec_cmd: vm slot_add_nio_binding ESW4 1 1 udp-2b5f75e6-276a-459f-881d-5da55d2d9117 
Nov 29 15:26:20.641 HYPERVISOR: exec_cmd: vm get_status ESW4 
Nov 29 15:26:36.533 HYPERVISOR: exec_cmd: vm get_status ESW4 
Nov 29 15:26:36.537 HYPERVISOR: exec_cmd: vm extract_config ESW4 
Nov 29 15:26:36.539 HYPERVISOR: exec_cmd: vm delete ESW4 
Nov 29 15:26:36.539 VM: VM ESW4 destroyed.
Nov 29 15:26:36.541 HYPERVISOR: exec_cmd: hypervisor stop 
Nov 29 15:26:36.793 HYPERVISOR: Stopped.
Nov 29 15:26:36.793 GENERAL: reset done.
