Nov 26 22:07:35.475 HYPERVISOR: Release 0.2.17-amd64/Linux (tag 2017072410)
Nov 26 22:07:35.475 HYPERVISOR: Started on IP = 127.0.0.1, TCP port = 41691.
Nov 26 22:07:35.490 HYPERVISOR: exec_cmd: hypervisor version 
Nov 26 22:07:35.490 HYPERVISOR: exec_cmd: hypervisor working_dir /media/actionmystique/SAMSUNG5-VMs/Labs/GNS3/git-Public-Labs-Collection/CCNP/TBSHOOT/Infrastructure-Services/DHCP-NAT/Jean-Christophe_Manciot/1+/DHCPv4/TT 2-linux/project-files/dynamips 
Nov 26 22:07:35.490 GENERAL: working_dir=/media/actionmystique/SAMSUNG5-VMs/Labs/GNS3/git-Public-Labs-Collection/CCNP/TBSHOOT/Infrastructure-Services/DHCP-NAT/Jean-Christophe_Manciot/1+/DHCPv4/TT 2-linux/project-files/dynamips
Nov 26 22:07:35.490 HYPERVISOR: exec_cmd: vm create ESW1 1 c3725 
Nov 26 22:07:35.490 VM: VM ESW1 created.
Nov 26 22:07:35.491 HYPERVISOR: exec_cmd: vm set_con_tcp_port ESW1 2001 
Nov 26 22:07:35.491 HYPERVISOR: exec_cmd: vm set_aux_tcp_port ESW1 2501 
Nov 26 22:07:35.491 HYPERVISOR: exec_cmd: c3725 get_mac_addr ESW1 
Nov 26 22:07:35.492 HYPERVISOR: exec_cmd: vm slot_add_binding ESW1 0 16 WIC-2T 
Nov 26 22:07:35.492 HYPERVISOR: exec_cmd: vm get_status ESW1 
Nov 26 22:07:35.493 HYPERVISOR: exec_cmd: vm set_idle_pc ESW1 0x614ac27c 
Nov 26 22:07:35.493 HYPERVISOR: exec_cmd: vm set_nvram ESW1 256 
Nov 26 22:07:35.493 HYPERVISOR: exec_cmd: vm get_status ESW1 
Nov 26 22:07:35.494 HYPERVISOR: exec_cmd: vm slot_add_binding ESW1 1 0 NM-16ESW 
Nov 26 22:07:35.494 HYPERVISOR: exec_cmd: vm set_ios ESW1 /media/actionmystique/SAMSUNG5-VMs/Images/GNS3/IOS/c3725-adventerprisek9-mz.124-15.T10.image 
Nov 26 22:07:35.495 HYPERVISOR: exec_cmd: vm set_disk0 ESW1 1 
Nov 26 22:07:35.495 HYPERVISOR: exec_cmd: c3725 set_mac_addr ESW1 c201.281a.0000 
Nov 26 22:07:35.495 HYPERVISOR: exec_cmd: vm set_config ESW1 configs/i1_startup-config.cfg 
Nov 26 22:07:35.496 HYPERVISOR: exec_cmd: vm set_config ESW1 configs/i1_startup-config.cfg configs/i1_private-config.cfg 
Nov 26 22:07:35.617 HYPERVISOR: exec_cmd: nio create_udp udp-9a761790-c82f-41a1-be2a-f578b702b3d0 15005 127.0.0.1 15004 
Nov 26 22:07:35.631 HYPERVISOR: exec_cmd: vm slot_add_nio_binding ESW1 1 2 udp-9a761790-c82f-41a1-be2a-f578b702b3d0 
Nov 26 22:07:35.633 HYPERVISOR: exec_cmd: vm get_status ESW1 
Nov 26 22:07:35.648 HYPERVISOR: exec_cmd: nio create_udp udp-e71dec87-e05e-49b2-8e7f-88c047f913c9 15006 127.0.0.1 15002 
Nov 26 22:07:35.649 HYPERVISOR: exec_cmd: vm slot_add_nio_binding ESW1 1 1 udp-e71dec87-e05e-49b2-8e7f-88c047f913c9 
Nov 26 22:07:35.649 HYPERVISOR: exec_cmd: vm get_status ESW1 
Nov 26 22:07:35.664 HYPERVISOR: exec_cmd: nio create_udp udp-1fe0d756-ab92-4327-81db-ba8f9285b2d2 15007 127.0.0.1 15003 
Nov 26 22:07:35.665 HYPERVISOR: exec_cmd: vm slot_add_nio_binding ESW1 1 0 udp-1fe0d756-ab92-4327-81db-ba8f9285b2d2 
Nov 26 22:07:35.665 HYPERVISOR: exec_cmd: vm get_status ESW1 
