Dec 04 11:07:14.130 HYPERVISOR: Release 0.2.17-amd64/Linux (tag 2017072410)
Dec 04 11:07:14.130 HYPERVISOR: Started on IP = 127.0.0.1, TCP port = 40839.
Dec 04 11:07:14.151 HYPERVISOR: exec_cmd: hypervisor version 
Dec 04 11:07:14.152 HYPERVISOR: exec_cmd: hypervisor working_dir /media/actionmystique/SAMSUNG5-VMs/Labs/GNS3/TT 1-solutions-linux-/project-files/dynamips 
Dec 04 11:07:14.152 GENERAL: working_dir=/media/actionmystique/SAMSUNG5-VMs/Labs/GNS3/TT 1-solutions-linux-/project-files/dynamips
Dec 04 11:07:14.152 HYPERVISOR: exec_cmd: vm create ESW5 5 c3725 
Dec 04 11:07:14.152 VM: VM ESW5 created.
Dec 04 11:07:14.152 HYPERVISOR: exec_cmd: vm set_con_tcp_port ESW5 2010 
Dec 04 11:07:14.153 HYPERVISOR: exec_cmd: c3725 get_mac_addr ESW5 
Dec 04 11:07:14.153 HYPERVISOR: exec_cmd: vm set_nvram ESW5 256 
Dec 04 11:07:14.153 HYPERVISOR: exec_cmd: vm set_ios ESW5 /media/actionmystique/SAMSUNG5-VMs/Images/GNS3/IOS/c3725-adventerprisek9-mz.124-15.T10.image 
Dec 04 11:07:14.154 HYPERVISOR: exec_cmd: c3725 set_mac_addr ESW5 c205.6a03.0000 
Dec 04 11:07:14.154 HYPERVISOR: exec_cmd: vm get_status ESW5 
Dec 04 11:07:14.154 HYPERVISOR: exec_cmd: vm slot_add_binding ESW5 1 0 NM-16ESW 
Dec 04 11:07:14.155 HYPERVISOR: exec_cmd: vm get_status ESW5 
Dec 04 11:07:14.155 HYPERVISOR: exec_cmd: vm set_idle_pc ESW5 0x6026b804 
Dec 04 11:07:14.155 HYPERVISOR: exec_cmd: vm set_disk0 ESW5 1 
Dec 04 11:07:14.156 HYPERVISOR: exec_cmd: vm slot_add_binding ESW5 0 16 WIC-2T 
Dec 04 11:07:14.156 HYPERVISOR: exec_cmd: vm set_config ESW5 configs/ios_base_startup-config.txt 
Dec 04 11:07:14.157 HYPERVISOR: exec_cmd: vm set_config ESW5 configs/ios_base_startup-config.txt configs/ios_base_private-config.txt 
Dec 04 11:07:14.505 HYPERVISOR: exec_cmd: nio create_udp udp-ca64681b-8f20-4272-8fe2-255cfce34407 15018 127.0.0.1 15016 
Dec 04 11:07:14.506 HYPERVISOR: exec_cmd: vm slot_add_nio_binding ESW5 1 0 udp-ca64681b-8f20-4272-8fe2-255cfce34407 
Dec 04 11:07:14.507 HYPERVISOR: exec_cmd: vm get_status ESW5 
Dec 04 11:07:14.517 HYPERVISOR: exec_cmd: nio create_udp udp-d673713c-bf70-4d91-b897-82ed100888eb 15017 127.0.0.1 15019 
Dec 04 11:07:14.518 HYPERVISOR: exec_cmd: vm slot_add_nio_binding ESW5 1 1 udp-d673713c-bf70-4d91-b897-82ed100888eb 
Dec 04 11:07:14.518 HYPERVISOR: exec_cmd: vm get_status ESW5 
Dec 04 11:07:27.333 HYPERVISOR: exec_cmd: vm get_status ESW5 
Dec 04 11:07:27.336 HYPERVISOR: exec_cmd: vm extract_config ESW5 
Dec 04 11:07:27.338 HYPERVISOR: exec_cmd: vm delete ESW5 
Dec 04 11:07:27.338 VM: VM ESW5 destroyed.
Dec 04 11:07:27.341 HYPERVISOR: exec_cmd: hypervisor stop 
Dec 04 11:07:27.659 HYPERVISOR: Stopped.
Dec 04 11:07:27.659 GENERAL: reset done.
