autostart = False
version = 0.8.4-RC3
[127.0.0.1:7203]
    workingdir = working
    udp = 11300
    [[7200]]
        image = C:\Users\ActionMystique\Google Drive\Missions\Certifications\Cisco\IOS\Binaries\c7200-adventerprisek9-mz.152-4.S.image
        ram = 512
        idlepc = 0x62a29de4
        idlemax = 500
        sparsemem = True
        ghostios = True
    [[ROUTER Gateway]]
        console = 2120
        aux = 2520
        cnfg = configs\Gateway.cfg
        slot0 = C7200-IO-GE-E
        g0/0 = ALS1 f1/0
        slot1 = PA-POS-OC3
        p1/0 = ISP p1/0
        x = -198.587165867
        y = -119.826405233
        z = 1.0
[127.0.0.1:7200]
    workingdir = working
    udp = 11000
    [[3725]]
        image = C:\Users\ActionMystique\Google Drive\Missions\Certifications\Cisco\IOS\Binaries\c3725-adventerprisek9-mz.124-15.T5.image
        ram = 128
        idlepc = 0x602649b4
        idlemax = 500
        sparsemem = True
        ghostios = True
    [[ROUTER ALS1]]
        model = 3725
        console = 2004
        aux = 2504
        cnfg = configs\ALS1.cfg
        slot1 = NM-16ESW
        f1/0 = Gateway g0/0
        f1/6 = NIO_udp:30000:127.0.0.1:20000
        f1/11 = ALS2 f1/11
        f1/12 = ALS2 f1/12
        symbol = EtherSwitch router
        x = -191.978044441
        y = 90.022248372
        z = 1.0
        hx = 6.13558864609
        hy = 47.173714519
[127.0.0.1:7201]
    workingdir = working
    udp = 11100
    [[3725]]
        image = C:\Users\ActionMystique\Google Drive\Missions\Certifications\Cisco\IOS\Binaries\c3725-adventerprisek9-mz.124-15.T5.image
        ram = 128
        idlepc = 0x602649b4
        idlemax = 500
        sparsemem = True
        ghostios = True
    [[ROUTER ALS2]]
        model = 3725
        console = 2007
        aux = 2507
        cnfg = configs\ALS2.cfg
        slot1 = NM-16ESW
        f1/6 = NIO_udp:30001:127.0.0.1:20001
        f1/11 = ALS1 f1/11
        f1/12 = ALS1 f1/12
        symbol = EtherSwitch router
        x = 111.630854907
        y = 89.7207731306
        z = 1.0
        hx = 5.0
        hy = 45.0960307126
[127.0.0.1:7204]
    workingdir = working
    udp = 11400
    [[7200]]
        image = C:\Users\ActionMystique\Google Drive\Missions\Certifications\Cisco\IOS\Binaries\c7200-adventerprisek9-mz.152-4.S.image
        ram = 512
        idlepc = 0x62a29de4
        idlemax = 500
        sparsemem = True
        ghostios = True
    [[ROUTER ISP]]
        console = 2121
        aux = 2521
        cnfg = configs\ISP.cfg
        slot0 = C7200-IO-GE-E
        slot1 = PA-POS-OC3
        p1/0 = Gateway p1/0
        x = 118.304840093
        y = -328.522736395
        z = 1.0
[GNS3-DATA]
    configs = configs
    workdir = working
    m11 = 0.766664172334
    m22 = 0.766664172334
    [[NOTE 1]]
        text = ".2"
        x = 122.609094558
        y = -285.044301535
    [[NOTE 2]]
        text = "802.1Q"
        x = -191.739754256
        y = -1.56459781402
        color = "#0055ff"
    [[NOTE 3]]
        text = "g0/0.1:     172.16.1.1/24\ng0/0.100: 172.16.100.1/24\ng0/0.200: 172.16.200.1/24"
        x = -155.217896302
        y = -74.6088993488
    [[NOTE 4]]
        text = ".1"
        x = -126.522150767
        y = -120.261221791
    [[NOTE 5]]
        text = "192.168.1.0/24"
        x = -88.6959407442
        y = -233.73985186
    [[NOTE 6]]
        text = "0: 2 VPCS hosts are used in this lab.\n1: Configure the hosts: Tools -> VPCS-> 1 -> ip <addr> </mask> <gateway>\n                                                                  2 -> ip <addr> </mask> <gateway>\n2: Configure the routers.\n3: Configure the switches.\n4: Confirm the VLANs.\n5: Configure trunk links and EtherChannel on switches.\n6: Configure VTP version, domain and modes (server on ALS1, client on ALS2).\n7: Configure VLANs and switch access ports.\n8: Configure ALS1 trunking to the Gateway router.\n9: Configure the Gateway router Gigabit Ethernet interface for VLAN trunking.\n10: Verify inter-VLAN routing on the Gateway router and the host devices."
        x = -821.741803954
        y = -458.088407861
    [[NOTE 7]]
        text = "L0: 200.200.200.1/24"
        x = 198.261514605
        y = -323.740144674
    [[NOTE 8]]
        text = "4-1 Inter-VLAN Routing with External Router"
        x = -306.645313054
        y = -498.530709063
        font = "MS Shell Dlg 2,20,-1,5,75,0,1,0,0,0"
        color = "#0055ff"
    [[NOTE 9]]
        text = "      Engineering\n       VLAN 200\n172.16.200.101/24"
        x = 234.783372558
        y = 142.348458395
        color = "#0055ff"
    [[NOTE 10]]
        text = "         Payroll\n       VLAN 100\n172.16.100.101/24"
        x = -382.175156441
        y = 144.087529419
        color = "#0055ff"
    [[NOTE 11]]
        text = "EtherChannel\n     802.1Q"
        x = -58.6958431396
        y = 71.9138370461
        color = "#0055ff"
    [[NOTE 12]]
        text = "VLAN 1:172.16.1.101/24"
        x = -242.609484976
        y = 154.522541186
        color = "#0055ff"
    [[NOTE 13]]
        text = "Optical Fiber"
        x = -15.6522248375
        y = -201.565183442
        color = "#0055ff"
    [[NOTE 14]]
        text = "VLAN 1:172.16.1.102/24"
        x = 63.9132514186
        y = 151.04420393
        color = "#0055ff"
    [[Cloud VPCS-1]]
        symbol = Host
        x = -349.457552953
        y = 83.9786300697
        z = 1.0
        connections = ALS1:f1/6:NIO_udp:30000:127.0.0.1:20000
    [[Cloud VPCS-2]]
        symbol = Host
        x = 267.500976046
        y = 84.6308061046
        z = 1.0
        connections = ALS2:f1/6:NIO_udp:30001:127.0.0.1:20001
