Nov 26 20:53:21.638 HYPERVISOR: Release 0.2.17-amd64/Linux (tag 2017072410)
Nov 26 20:53:21.638 HYPERVISOR: Started on IP = 127.0.0.1, TCP port = 53527.
Nov 26 20:53:21.669 HYPERVISOR: exec_cmd: hypervisor version 
Nov 26 20:53:21.670 HYPERVISOR: exec_cmd: hypervisor working_dir /media/actionmystique/SAMSUNG5-VMs/Labs/GNS3/VPN Tunnels/project-files/dynamips 
Nov 26 20:53:21.670 GENERAL: working_dir=/media/actionmystique/SAMSUNG5-VMs/Labs/GNS3/VPN Tunnels/project-files/dynamips
Nov 26 20:53:21.673 HYPERVISOR: exec_cmd: vm create I12 22 c7200 
Nov 26 20:53:21.673 VM: VM I12 created.
Nov 26 20:53:21.678 HYPERVISOR: exec_cmd: vm set_con_tcp_port I12 2025 
Nov 26 20:53:21.684 HYPERVISOR: exec_cmd: vm set_aux_tcp_port I12 2125 
Nov 26 20:53:21.687 HYPERVISOR: exec_cmd: c7200 get_mac_addr I12 
Nov 26 20:53:21.692 HYPERVISOR: exec_cmd: vm get_status I12 
Nov 26 20:53:21.694 HYPERVISOR: exec_cmd: vm slot_add_binding I12 0 0 C7200-IO-FE 
Nov 26 20:53:21.695 HYPERVISOR: exec_cmd: vm get_status I12 
Nov 26 20:53:21.696 HYPERVISOR: exec_cmd: vm slot_remove_binding I12 0 0 
Nov 26 20:53:21.697 HYPERVISOR: exec_cmd: vm get_status I12 
Nov 26 20:53:21.702 HYPERVISOR: exec_cmd: vm slot_add_binding I12 0 0 C7200-IO-GE-E 
Nov 26 20:53:21.704 HYPERVISOR: exec_cmd: vm set_ram I12 512 
Nov 26 20:53:21.709 HYPERVISOR: exec_cmd: vm get_status I12 
Nov 26 20:53:21.710 HYPERVISOR: exec_cmd: vm set_idle_pc I12 0x60188e14 
Nov 26 20:53:21.711 HYPERVISOR: exec_cmd: vm get_status I12 
Nov 26 20:53:21.712 HYPERVISOR: exec_cmd: vm slot_add_binding I12 1 0 PA-8T 
Nov 26 20:53:21.712 HYPERVISOR: exec_cmd: vm set_ios I12 /media/actionmystique/SAMSUNG5-VMs/Images/GNS3/IOS/c7200-adventerprisek9-mz.152-4.M2.image 
Nov 26 20:53:21.713 HYPERVISOR: exec_cmd: vm set_config I12 configs/i22_startup-config.cfg 
Nov 26 20:53:23.384 HYPERVISOR: exec_cmd: nio create_udp udp-bd079760-16d0-43e2-bed4-302934aac8e5 15080 127.0.0.1 15077 
Nov 26 20:53:23.385 HYPERVISOR: exec_cmd: vm slot_add_nio_binding I12 1 0 udp-bd079760-16d0-43e2-bed4-302934aac8e5 
Nov 26 20:53:23.385 HYPERVISOR: exec_cmd: vm get_status I12 
Nov 26 20:53:23.392 HYPERVISOR: exec_cmd: nio create_udp udp-1be6b8de-6655-4b77-abae-1bfb07cb408d 15079 127.0.0.1 15081 
Nov 26 20:53:23.393 HYPERVISOR: exec_cmd: vm slot_add_nio_binding I12 1 2 udp-1be6b8de-6655-4b77-abae-1bfb07cb408d 
Nov 26 20:53:23.393 HYPERVISOR: exec_cmd: vm get_status I12 
Nov 26 20:53:23.432 HYPERVISOR: exec_cmd: nio create_udp udp-58d9ff7c-41ff-4eac-8404-d154d3ea8ca8 15084 127.0.0.1 15085 
Nov 26 20:53:23.433 HYPERVISOR: exec_cmd: vm slot_add_nio_binding I12 1 1 udp-58d9ff7c-41ff-4eac-8404-d154d3ea8ca8 
Nov 26 20:53:23.433 HYPERVISOR: exec_cmd: vm get_status I12 
Nov 26 20:53:27.558 HYPERVISOR: exec_cmd: vm extract_config I12 
Nov 26 20:54:29.868 HYPERVISOR: exec_cmd: vm get_status I12 
Nov 26 20:54:29.874 HYPERVISOR: exec_cmd: vm extract_config I12 
Nov 26 20:54:29.880 HYPERVISOR: exec_cmd: vm delete I12 
Nov 26 20:54:29.880 VM: VM I12 destroyed.
Nov 26 20:54:29.885 HYPERVISOR: exec_cmd: hypervisor stop 
Nov 26 20:54:30.233 HYPERVISOR: Stopped.
Nov 26 20:54:30.233 GENERAL: reset done.
