Nov 26 20:53:21.608 HYPERVISOR: Release 0.2.17-amd64/Linux (tag 2017072410)
Nov 26 20:53:21.608 HYPERVISOR: Started on IP = 127.0.0.1, TCP port = 51419.
Nov 26 20:53:21.647 HYPERVISOR: exec_cmd: hypervisor version 
Nov 26 20:53:21.648 HYPERVISOR: exec_cmd: hypervisor working_dir /media/actionmystique/SAMSUNG5-VMs/Labs/GNS3/VPN Tunnels/project-files/dynamips 
Nov 26 20:53:21.648 GENERAL: working_dir=/media/actionmystique/SAMSUNG5-VMs/Labs/GNS3/VPN Tunnels/project-files/dynamips
Nov 26 20:53:21.658 HYPERVISOR: exec_cmd: vm create I106 21 c7200 
Nov 26 20:53:21.658 VM: VM I106 created.
Nov 26 20:53:21.661 HYPERVISOR: exec_cmd: vm set_con_tcp_port I106 2027 
Nov 26 20:53:21.663 HYPERVISOR: exec_cmd: vm set_aux_tcp_port I106 2127 
Nov 26 20:53:21.665 HYPERVISOR: exec_cmd: c7200 get_mac_addr I106 
Nov 26 20:53:21.666 HYPERVISOR: exec_cmd: vm get_status I106 
Nov 26 20:53:21.669 HYPERVISOR: exec_cmd: vm slot_add_binding I106 0 0 C7200-IO-FE 
Nov 26 20:53:21.671 HYPERVISOR: exec_cmd: vm get_status I106 
Nov 26 20:53:21.673 HYPERVISOR: exec_cmd: vm slot_remove_binding I106 0 0 
Nov 26 20:53:21.679 HYPERVISOR: exec_cmd: vm get_status I106 
Nov 26 20:53:21.685 HYPERVISOR: exec_cmd: vm slot_add_binding I106 0 0 C7200-IO-GE-E 
Nov 26 20:53:21.687 HYPERVISOR: exec_cmd: vm set_ram I106 512 
Nov 26 20:53:21.693 HYPERVISOR: exec_cmd: vm get_status I106 
Nov 26 20:53:21.694 HYPERVISOR: exec_cmd: vm set_idle_pc I106 0x60188e14 
Nov 26 20:53:21.695 HYPERVISOR: exec_cmd: vm get_status I106 
Nov 26 20:53:21.696 HYPERVISOR: exec_cmd: vm slot_add_binding I106 1 0 PA-GE 
Nov 26 20:53:21.698 HYPERVISOR: exec_cmd: vm set_ios I106 /media/actionmystique/SAMSUNG5-VMs/Images/GNS3/IOS/c7200-adventerprisek9-mz.152-4.M2.image 
Nov 26 20:53:21.702 HYPERVISOR: exec_cmd: vm set_config I106 configs/i21_startup-config.cfg 
Nov 26 20:53:23.343 HYPERVISOR: exec_cmd: nio create_udp udp-5452c841-02e0-40b5-a630-ac5ec4a027b5 15074 127.0.0.1 15075 
Nov 26 20:53:23.344 HYPERVISOR: exec_cmd: vm slot_add_nio_binding I106 0 0 udp-5452c841-02e0-40b5-a630-ac5ec4a027b5 
Nov 26 20:53:23.344 HYPERVISOR: exec_cmd: vm get_status I106 
Nov 26 20:53:23.357 HYPERVISOR: exec_cmd: nio create_udp udp-dd0481a6-c42f-4975-a0c4-c17086b70255 15076 127.0.0.1 15078 
Nov 26 20:53:23.360 HYPERVISOR: exec_cmd: vm slot_add_nio_binding I106 1 0 udp-dd0481a6-c42f-4975-a0c4-c17086b70255 
Nov 26 20:53:23.360 HYPERVISOR: exec_cmd: vm get_status I106 
Nov 26 20:53:27.555 HYPERVISOR: exec_cmd: vm extract_config I106 
Nov 26 20:54:29.869 HYPERVISOR: exec_cmd: vm get_status I106 
Nov 26 20:54:29.876 HYPERVISOR: exec_cmd: vm extract_config I106 
Nov 26 20:54:29.881 HYPERVISOR: exec_cmd: vm delete I106 
Nov 26 20:54:29.881 VM: VM I106 destroyed.
Nov 26 20:54:29.887 HYPERVISOR: exec_cmd: hypervisor stop 
Nov 26 20:54:30.197 HYPERVISOR: Stopped.
Nov 26 20:54:30.197 GENERAL: reset done.
