Nov 26 20:53:21.316 HYPERVISOR: Release 0.2.17-amd64/Linux (tag 2017072410)
Nov 26 20:53:21.316 HYPERVISOR: Started on IP = 127.0.0.1, TCP port = 37659.
Nov 26 20:53:21.365 HYPERVISOR: exec_cmd: hypervisor version 
Nov 26 20:53:21.369 HYPERVISOR: exec_cmd: hypervisor working_dir /media/actionmystique/SAMSUNG5-VMs/Labs/GNS3/VPN Tunnels/project-files/dynamips 
Nov 26 20:53:21.369 GENERAL: working_dir=/media/actionmystique/SAMSUNG5-VMs/Labs/GNS3/VPN Tunnels/project-files/dynamips
Nov 26 20:53:21.371 HYPERVISOR: exec_cmd: vm create R11 9 c7200 
Nov 26 20:53:21.371 VM: VM R11 created.
Nov 26 20:53:21.372 HYPERVISOR: exec_cmd: vm set_con_tcp_port R11 2051 
Nov 26 20:53:21.378 HYPERVISOR: exec_cmd: vm set_aux_tcp_port R11 2151 
Nov 26 20:53:21.391 HYPERVISOR: exec_cmd: c7200 get_mac_addr R11 
Nov 26 20:53:21.393 HYPERVISOR: exec_cmd: vm get_status R11 
Nov 26 20:53:21.395 HYPERVISOR: exec_cmd: vm slot_add_binding R11 0 0 C7200-IO-FE 
Nov 26 20:53:21.396 HYPERVISOR: exec_cmd: vm get_status R11 
Nov 26 20:53:21.398 HYPERVISOR: exec_cmd: vm slot_remove_binding R11 0 0 
Nov 26 20:53:21.400 HYPERVISOR: exec_cmd: vm get_status R11 
Nov 26 20:53:21.402 HYPERVISOR: exec_cmd: vm slot_add_binding R11 0 0 C7200-IO-GE-E 
Nov 26 20:53:21.403 HYPERVISOR: exec_cmd: vm get_status R11 
Nov 26 20:53:21.405 HYPERVISOR: exec_cmd: vm slot_add_binding R11 2 0 PA-8T 
Nov 26 20:53:21.407 HYPERVISOR: exec_cmd: vm set_ram R11 512 
Nov 26 20:53:21.409 HYPERVISOR: exec_cmd: vm get_status R11 
Nov 26 20:53:21.410 HYPERVISOR: exec_cmd: vm set_idle_pc R11 0x60188e14 
Nov 26 20:53:21.412 HYPERVISOR: exec_cmd: vm get_status R11 
Nov 26 20:53:21.413 HYPERVISOR: exec_cmd: vm slot_add_binding R11 1 0 PA-2FE-TX 
Nov 26 20:53:21.416 HYPERVISOR: exec_cmd: vm set_ios R11 /media/actionmystique/SAMSUNG5-VMs/Images/GNS3/IOS/c7200-adventerprisek9-mz.152-4.M2.image 
Nov 26 20:53:21.422 HYPERVISOR: exec_cmd: vm set_config R11 configs/i9_startup-config.cfg 
Nov 26 20:53:22.777 HYPERVISOR: exec_cmd: nio create_udp udp-92447238-7e14-41eb-8f59-79cb96e60b20 15021 127.0.0.1 15020 
Nov 26 20:53:22.777 HYPERVISOR: exec_cmd: vm slot_add_nio_binding R11 0 0 udp-92447238-7e14-41eb-8f59-79cb96e60b20 
Nov 26 20:53:22.778 HYPERVISOR: exec_cmd: vm get_status R11 
Nov 26 20:53:22.792 HYPERVISOR: exec_cmd: nio create_udp udp-71b083fe-3731-4306-9104-3a83e2dce763 15023 127.0.0.1 15022 
Nov 26 20:53:22.793 HYPERVISOR: exec_cmd: vm slot_add_nio_binding R11 2 0 udp-71b083fe-3731-4306-9104-3a83e2dce763 
Nov 26 20:53:22.794 HYPERVISOR: exec_cmd: vm get_status R11 
Nov 26 20:53:22.800 HYPERVISOR: exec_cmd: nio create_udp udp-f74d49f0-9b4f-4843-bba0-a1b7f35adbf9 15024 127.0.0.1 15025 
Nov 26 20:53:22.801 HYPERVISOR: exec_cmd: vm slot_add_nio_binding R11 1 0 udp-f74d49f0-9b4f-4843-bba0-a1b7f35adbf9 
Nov 26 20:53:22.801 HYPERVISOR: exec_cmd: vm get_status R11 
Nov 26 20:53:22.851 HYPERVISOR: exec_cmd: nio create_udp udp-f64aa78d-d330-4e43-a113-a209cdfa250d 15027 127.0.0.1 15029 
Nov 26 20:53:22.855 HYPERVISOR: exec_cmd: vm slot_add_nio_binding R11 1 1 udp-f64aa78d-d330-4e43-a113-a209cdfa250d 
Nov 26 20:53:22.856 HYPERVISOR: exec_cmd: vm get_status R11 
Nov 26 20:53:23.468 HYPERVISOR: exec_cmd: nio create_udp udp-2d4ce8aa-ec86-40d5-a66b-dce593cf1e48 15088 127.0.0.1 15086 
Nov 26 20:53:23.469 HYPERVISOR: exec_cmd: vm slot_add_nio_binding R11 2 1 udp-2d4ce8aa-ec86-40d5-a66b-dce593cf1e48 
Nov 26 20:53:23.469 HYPERVISOR: exec_cmd: vm get_status R11 
Nov 26 20:53:27.561 HYPERVISOR: exec_cmd: vm extract_config R11 
Nov 26 20:54:29.870 HYPERVISOR: exec_cmd: vm get_status R11 
Nov 26 20:54:29.876 HYPERVISOR: exec_cmd: vm extract_config R11 
Nov 26 20:54:29.882 HYPERVISOR: exec_cmd: vm delete R11 
Nov 26 20:54:29.882 VM: VM R11 destroyed.
Nov 26 20:54:29.888 HYPERVISOR: exec_cmd: hypervisor stop 
Nov 26 20:54:29.916 HYPERVISOR: Stopped.
Nov 26 20:54:29.916 GENERAL: reset done.
