Nov 28 08:38:43.449 HYPERVISOR: Release 0.2.17-amd64/Linux (tag 2017072410)
Nov 28 08:38:43.449 HYPERVISOR: Started on IP = 127.0.0.1, TCP port = 39569.
Nov 28 08:38:43.463 HYPERVISOR: exec_cmd: hypervisor version 
Nov 28 08:38:43.464 HYPERVISOR: exec_cmd: hypervisor working_dir /media/actionmystique/SAMSUNG5-VMs/Labs/GNS3/git-Public-Labs-Collection/CCNP/TBSHOOT/L3-Technologies/IPv4/Routing-Protocols/OSPFv2/Jean-Christophe_Manciot/1+/TT 1-linux/project-files/dynamips 
Nov 28 08:38:43.464 GENERAL: working_dir=/media/actionmystique/SAMSUNG5-VMs/Labs/GNS3/git-Public-Labs-Collection/CCNP/TBSHOOT/L3-Technologies/IPv4/Routing-Protocols/OSPFv2/Jean-Christophe_Manciot/1+/TT 1-linux/project-files/dynamips
Nov 28 08:38:43.465 HYPERVISOR: exec_cmd: vm create ESW4 4 c3725 
Nov 28 08:38:43.465 VM: VM ESW4 created.
Nov 28 08:38:43.466 HYPERVISOR: exec_cmd: vm set_con_tcp_port ESW4 2009 
Nov 28 08:38:43.466 HYPERVISOR: exec_cmd: c3725 get_mac_addr ESW4 
Nov 28 08:38:43.467 HYPERVISOR: exec_cmd: vm set_disk0 ESW4 1 
Nov 28 08:38:43.468 HYPERVISOR: exec_cmd: vm get_status ESW4 
Nov 28 08:38:43.468 HYPERVISOR: exec_cmd: vm slot_add_binding ESW4 1 0 NM-16ESW 
Nov 28 08:38:43.469 HYPERVISOR: exec_cmd: vm set_ios ESW4 /media/actionmystique/SAMSUNG5-VMs/Images/GNS3/IOS/c3725-adventerprisek9-mz.124-15.T10.image 
Nov 28 08:38:43.470 HYPERVISOR: exec_cmd: c3725 set_mac_addr ESW4 c204.11f4.0000 
Nov 28 08:38:43.471 HYPERVISOR: exec_cmd: vm slot_add_binding ESW4 0 16 WIC-2T 
Nov 28 08:38:43.471 HYPERVISOR: exec_cmd: vm get_status ESW4 
Nov 28 08:38:43.472 HYPERVISOR: exec_cmd: vm set_idle_pc ESW4 0x614ac27c 
Nov 28 08:38:43.476 HYPERVISOR: exec_cmd: vm set_nvram ESW4 256 
Nov 28 08:38:43.484 HYPERVISOR: exec_cmd: vm set_config ESW4 configs/ios_base_startup-config.txt 
Nov 28 08:38:43.490 HYPERVISOR: exec_cmd: vm set_config ESW4 configs/ios_base_startup-config.txt configs/ios_base_private-config.txt 
Nov 28 08:38:43.711 HYPERVISOR: exec_cmd: nio create_udp udp-a56300a7-4cff-49e0-9562-3f1f41969d67 15014 127.0.0.1 15015 
Nov 28 08:38:43.712 HYPERVISOR: exec_cmd: vm slot_add_nio_binding ESW4 1 0 udp-a56300a7-4cff-49e0-9562-3f1f41969d67 
Nov 28 08:38:43.712 HYPERVISOR: exec_cmd: vm get_status ESW4 
Nov 28 08:38:43.735 HYPERVISOR: exec_cmd: nio create_udp udp-a13a7842-a695-4c05-8175-68e0016343dd 15017 127.0.0.1 15016 
Nov 28 08:38:43.735 HYPERVISOR: exec_cmd: vm slot_add_nio_binding ESW4 1 1 udp-a13a7842-a695-4c05-8175-68e0016343dd 
Nov 28 08:38:43.736 HYPERVISOR: exec_cmd: vm get_status ESW4 
