Nov 28 08:19:23.645 HYPERVISOR: Release 0.2.17-amd64/Linux (tag 2017072410)
Nov 28 08:19:23.645 HYPERVISOR: Started on IP = 127.0.0.1, TCP port = 40853.
Nov 28 08:19:23.661 HYPERVISOR: exec_cmd: hypervisor version 
Nov 28 08:19:23.661 HYPERVISOR: exec_cmd: hypervisor working_dir /media/actionmystique/SAMSUNG5-VMs/Labs/GNS3/git-Public-Labs-Collection/CCNP/TBSHOOT/L3-Technologies/IPv4/Routing/Routed Port/Jean-Christophe_Manciot/1+/TT 1-solutions-linux/project-files/dynamips 
Nov 28 08:19:23.661 GENERAL: working_dir=/media/actionmystique/SAMSUNG5-VMs/Labs/GNS3/git-Public-Labs-Collection/CCNP/TBSHOOT/L3-Technologies/IPv4/Routing/Routed Port/Jean-Christophe_Manciot/1+/TT 1-solutions-linux/project-files/dynamips
Nov 28 08:19:23.662 HYPERVISOR: exec_cmd: vm create ESW1 1 c3725 
Nov 28 08:19:23.662 VM: VM ESW1 created.
Nov 28 08:19:23.662 HYPERVISOR: exec_cmd: vm set_con_tcp_port ESW1 2001 
Nov 28 08:19:23.663 HYPERVISOR: exec_cmd: vm set_aux_tcp_port ESW1 2501 
Nov 28 08:19:23.663 HYPERVISOR: exec_cmd: c3725 get_mac_addr ESW1 
Nov 28 08:19:23.664 HYPERVISOR: exec_cmd: vm set_disk0 ESW1 1 
Nov 28 08:19:23.665 HYPERVISOR: exec_cmd: vm get_status ESW1 
Nov 28 08:19:23.665 HYPERVISOR: exec_cmd: vm slot_add_binding ESW1 1 0 NM-16ESW 
Nov 28 08:19:23.666 HYPERVISOR: exec_cmd: vm set_ios ESW1 /media/actionmystique/SAMSUNG5-VMs/Images/GNS3/IOS/c3725-adventerprisek9-mz.124-15.T10.image 
Nov 28 08:19:23.666 HYPERVISOR: exec_cmd: c3725 set_mac_addr ESW1 c201.3297.0000 
Nov 28 08:19:23.667 HYPERVISOR: exec_cmd: vm slot_add_binding ESW1 0 16 WIC-2T 
Nov 28 08:19:23.668 HYPERVISOR: exec_cmd: vm get_status ESW1 
Nov 28 08:19:23.668 HYPERVISOR: exec_cmd: vm set_idle_pc ESW1 0x6026b804 
Nov 28 08:19:23.669 HYPERVISOR: exec_cmd: vm set_nvram ESW1 256 
Nov 28 08:19:23.669 HYPERVISOR: exec_cmd: vm set_config ESW1 configs/i1_startup-config.cfg 
Nov 28 08:19:23.670 HYPERVISOR: exec_cmd: vm set_config ESW1 configs/i1_startup-config.cfg configs/i1_private-config.cfg 
Nov 28 08:19:23.779 HYPERVISOR: exec_cmd: nio create_udp udp-7a6c7b89-3010-476a-b1a0-5e6e91f1a2b1 15001 127.0.0.1 15000 
Nov 28 08:19:23.781 HYPERVISOR: exec_cmd: vm slot_add_nio_binding ESW1 1 1 udp-7a6c7b89-3010-476a-b1a0-5e6e91f1a2b1 
Nov 28 08:19:23.787 HYPERVISOR: exec_cmd: vm get_status ESW1 
Nov 28 08:19:23.799 HYPERVISOR: exec_cmd: nio create_udp udp-d8ca0c45-6833-483a-ab5e-fa1658390396 15002 127.0.0.1 15003 
Nov 28 08:19:23.800 HYPERVISOR: exec_cmd: vm slot_add_nio_binding ESW1 1 2 udp-d8ca0c45-6833-483a-ab5e-fa1658390396 
Nov 28 08:19:23.800 HYPERVISOR: exec_cmd: vm get_status ESW1 
Nov 28 08:19:23.847 HYPERVISOR: exec_cmd: nio create_udp udp-0e68295f-3bff-4f97-8a01-ca579c1f0f3c 15005 127.0.0.1 15004 
Nov 28 08:19:23.847 HYPERVISOR: exec_cmd: vm slot_add_nio_binding ESW1 1 0 udp-0e68295f-3bff-4f97-8a01-ca579c1f0f3c 
Nov 28 08:19:23.848 HYPERVISOR: exec_cmd: vm get_status ESW1 
Nov 28 08:20:06.177 HYPERVISOR: exec_cmd: vm extract_config ESW1 
