Nov 28 08:13:13.812 HYPERVISOR: Release 0.2.17-amd64/Linux (tag 2017072410)
Nov 28 08:13:13.812 HYPERVISOR: Started on IP = 127.0.0.1, TCP port = 45369.
Nov 28 08:13:13.835 HYPERVISOR: exec_cmd: hypervisor version 
Nov 28 08:13:13.840 HYPERVISOR: exec_cmd: hypervisor working_dir /media/actionmystique/SAMSUNG5-VMs/Labs/GNS3/TT 1-solutions-linux-/project-files/dynamips 
Nov 28 08:13:13.840 GENERAL: working_dir=/media/actionmystique/SAMSUNG5-VMs/Labs/GNS3/TT 1-solutions-linux-/project-files/dynamips
Nov 28 08:13:13.850 HYPERVISOR: exec_cmd: vm create ESW3 3 c3725 
Nov 28 08:13:13.850 VM: VM ESW3 created.
Nov 28 08:13:13.860 HYPERVISOR: exec_cmd: vm set_con_tcp_port ESW3 2006 
Nov 28 08:13:13.860 HYPERVISOR: exec_cmd: c3725 get_mac_addr ESW3 
Nov 28 08:13:13.860 HYPERVISOR: exec_cmd: vm set_disk0 ESW3 1 
Nov 28 08:13:13.861 HYPERVISOR: exec_cmd: vm get_status ESW3 
Nov 28 08:13:13.861 HYPERVISOR: exec_cmd: vm slot_add_binding ESW3 1 0 NM-16ESW 
Nov 28 08:13:13.862 HYPERVISOR: exec_cmd: vm set_ios ESW3 /media/actionmystique/SAMSUNG5-VMs/Images/GNS3/IOS/c3725-adventerprisek9-mz.124-15.T10.image 
Nov 28 08:13:13.862 HYPERVISOR: exec_cmd: c3725 set_mac_addr ESW3 c203.1bfb.0000 
Nov 28 08:13:13.863 HYPERVISOR: exec_cmd: vm slot_add_binding ESW3 0 16 WIC-2T 
Nov 28 08:13:13.863 HYPERVISOR: exec_cmd: vm get_status ESW3 
Nov 28 08:13:13.863 HYPERVISOR: exec_cmd: vm set_idle_pc ESW3 0x6026b804 
Nov 28 08:13:13.864 HYPERVISOR: exec_cmd: vm set_nvram ESW3 256 
Nov 28 08:13:13.864 HYPERVISOR: exec_cmd: vm set_config ESW3 configs/ios_base_startup-config.txt 
Nov 28 08:13:13.865 HYPERVISOR: exec_cmd: vm set_config ESW3 configs/ios_base_startup-config.txt configs/ios_base_private-config.txt 
Nov 28 08:13:14.021 HYPERVISOR: exec_cmd: nio create_tap tap-4cc52cff-6035-4e24-b2fb-2b412a32325b tap0 
Nov 28 08:13:14.028 HYPERVISOR: exec_cmd: vm slot_add_nio_binding ESW3 1 1 tap-4cc52cff-6035-4e24-b2fb-2b412a32325b 
Nov 28 08:13:14.030 HYPERVISOR: exec_cmd: vm get_status ESW3 
Nov 28 08:13:14.203 HYPERVISOR: exec_cmd: nio create_udp udp-cc33d94a-e603-4f61-8432-52e4b94a4003 15015 127.0.0.1 15014 
Nov 28 08:13:14.204 HYPERVISOR: exec_cmd: vm slot_add_nio_binding ESW3 1 0 udp-cc33d94a-e603-4f61-8432-52e4b94a4003 
Nov 28 08:13:14.204 HYPERVISOR: exec_cmd: vm get_status ESW3 
Nov 28 08:13:25.124 HYPERVISOR: exec_cmd: vm extract_config ESW3 
Nov 28 08:13:40.052 HYPERVISOR: exec_cmd: vm get_status ESW3 
Nov 28 08:13:40.055 HYPERVISOR: exec_cmd: vm extract_config ESW3 
Nov 28 08:13:40.057 HYPERVISOR: exec_cmd: vm delete ESW3 
Nov 28 08:13:40.057 VM: VM ESW3 destroyed.
Nov 28 08:13:40.059 HYPERVISOR: exec_cmd: hypervisor stop 
Nov 28 08:13:40.354 HYPERVISOR: Stopped.
Nov 28 08:13:40.354 GENERAL: reset done.
