Apr 24 19:11:39.534 HYPERVISOR: Release 0.2.14-amd64/Linux (tag 2014092320)
Apr 24 19:11:39.534 HYPERVISOR: Started on IP = 127.0.0.1, TCP port = 7201.
Apr 24 19:11:39.541 HYPERVISOR: exec_cmd: hypervisor version 
Apr 24 19:11:39.541 HYPERVISOR: exec_cmd: hypervisor uuid 
Apr 24 19:11:39.541 HYPERVISOR: exec_cmd: hypervisor working_dir /home/actionmystique/Google Drive/Missions/Certifications/Cisco/Labs/GNS3/CCNP/TBSHOOT/Infrastructure Services/DHCP - NAT/Jean-Christophe/1+/TT 2-linux/TT 2-linux-files/dynamips 
Apr 24 19:11:39.541 GENERAL: working_dir=/home/actionmystique/Google Drive/Missions/Certifications/Cisco/Labs/GNS3/CCNP/TBSHOOT/Infrastructure Services/DHCP - NAT/Jean-Christophe/1+/TT 2-linux/TT 2-linux-files/dynamips
Apr 24 19:11:39.541 HYPERVISOR: exec_cmd: vm create ESW2 2 c3725 
Apr 24 19:11:39.541 VM: VM ESW2 created.
Apr 24 19:11:39.542 HYPERVISOR: exec_cmd: vm set_con_tcp_port ESW2 2002 
Apr 24 19:11:39.542 HYPERVISOR: exec_cmd: vm set_aux_tcp_port ESW2 2502 
Apr 24 19:11:39.542 HYPERVISOR: exec_cmd: c3725 get_mac_addr ESW2 
Apr 24 19:11:39.542 HYPERVISOR: exec_cmd: vm set_ios ESW2 /media/actionmystique/SAMSUNG-Ext4/Images/GNS3/IOS/c3725-adventerprisek9-mz.124-15.T10.image 
Apr 24 19:11:39.542 HYPERVISOR: exec_cmd: vm set_sparse_mem ESW2 1 
Apr 24 19:11:39.542 HYPERVISOR: exec_cmd: vm set_ram_mmap ESW2 1 
Apr 24 19:11:39.542 HYPERVISOR: exec_cmd: c3725 set_mac_addr ESW2 c202.28c2.0000 
Apr 24 19:11:39.543 HYPERVISOR: exec_cmd: vm set_ghost_status ESW2 2 
Apr 24 19:11:39.543 HYPERVISOR: exec_cmd: vm set_ghost_file ESW2 c3725-adventerprisek9-mz.124-15.T10.image-128.ghost 
Apr 24 19:11:39.564 HYPERVISOR: exec_cmd: vm set_config ESW2 configs/i2_startup-config.cfg 
Apr 24 19:11:39.564 HYPERVISOR: exec_cmd: vm set_config ESW2 configs/i2_startup-config.cfg configs/i2_private-config.cfg 
Apr 24 19:11:39.564 HYPERVISOR: exec_cmd: vm set_nvram ESW2 256 
Apr 24 19:11:39.564 HYPERVISOR: exec_cmd: vm set_disk0 ESW2 1 
Apr 24 19:11:39.564 HYPERVISOR: exec_cmd: vm slot_add_binding ESW2 0 16 WIC-2T 
Apr 24 19:11:39.564 HYPERVISOR: exec_cmd: vm get_status ESW2 
Apr 24 19:11:39.564 HYPERVISOR: exec_cmd: vm set_idle_pc ESW2 0x614ac27c 
Apr 24 19:11:39.564 HYPERVISOR: exec_cmd: vm get_status ESW2 
Apr 24 19:11:39.564 HYPERVISOR: exec_cmd: vm slot_add_binding ESW2 1 0 NM-16ESW 
Apr 24 19:11:39.565 HYPERVISOR: exec_cmd: vm get_status ESW2 
Apr 24 19:11:39.573 HYPERVISOR: exec_cmd: nio create_udp_auto nio_udp_auto3 127.0.0.1 10001 20000 
Apr 24 19:11:39.583 HYPERVISOR: exec_cmd: nio create_tap nio_tap0 tap0 
Apr 24 19:11:39.583 HYPERVISOR: exec_cmd: vm slot_add_nio_binding ESW2 1 0 nio_tap0 
Apr 24 19:11:39.583 HYPERVISOR: exec_cmd: vm get_status ESW2 
Apr 24 19:11:39.610 HYPERVISOR: exec_cmd: nio connect_udp_auto nio_udp_auto3 127.0.0.1 40004 
Apr 24 19:11:39.610 HYPERVISOR: exec_cmd: vm slot_add_nio_binding ESW2 1 2 nio_udp_auto3 
Apr 24 19:11:39.610 HYPERVISOR: exec_cmd: vm get_status ESW2 
Apr 24 19:12:04.736 HYPERVISOR: exec_cmd: vm get_status ESW2 
Apr 24 19:12:04.737 HYPERVISOR: exec_cmd: vm start ESW2 
Apr 24 19:12:04.738 GHOST: loaded ghost image c3725-adventerprisek9-mz.124-15.T10.image-128.ghost (fd=14) at addr=0x7fdb5c000000 (size=0x10000000)
Apr 24 19:12:04.738 GHOST: loaded image c3725-adventerprisek9-mz.124-15.T10.image-128.ghost successfully.
Apr 24 19:17:28.210 HYPERVISOR: exec_cmd: vm extract_config ESW2 
Apr 24 19:19:31.530 HYPERVISOR: exec_cmd: vm extract_config ESW2 
Apr 24 19:19:33.257 HYPERVISOR: exec_cmd: vm get_status ESW2 
Apr 24 19:19:33.257 HYPERVISOR: exec_cmd: vm stop ESW2 
Apr 24 19:19:33.329 GHOST: unloaded ghost image c3725-adventerprisek9-mz.124-15.T10.image-128.ghost (fd=14) at addr=0x7fdb5c000000 (size=0x10000000)
Apr 24 19:19:33.341 VM: VM ESW2 shutdown.
Apr 24 19:19:35.668 HYPERVISOR: exec_cmd: vm extract_config ESW2 
Apr 24 19:19:35.689 HYPERVISOR: exec_cmd: hypervisor stop 
