Nov 28 08:26:06.638 HYPERVISOR: Release 0.2.17-amd64/Linux (tag 2017072410)
Nov 28 08:26:06.638 HYPERVISOR: Started on IP = 127.0.0.1, TCP port = 37541.
Nov 28 08:26:06.657 HYPERVISOR: exec_cmd: hypervisor version 
Nov 28 08:26:06.658 HYPERVISOR: exec_cmd: hypervisor working_dir /media/actionmystique/SAMSUNG5-VMs/Labs/GNS3/TT 1-solutions-linux-/project-files/dynamips 
Nov 28 08:26:06.658 GENERAL: working_dir=/media/actionmystique/SAMSUNG5-VMs/Labs/GNS3/TT 1-solutions-linux-/project-files/dynamips
Nov 28 08:26:06.658 HYPERVISOR: exec_cmd: vm create ESW4 4 c3725 
Nov 28 08:26:06.658 VM: VM ESW4 created.
Nov 28 08:26:06.658 HYPERVISOR: exec_cmd: vm set_con_tcp_port ESW4 2006 
Nov 28 08:26:06.659 HYPERVISOR: exec_cmd: c3725 get_mac_addr ESW4 
Nov 28 08:26:06.659 HYPERVISOR: exec_cmd: vm set_disk0 ESW4 1 
Nov 28 08:26:06.660 HYPERVISOR: exec_cmd: vm get_status ESW4 
Nov 28 08:26:06.660 HYPERVISOR: exec_cmd: vm slot_add_binding ESW4 1 0 NM-16ESW 
Nov 28 08:26:06.660 HYPERVISOR: exec_cmd: vm set_ios ESW4 /media/actionmystique/SAMSUNG5-VMs/Images/GNS3/IOS/c3725-adventerprisek9-mz.124-15.T10.image 
Nov 28 08:26:06.661 HYPERVISOR: exec_cmd: c3725 set_mac_addr ESW4 c204.44a3.0000 
Nov 28 08:26:06.661 HYPERVISOR: exec_cmd: vm slot_add_binding ESW4 0 16 WIC-2T 
Nov 28 08:26:06.662 HYPERVISOR: exec_cmd: vm get_status ESW4 
Nov 28 08:26:06.662 HYPERVISOR: exec_cmd: vm set_idle_pc ESW4 0x60c06d20 
Nov 28 08:26:06.662 HYPERVISOR: exec_cmd: vm set_nvram ESW4 256 
Nov 28 08:26:06.663 HYPERVISOR: exec_cmd: vm set_config ESW4 configs/ios_base_startup-config.txt 
Nov 28 08:26:06.663 HYPERVISOR: exec_cmd: vm set_config ESW4 configs/ios_base_startup-config.txt configs/ios_base_private-config.txt 
Nov 28 08:26:06.927 HYPERVISOR: exec_cmd: nio create_udp udp-179761b7-ad81-4a34-90d9-8372c41b4ee5 15012 127.0.0.1 15011 
Nov 28 08:26:06.928 HYPERVISOR: exec_cmd: vm slot_add_nio_binding ESW4 1 0 udp-179761b7-ad81-4a34-90d9-8372c41b4ee5 
Nov 28 08:26:06.928 HYPERVISOR: exec_cmd: vm get_status ESW4 
Nov 28 08:26:06.975 HYPERVISOR: exec_cmd: nio create_udp udp-f529d67f-8bb4-44eb-84a7-e32e0a140d84 15015 127.0.0.1 15014 
Nov 28 08:26:06.976 HYPERVISOR: exec_cmd: vm slot_add_nio_binding ESW4 1 1 udp-f529d67f-8bb4-44eb-84a7-e32e0a140d84 
Nov 28 08:26:06.976 HYPERVISOR: exec_cmd: vm get_status ESW4 
Nov 28 08:26:31.612 HYPERVISOR: exec_cmd: vm get_status ESW4 
Nov 28 08:26:31.616 HYPERVISOR: exec_cmd: vm extract_config ESW4 
Nov 28 08:26:31.617 HYPERVISOR: exec_cmd: vm delete ESW4 
Nov 28 08:26:31.618 VM: VM ESW4 destroyed.
Nov 28 08:26:31.618 HYPERVISOR: exec_cmd: hypervisor stop 
Nov 28 08:26:31.677 HYPERVISOR: Stopped.
Nov 28 08:26:31.678 GENERAL: reset done.
