Nov 26 20:12:28.813 HYPERVISOR: Release 0.2.17-amd64/Linux (tag 2017072410)
Nov 26 20:12:28.813 HYPERVISOR: Started on IP = 127.0.0.1, TCP port = 53411.
Nov 26 20:12:28.845 HYPERVISOR: exec_cmd: hypervisor version 
Nov 26 20:12:28.847 HYPERVISOR: exec_cmd: hypervisor working_dir /media/actionmystique/SAMSUNG5-VMs/Labs/GNS3/OSPF-EIGRP/project-files/dynamips 
Nov 26 20:12:28.847 GENERAL: working_dir=/media/actionmystique/SAMSUNG5-VMs/Labs/GNS3/OSPF-EIGRP/project-files/dynamips
Nov 26 20:12:28.855 HYPERVISOR: exec_cmd: vm create I107 19 c7200 
Nov 26 20:12:28.855 VM: VM I107 created.
Nov 26 20:12:28.864 HYPERVISOR: exec_cmd: vm set_con_tcp_port I107 2031 
Nov 26 20:12:28.866 HYPERVISOR: exec_cmd: vm set_aux_tcp_port I107 2131 
Nov 26 20:12:28.868 HYPERVISOR: exec_cmd: c7200 get_mac_addr I107 
Nov 26 20:12:28.870 HYPERVISOR: exec_cmd: vm get_status I107 
Nov 26 20:12:28.871 HYPERVISOR: exec_cmd: vm slot_add_binding I107 0 0 C7200-IO-FE 
Nov 26 20:12:28.872 HYPERVISOR: exec_cmd: vm set_ios I107 /media/actionmystique/SAMSUNG5-VMs/Images/GNS3/IOS/c7200-adventerprisek9-mz.152-4.M2.image 
Nov 26 20:12:28.874 HYPERVISOR: exec_cmd: vm get_status I107 
Nov 26 20:12:28.879 HYPERVISOR: exec_cmd: vm slot_add_binding I107 1 0 PA-8T 
Nov 26 20:12:28.891 HYPERVISOR: exec_cmd: vm get_status I107 
Nov 26 20:12:28.894 HYPERVISOR: exec_cmd: vm set_idle_pc I107 0x60188e14 
Nov 26 20:12:28.900 HYPERVISOR: exec_cmd: vm get_status I107 
Nov 26 20:12:28.910 HYPERVISOR: exec_cmd: vm slot_remove_binding I107 0 0 
Nov 26 20:12:28.913 HYPERVISOR: exec_cmd: vm get_status I107 
Nov 26 20:12:28.916 HYPERVISOR: exec_cmd: vm slot_add_binding I107 0 0 C7200-IO-GE-E 
Nov 26 20:12:28.918 HYPERVISOR: exec_cmd: vm set_ram I107 512 
Nov 26 20:12:28.920 HYPERVISOR: exec_cmd: vm set_config I107 configs/i19_startup-config.cfg 
Nov 26 20:12:29.930 HYPERVISOR: exec_cmd: vm extract_config I107 
Nov 26 20:12:30.577 HYPERVISOR: exec_cmd: nio create_udp udp-10dda785-e1e7-42ae-adab-c20dca2c45f5 15060 127.0.0.1 15058 
Nov 26 20:12:30.578 HYPERVISOR: exec_cmd: vm slot_add_nio_binding I107 1 0 udp-10dda785-e1e7-42ae-adab-c20dca2c45f5 
Nov 26 20:12:30.581 HYPERVISOR: exec_cmd: vm get_status I107 
Nov 26 20:12:30.597 HYPERVISOR: exec_cmd: nio create_udp udp-3c601b86-f22d-4cd6-bd3a-1cf5ab6dc41e 15059 127.0.0.1 15062 
Nov 26 20:12:30.597 HYPERVISOR: exec_cmd: vm slot_add_nio_binding I107 1 1 udp-3c601b86-f22d-4cd6-bd3a-1cf5ab6dc41e 
Nov 26 20:12:30.598 HYPERVISOR: exec_cmd: vm get_status I107 
Nov 26 20:12:30.664 HYPERVISOR: exec_cmd: nio create_udp udp-0bb4980f-702c-4ab2-a6c7-e55072ed9bf8 15066 127.0.0.1 15067 
Nov 26 20:12:30.665 HYPERVISOR: exec_cmd: vm slot_add_nio_binding I107 0 0 udp-0bb4980f-702c-4ab2-a6c7-e55072ed9bf8 
Nov 26 20:12:30.665 HYPERVISOR: exec_cmd: vm get_status I107 
Nov 26 20:14:16.136 HYPERVISOR: exec_cmd: vm get_status I107 
Nov 26 20:14:16.150 HYPERVISOR: exec_cmd: vm extract_config I107 
Nov 26 20:14:16.164 HYPERVISOR: exec_cmd: vm delete I107 
Nov 26 20:14:16.164 VM: VM I107 destroyed.
Nov 26 20:14:16.177 HYPERVISOR: exec_cmd: hypervisor stop 
Nov 26 20:14:16.442 HYPERVISOR: Stopped.
Nov 26 20:14:16.442 GENERAL: reset done.
