Nov 26 20:12:28.618 HYPERVISOR: Release 0.2.17-amd64/Linux (tag 2017072410)
Nov 26 20:12:28.618 HYPERVISOR: Started on IP = 127.0.0.1, TCP port = 51371.
Nov 26 20:12:28.652 HYPERVISOR: exec_cmd: hypervisor version 
Nov 26 20:12:28.653 HYPERVISOR: exec_cmd: hypervisor working_dir /media/actionmystique/SAMSUNG5-VMs/Labs/GNS3/OSPF-EIGRP/project-files/dynamips 
Nov 26 20:12:28.653 GENERAL: working_dir=/media/actionmystique/SAMSUNG5-VMs/Labs/GNS3/OSPF-EIGRP/project-files/dynamips
Nov 26 20:12:28.655 HYPERVISOR: exec_cmd: vm create R16 11 c7200 
Nov 26 20:12:28.655 VM: VM R16 created.
Nov 26 20:12:28.657 HYPERVISOR: exec_cmd: vm set_con_tcp_port R16 2016 
Nov 26 20:12:28.663 HYPERVISOR: exec_cmd: vm set_aux_tcp_port R16 2116 
Nov 26 20:12:28.676 HYPERVISOR: exec_cmd: c7200 get_mac_addr R16 
Nov 26 20:12:28.678 HYPERVISOR: exec_cmd: vm get_status R16 
Nov 26 20:12:28.680 HYPERVISOR: exec_cmd: vm slot_add_binding R16 0 0 C7200-IO-FE 
Nov 26 20:12:28.682 HYPERVISOR: exec_cmd: vm set_ios R16 /media/actionmystique/SAMSUNG5-VMs/Images/GNS3/IOS/c7200-adventerprisek9-mz.152-4.M2.image 
Nov 26 20:12:28.684 HYPERVISOR: exec_cmd: vm get_status R16 
Nov 26 20:12:28.690 HYPERVISOR: exec_cmd: vm slot_add_binding R16 1 0 PA-2FE-TX 
Nov 26 20:12:28.702 HYPERVISOR: exec_cmd: vm get_status R16 
Nov 26 20:12:28.705 HYPERVISOR: exec_cmd: vm set_idle_pc R16 0x60188e14 
Nov 26 20:12:28.707 HYPERVISOR: exec_cmd: vm get_status R16 
Nov 26 20:12:28.712 HYPERVISOR: exec_cmd: vm slot_remove_binding R16 0 0 
Nov 26 20:12:28.724 HYPERVISOR: exec_cmd: vm get_status R16 
Nov 26 20:12:28.727 HYPERVISOR: exec_cmd: vm slot_add_binding R16 0 0 C7200-IO-GE-E 
Nov 26 20:12:28.728 HYPERVISOR: exec_cmd: vm get_status R16 
Nov 26 20:12:28.730 HYPERVISOR: exec_cmd: vm slot_add_binding R16 2 0 PA-8T 
Nov 26 20:12:28.731 HYPERVISOR: exec_cmd: vm set_ram R16 512 
Nov 26 20:12:28.733 HYPERVISOR: exec_cmd: vm set_config R16 configs/i11_startup-config.cfg 
Nov 26 20:12:29.952 HYPERVISOR: exec_cmd: vm extract_config R16 
Nov 26 20:12:30.225 HYPERVISOR: exec_cmd: nio create_udp udp-a70c96f7-8f87-430b-809c-e1f2339c50fc 15024 127.0.0.1 15025 
Nov 26 20:12:30.230 HYPERVISOR: exec_cmd: vm slot_add_nio_binding R16 2 0 udp-a70c96f7-8f87-430b-809c-e1f2339c50fc 
Nov 26 20:12:30.234 HYPERVISOR: exec_cmd: vm get_status R16 
Nov 26 20:12:30.521 HYPERVISOR: exec_cmd: nio create_udp udp-e52bd972-b716-4ce4-9252-7cf493cfcd55 15053 127.0.0.1 15051 
Nov 26 20:12:30.521 HYPERVISOR: exec_cmd: vm slot_add_nio_binding R16 1 0 udp-e52bd972-b716-4ce4-9252-7cf493cfcd55 
Nov 26 20:12:30.522 HYPERVISOR: exec_cmd: vm get_status R16 
Nov 26 20:12:30.812 HYPERVISOR: exec_cmd: nio create_udp udp-acbac886-2b48-4fff-b4d0-ac897683b374 15081 127.0.0.1 15080 
Nov 26 20:12:30.813 HYPERVISOR: exec_cmd: vm slot_add_nio_binding R16 2 1 udp-acbac886-2b48-4fff-b4d0-ac897683b374 
Nov 26 20:12:30.813 HYPERVISOR: exec_cmd: vm get_status R16 
Nov 26 20:14:16.141 HYPERVISOR: exec_cmd: vm get_status R16 
Nov 26 20:14:16.156 HYPERVISOR: exec_cmd: vm extract_config R16 
Nov 26 20:14:16.169 HYPERVISOR: exec_cmd: vm delete R16 
Nov 26 20:14:16.169 VM: VM R16 destroyed.
Nov 26 20:14:16.182 HYPERVISOR: exec_cmd: hypervisor stop 
Nov 26 20:14:16.257 HYPERVISOR: Stopped.
Nov 26 20:14:16.257 GENERAL: reset done.
