Nov 29 18:59:47.321 HYPERVISOR: Release 0.2.17-amd64/Linux (tag 2017072410)
Nov 29 18:59:47.321 HYPERVISOR: Started on IP = 127.0.0.1, TCP port = 56841.
Nov 29 18:59:47.336 HYPERVISOR: exec_cmd: hypervisor version 
Nov 29 18:59:47.336 HYPERVISOR: exec_cmd: hypervisor working_dir /media/actionmystique/SAMSUNG5-VMs/Labs/GNS3/git-Public-Labs-Collection/CCNP/TBSHOOT/L3-Technologies/IPv6/IOS-Filtering-Tools/ACL/Jean-Christophe_Manciot/1+/TT 1-linux/project-files/dynamips 
Nov 29 18:59:47.336 GENERAL: working_dir=/media/actionmystique/SAMSUNG5-VMs/Labs/GNS3/git-Public-Labs-Collection/CCNP/TBSHOOT/L3-Technologies/IPv6/IOS-Filtering-Tools/ACL/Jean-Christophe_Manciot/1+/TT 1-linux/project-files/dynamips
Nov 29 18:59:47.336 HYPERVISOR: exec_cmd: vm create ESW1 1 c3725 
Nov 29 18:59:47.337 VM: VM ESW1 created.
Nov 29 18:59:47.337 HYPERVISOR: exec_cmd: vm set_con_tcp_port ESW1 2001 
Nov 29 18:59:47.337 HYPERVISOR: exec_cmd: vm set_aux_tcp_port ESW1 2501 
Nov 29 18:59:47.337 HYPERVISOR: exec_cmd: c3725 get_mac_addr ESW1 
Nov 29 18:59:47.338 HYPERVISOR: exec_cmd: vm slot_add_binding ESW1 0 16 WIC-2T 
Nov 29 18:59:47.338 HYPERVISOR: exec_cmd: vm set_ios ESW1 /media/actionmystique/SAMSUNG5-VMs/Images/GNS3/IOS/c3725-adventerprisek9-mz.124-15.T10.image 
Nov 29 18:59:47.338 HYPERVISOR: exec_cmd: vm get_status ESW1 
Nov 29 18:59:47.339 HYPERVISOR: exec_cmd: vm set_idle_pc ESW1 0x60c06d20 
Nov 29 18:59:47.339 HYPERVISOR: exec_cmd: vm get_status ESW1 
Nov 29 18:59:47.339 HYPERVISOR: exec_cmd: vm slot_add_binding ESW1 1 0 NM-16ESW 
Nov 29 18:59:47.340 HYPERVISOR: exec_cmd: c3725 set_mac_addr ESW1 c201.281a.0000 
Nov 29 18:59:47.340 HYPERVISOR: exec_cmd: vm set_disk0 ESW1 1 
Nov 29 18:59:47.340 HYPERVISOR: exec_cmd: vm set_nvram ESW1 256 
Nov 29 18:59:47.341 HYPERVISOR: exec_cmd: vm set_config ESW1 configs/i1_startup-config.cfg 
Nov 29 18:59:47.342 HYPERVISOR: exec_cmd: vm set_config ESW1 configs/i1_startup-config.cfg configs/i1_private-config.cfg 
Nov 29 18:59:47.497 HYPERVISOR: exec_cmd: nio create_udp udp-296938ed-25a1-4504-a74d-3df4b929cb4f 15003 127.0.0.1 15002 
Nov 29 18:59:47.498 HYPERVISOR: exec_cmd: vm slot_add_nio_binding ESW1 1 1 udp-296938ed-25a1-4504-a74d-3df4b929cb4f 
Nov 29 18:59:47.504 HYPERVISOR: exec_cmd: vm get_status ESW1 
Nov 29 18:59:47.510 HYPERVISOR: exec_cmd: nio create_udp udp-9d9d0c66-ab9f-4d9e-ab98-8ae81373b34f 15006 127.0.0.1 15005 
Nov 29 18:59:47.511 HYPERVISOR: exec_cmd: vm slot_add_nio_binding ESW1 1 2 udp-9d9d0c66-ab9f-4d9e-ab98-8ae81373b34f 
Nov 29 18:59:47.511 HYPERVISOR: exec_cmd: vm get_status ESW1 
Nov 29 18:59:47.520 HYPERVISOR: exec_cmd: nio create_udp udp-2db1102b-74c3-4d20-8b4f-89b09e298f11 15004 127.0.0.1 15007 
Nov 29 18:59:47.521 HYPERVISOR: exec_cmd: vm slot_add_nio_binding ESW1 1 0 udp-2db1102b-74c3-4d20-8b4f-89b09e298f11 
Nov 29 18:59:47.521 HYPERVISOR: exec_cmd: vm get_status ESW1 
Nov 29 18:59:47.553 HYPERVISOR: exec_cmd: nio create_udp udp-44944d31-d0ea-44bf-8792-7659da9e9969 15008 127.0.0.1 15010 
Nov 29 18:59:47.559 HYPERVISOR: exec_cmd: vm slot_add_nio_binding ESW1 1 3 udp-44944d31-d0ea-44bf-8792-7659da9e9969 
Nov 29 18:59:47.565 HYPERVISOR: exec_cmd: vm get_status ESW1 
