Nov 26 22:31:03.430 HYPERVISOR: Release 0.2.17-amd64/Linux (tag 2017072410)
Nov 26 22:31:03.430 HYPERVISOR: Started on IP = 127.0.0.1, TCP port = 39079.
Nov 26 22:31:03.436 HYPERVISOR: exec_cmd: hypervisor version 
Nov 26 22:31:03.437 HYPERVISOR: exec_cmd: hypervisor working_dir /media/actionmystique/SAMSUNG5-VMs/Labs/GNS3/git-Public-Labs-Collection/CCNP/TBSHOOT/Infrastructure-Services/DHCP-NAT/Jean-Christophe_Manciot/1+/DHCPv6/TT 1-solutions-linux/project-files/dynamips 
Nov 26 22:31:03.437 GENERAL: working_dir=/media/actionmystique/SAMSUNG5-VMs/Labs/GNS3/git-Public-Labs-Collection/CCNP/TBSHOOT/Infrastructure-Services/DHCP-NAT/Jean-Christophe_Manciot/1+/DHCPv6/TT 1-solutions-linux/project-files/dynamips
Nov 26 22:31:03.437 HYPERVISOR: exec_cmd: vm create ESW2 2 c3725 
Nov 26 22:31:03.437 VM: VM ESW2 created.
Nov 26 22:31:03.437 HYPERVISOR: exec_cmd: vm set_con_tcp_port ESW2 2002 
Nov 26 22:31:03.438 HYPERVISOR: exec_cmd: vm set_aux_tcp_port ESW2 2502 
Nov 26 22:31:03.438 HYPERVISOR: exec_cmd: c3725 get_mac_addr ESW2 
Nov 26 22:31:03.438 HYPERVISOR: exec_cmd: vm slot_add_binding ESW2 0 16 WIC-2T 
Nov 26 22:31:03.439 HYPERVISOR: exec_cmd: vm get_status ESW2 
Nov 26 22:31:03.439 HYPERVISOR: exec_cmd: vm set_idle_pc ESW2 0x60c06d20 
Nov 26 22:31:03.439 HYPERVISOR: exec_cmd: vm set_nvram ESW2 256 
Nov 26 22:31:03.440 HYPERVISOR: exec_cmd: vm get_status ESW2 
Nov 26 22:31:03.440 HYPERVISOR: exec_cmd: vm slot_add_binding ESW2 1 0 NM-16ESW 
Nov 26 22:31:03.440 HYPERVISOR: exec_cmd: vm set_ios ESW2 /media/actionmystique/SAMSUNG5-VMs/Images/GNS3/IOS/c3725-adventerprisek9-mz.124-15.T10.image 
Nov 26 22:31:03.441 HYPERVISOR: exec_cmd: vm set_disk0 ESW2 1 
Nov 26 22:31:03.441 HYPERVISOR: exec_cmd: c3725 set_mac_addr ESW2 c202.28c2.0000 
Nov 26 22:31:03.442 HYPERVISOR: exec_cmd: vm set_config ESW2 configs/i2_startup-config.cfg 
Nov 26 22:31:03.442 HYPERVISOR: exec_cmd: vm set_config ESW2 configs/i2_startup-config.cfg configs/i2_private-config.cfg 
Nov 26 22:31:03.590 HYPERVISOR: exec_cmd: nio create_udp udp-bcadb31e-c012-4c62-a48a-62a213d940a7 15003 127.0.0.1 15002 
Nov 26 22:31:03.591 HYPERVISOR: exec_cmd: vm slot_add_nio_binding ESW2 1 0 udp-bcadb31e-c012-4c62-a48a-62a213d940a7 
Nov 26 22:31:03.592 HYPERVISOR: exec_cmd: vm get_status ESW2 
Nov 26 22:31:12.190 HYPERVISOR: exec_cmd: nio create_tap tap-9daf62fa-d717-4322-b212-38b5a179db9c tap0 
Nov 26 22:31:12.191 HYPERVISOR: exec_cmd: vm slot_add_nio_binding ESW2 1 1 tap-9daf62fa-d717-4322-b212-38b5a179db9c 
Nov 26 22:31:12.191 HYPERVISOR: exec_cmd: vm get_status ESW2 
