Nov 28 08:37:53.908 HYPERVISOR: Release 0.2.17-amd64/Linux (tag 2017072410)
Nov 28 08:37:53.908 HYPERVISOR: Started on IP = 127.0.0.1, TCP port = 56925.
Nov 28 08:37:53.947 HYPERVISOR: exec_cmd: hypervisor version 
Nov 28 08:37:53.948 HYPERVISOR: exec_cmd: hypervisor working_dir /media/actionmystique/SAMSUNG5-VMs/Labs/GNS3/TT 3-linux-/project-files/dynamips 
Nov 28 08:37:53.948 GENERAL: working_dir=/media/actionmystique/SAMSUNG5-VMs/Labs/GNS3/TT 3-linux-/project-files/dynamips
Nov 28 08:37:53.948 HYPERVISOR: exec_cmd: vm create ESW1 1 c3725 
Nov 28 08:37:53.948 VM: VM ESW1 created.
Nov 28 08:37:53.948 HYPERVISOR: exec_cmd: vm set_con_tcp_port ESW1 2004 
Nov 28 08:37:53.949 HYPERVISOR: exec_cmd: c3725 get_mac_addr ESW1 
Nov 28 08:37:53.949 HYPERVISOR: exec_cmd: vm set_disk0 ESW1 1 
Nov 28 08:37:53.949 HYPERVISOR: exec_cmd: vm get_status ESW1 
Nov 28 08:37:53.950 HYPERVISOR: exec_cmd: vm slot_add_binding ESW1 1 0 NM-16ESW 
Nov 28 08:37:53.950 HYPERVISOR: exec_cmd: vm set_ios ESW1 /media/actionmystique/SAMSUNG5-VMs/Images/GNS3/IOS/c3725-adventerprisek9-mz.124-15.T10.image 
Nov 28 08:37:53.951 HYPERVISOR: exec_cmd: c3725 set_mac_addr ESW1 c201.1b91.0000 
Nov 28 08:37:53.951 HYPERVISOR: exec_cmd: vm slot_add_binding ESW1 0 16 WIC-2T 
Nov 28 08:37:53.951 HYPERVISOR: exec_cmd: vm get_status ESW1 
Nov 28 08:37:53.952 HYPERVISOR: exec_cmd: vm set_idle_pc ESW1 0x614ac27c 
Nov 28 08:37:53.952 HYPERVISOR: exec_cmd: vm set_nvram ESW1 256 
Nov 28 08:37:53.953 HYPERVISOR: exec_cmd: vm set_config ESW1 configs/ios_base_startup-config.txt 
Nov 28 08:37:53.953 HYPERVISOR: exec_cmd: vm set_config ESW1 configs/ios_base_startup-config.txt configs/ios_base_private-config.txt 
Nov 28 08:37:54.163 HYPERVISOR: exec_cmd: nio create_udp udp-225b9070-1cbc-4e81-b436-9c8ba249d795 15008 127.0.0.1 15007 
Nov 28 08:37:54.163 HYPERVISOR: exec_cmd: vm slot_add_nio_binding ESW1 1 0 udp-225b9070-1cbc-4e81-b436-9c8ba249d795 
Nov 28 08:37:54.164 HYPERVISOR: exec_cmd: vm get_status ESW1 
Nov 28 08:37:54.197 HYPERVISOR: exec_cmd: nio create_udp udp-81c78911-062d-423a-bbb6-473ab8ad05b2 15009 127.0.0.1 15006 
Nov 28 08:37:54.197 HYPERVISOR: exec_cmd: vm slot_add_nio_binding ESW1 1 1 udp-81c78911-062d-423a-bbb6-473ab8ad05b2 
Nov 28 08:37:54.197 HYPERVISOR: exec_cmd: vm get_status ESW1 
Nov 28 08:38:06.197 HYPERVISOR: exec_cmd: vm get_status ESW1 
Nov 28 08:38:06.198 HYPERVISOR: exec_cmd: vm extract_config ESW1 
Nov 28 08:38:06.205 HYPERVISOR: exec_cmd: vm delete ESW1 
Nov 28 08:38:06.205 VM: VM ESW1 destroyed.
Nov 28 08:38:06.206 HYPERVISOR: exec_cmd: hypervisor stop 
Nov 28 08:38:06.459 HYPERVISOR: Stopped.
Nov 28 08:38:06.459 GENERAL: reset done.
