Nov 28 08:36:16.820 HYPERVISOR: Release 0.2.17-amd64/Linux (tag 2017072410)
Nov 28 08:36:16.820 HYPERVISOR: Started on IP = 127.0.0.1, TCP port = 56057.
Nov 28 08:36:16.834 HYPERVISOR: exec_cmd: hypervisor version 
Nov 28 08:36:16.835 HYPERVISOR: exec_cmd: hypervisor working_dir /media/actionmystique/SAMSUNG5-VMs/Labs/GNS3/git-Public-Labs-Collection/CCNP/TBSHOOT/L3-Technologies/IPv4/Routing-Protocols/EIGRP/Jean-Christophe_Manciot/1+/TT 2-linux/project-files/dynamips 
Nov 28 08:36:16.835 GENERAL: working_dir=/media/actionmystique/SAMSUNG5-VMs/Labs/GNS3/git-Public-Labs-Collection/CCNP/TBSHOOT/L3-Technologies/IPv4/Routing-Protocols/EIGRP/Jean-Christophe_Manciot/1+/TT 2-linux/project-files/dynamips
Nov 28 08:36:16.835 HYPERVISOR: exec_cmd: vm create ESW1 1 c3725 
Nov 28 08:36:16.835 VM: VM ESW1 created.
Nov 28 08:36:16.836 HYPERVISOR: exec_cmd: vm set_con_tcp_port ESW1 2004 
Nov 28 08:36:16.836 HYPERVISOR: exec_cmd: c3725 get_mac_addr ESW1 
Nov 28 08:36:16.836 HYPERVISOR: exec_cmd: vm set_disk0 ESW1 1 
Nov 28 08:36:16.837 HYPERVISOR: exec_cmd: vm set_ios ESW1 /media/actionmystique/SAMSUNG5-VMs/Images/GNS3/IOS/c3725-adventerprisek9-mz.124-15.T10.image 
Nov 28 08:36:16.837 HYPERVISOR: exec_cmd: c3725 set_mac_addr ESW1 c201.1b91.0000 
Nov 28 08:36:16.838 HYPERVISOR: exec_cmd: vm get_status ESW1 
Nov 28 08:36:16.838 HYPERVISOR: exec_cmd: vm set_idle_pc ESW1 0x614ac27c 
Nov 28 08:36:16.838 HYPERVISOR: exec_cmd: vm get_status ESW1 
Nov 28 08:36:16.839 HYPERVISOR: exec_cmd: vm slot_add_binding ESW1 1 0 NM-16ESW 
Nov 28 08:36:16.839 HYPERVISOR: exec_cmd: vm slot_add_binding ESW1 0 16 WIC-2T 
Nov 28 08:36:16.839 HYPERVISOR: exec_cmd: vm set_nvram ESW1 256 
Nov 28 08:36:16.840 HYPERVISOR: exec_cmd: vm set_config ESW1 configs/ios_base_startup-config.txt 
Nov 28 08:36:16.841 HYPERVISOR: exec_cmd: vm set_config ESW1 configs/ios_base_startup-config.txt configs/ios_base_private-config.txt 
Nov 28 08:36:16.921 HYPERVISOR: exec_cmd: nio create_udp udp-36a6e79b-b53f-4c37-b59c-999694dce4b2 15004 127.0.0.1 15006 
Nov 28 08:36:16.923 HYPERVISOR: exec_cmd: vm slot_add_nio_binding ESW1 1 0 udp-36a6e79b-b53f-4c37-b59c-999694dce4b2 
Nov 28 08:36:16.924 HYPERVISOR: exec_cmd: vm get_status ESW1 
Nov 28 08:36:16.999 HYPERVISOR: exec_cmd: nio create_udp udp-fb4a518d-a72c-4105-bd23-3c2cb7ddda86 15007 127.0.0.1 15005 
Nov 28 08:36:17.000 HYPERVISOR: exec_cmd: vm slot_add_nio_binding ESW1 1 1 udp-fb4a518d-a72c-4105-bd23-3c2cb7ddda86 
Nov 28 08:36:17.000 HYPERVISOR: exec_cmd: vm get_status ESW1 
