Nov 27 16:21:47.842 HYPERVISOR: Release 0.2.17-amd64/Linux (tag 2017072410)
Nov 27 16:21:47.842 HYPERVISOR: Started on IP = 127.0.0.1, TCP port = 46931.
Nov 27 16:21:47.874 HYPERVISOR: exec_cmd: hypervisor version 
Nov 27 16:21:47.875 HYPERVISOR: exec_cmd: hypervisor working_dir /media/actionmystique/SAMSUNG5-VMs/Labs/GNS3/TT 2-solutions-linux-/project-files/dynamips 
Nov 27 16:21:47.875 GENERAL: working_dir=/media/actionmystique/SAMSUNG5-VMs/Labs/GNS3/TT 2-solutions-linux-/project-files/dynamips
Nov 27 16:21:47.876 HYPERVISOR: exec_cmd: vm create SW3 3 c3725 
Nov 27 16:21:47.876 VM: VM SW3 created.
Nov 27 16:21:47.877 HYPERVISOR: exec_cmd: vm set_con_tcp_port SW3 2003 
Nov 27 16:21:47.878 HYPERVISOR: exec_cmd: c3725 get_mac_addr SW3 
Nov 27 16:21:47.879 HYPERVISOR: exec_cmd: vm set_nvram SW3 256 
Nov 27 16:21:47.880 HYPERVISOR: exec_cmd: vm get_status SW3 
Nov 27 16:21:47.881 HYPERVISOR: exec_cmd: vm set_idle_pc SW3 0x60c056e4 
Nov 27 16:21:47.882 HYPERVISOR: exec_cmd: c3725 set_mac_addr SW3 cccc.cccc.cccc 
Nov 27 16:21:47.883 HYPERVISOR: exec_cmd: vm set_exec_area SW3 16 
Nov 27 16:21:47.884 HYPERVISOR: exec_cmd: vm get_status SW3 
Nov 27 16:21:47.885 HYPERVISOR: exec_cmd: vm slot_add_binding SW3 1 0 NM-16ESW 
Nov 27 16:21:47.886 HYPERVISOR: exec_cmd: vm set_disk0 SW3 1 
Nov 27 16:21:47.887 HYPERVISOR: exec_cmd: vm set_ios SW3 /media/actionmystique/SAMSUNG5-VMs/Images/GNS3/IOS/c3725-adventerprisek9-mz.124-15.T10.image 
Nov 27 16:21:47.888 HYPERVISOR: exec_cmd: vm slot_add_binding SW3 0 16 WIC-2T 
Nov 27 16:21:47.889 HYPERVISOR: exec_cmd: vm set_config SW3 configs/i3_startup-config.cfg 
Nov 27 16:21:47.890 HYPERVISOR: exec_cmd: vm set_config SW3 configs/i3_startup-config.cfg configs/i3_private-config.cfg 
Nov 27 16:21:48.091 HYPERVISOR: exec_cmd: nio create_udp udp-b0d566dc-6943-4e06-acd2-1d796efdf0ef 15003 127.0.0.1 15004 
Nov 27 16:21:48.097 HYPERVISOR: exec_cmd: vm slot_add_nio_binding SW3 1 1 udp-b0d566dc-6943-4e06-acd2-1d796efdf0ef 
Nov 27 16:21:48.099 HYPERVISOR: exec_cmd: vm get_status SW3 
Nov 27 16:21:48.141 HYPERVISOR: exec_cmd: nio create_udp udp-1d83d3b5-6eb0-44e4-a87e-5752fb1eed75 15001 127.0.0.1 15007 
Nov 27 16:21:48.141 HYPERVISOR: exec_cmd: vm slot_add_nio_binding SW3 1 2 udp-1d83d3b5-6eb0-44e4-a87e-5752fb1eed75 
Nov 27 16:21:48.141 HYPERVISOR: exec_cmd: vm get_status SW3 
Nov 27 16:21:48.165 HYPERVISOR: exec_cmd: nio create_udp udp-8ff956e6-d461-416e-9d04-03434832b007 15009 127.0.0.1 15008 
Nov 27 16:21:48.166 HYPERVISOR: exec_cmd: vm slot_add_nio_binding SW3 1 5 udp-8ff956e6-d461-416e-9d04-03434832b007 
Nov 27 16:21:48.166 HYPERVISOR: exec_cmd: vm get_status SW3 
Nov 27 16:21:48.189 HYPERVISOR: exec_cmd: nio create_udp udp-a056c085-4c05-4c21-8d55-16ffc72c83bd 15011 127.0.0.1 15012 
Nov 27 16:21:48.189 HYPERVISOR: exec_cmd: vm slot_add_nio_binding SW3 0 0 udp-a056c085-4c05-4c21-8d55-16ffc72c83bd 
Nov 27 16:21:48.190 HYPERVISOR: exec_cmd: vm get_status SW3 
Nov 27 16:22:03.941 HYPERVISOR: exec_cmd: vm get_status SW3 
Nov 27 16:22:03.943 HYPERVISOR: exec_cmd: vm extract_config SW3 
Nov 27 16:22:03.945 HYPERVISOR: exec_cmd: vm delete SW3 
Nov 27 16:22:03.945 VM: VM SW3 destroyed.
Nov 27 16:22:03.947 HYPERVISOR: exec_cmd: hypervisor stop 
Nov 27 16:22:04.389 HYPERVISOR: Stopped.
Nov 27 16:22:04.389 GENERAL: reset done.
