Nov 29 15:24:36.448 HYPERVISOR: Release 0.2.17-amd64/Linux (tag 2017072410)
Nov 29 15:24:36.448 HYPERVISOR: Started on IP = 127.0.0.1, TCP port = 36201.
Nov 29 15:24:36.461 HYPERVISOR: exec_cmd: hypervisor version 
Nov 29 15:24:36.461 HYPERVISOR: exec_cmd: hypervisor working_dir /media/actionmystique/SAMSUNG5-VMs/Labs/GNS3/TT 1-solutions-linux-/project-files/dynamips 
Nov 29 15:24:36.461 GENERAL: working_dir=/media/actionmystique/SAMSUNG5-VMs/Labs/GNS3/TT 1-solutions-linux-/project-files/dynamips
Nov 29 15:24:36.462 HYPERVISOR: exec_cmd: vm create ESW2 2 c3725 
Nov 29 15:24:36.462 VM: VM ESW2 created.
Nov 29 15:24:36.462 HYPERVISOR: exec_cmd: vm set_con_tcp_port ESW2 2005 
Nov 29 15:24:36.462 HYPERVISOR: exec_cmd: c3725 get_mac_addr ESW2 
Nov 29 15:24:36.463 HYPERVISOR: exec_cmd: vm get_status ESW2 
Nov 29 15:24:36.463 HYPERVISOR: exec_cmd: vm slot_add_binding ESW2 1 0 NM-16ESW 
Nov 29 15:24:36.463 HYPERVISOR: exec_cmd: c3725 set_mac_addr ESW2 c202.1bd4.0000 
Nov 29 15:24:36.464 HYPERVISOR: exec_cmd: vm set_disk0 ESW2 1 
Nov 29 15:24:36.464 HYPERVISOR: exec_cmd: vm set_nvram ESW2 256 
Nov 29 15:24:36.465 HYPERVISOR: exec_cmd: vm set_ios ESW2 /media/actionmystique/SAMSUNG5-VMs/Images/GNS3/IOS/c3725-adventerprisek9-mz.124-15.T10.image 
Nov 29 15:24:36.465 HYPERVISOR: exec_cmd: vm get_status ESW2 
Nov 29 15:24:36.465 HYPERVISOR: exec_cmd: vm set_idle_pc ESW2 0x60c06d20 
Nov 29 15:24:36.466 HYPERVISOR: exec_cmd: vm slot_add_binding ESW2 0 16 WIC-2T 
Nov 29 15:24:36.466 HYPERVISOR: exec_cmd: vm set_config ESW2 configs/ios_base_startup-config.txt 
Nov 29 15:24:36.467 HYPERVISOR: exec_cmd: vm set_config ESW2 configs/ios_base_startup-config.txt configs/ios_base_private-config.txt 
Nov 29 15:24:36.820 HYPERVISOR: exec_cmd: nio create_udp udp-0f5ed72e-0f89-4601-be66-875952bc66b8 15005 127.0.0.1 15000 
Nov 29 15:24:36.820 HYPERVISOR: exec_cmd: vm slot_add_nio_binding ESW2 1 0 udp-0f5ed72e-0f89-4601-be66-875952bc66b8 
Nov 29 15:24:36.820 HYPERVISOR: exec_cmd: vm get_status ESW2 
Nov 29 15:24:54.868 HYPERVISOR: exec_cmd: vm get_status ESW2 
Nov 29 15:24:54.871 HYPERVISOR: exec_cmd: vm extract_config ESW2 
Nov 29 15:24:54.873 HYPERVISOR: exec_cmd: vm delete ESW2 
Nov 29 15:24:54.873 VM: VM ESW2 destroyed.
Nov 29 15:24:54.875 HYPERVISOR: exec_cmd: hypervisor stop 
Nov 29 15:24:54.979 HYPERVISOR: Stopped.
Nov 29 15:24:54.980 GENERAL: reset done.
