Nov 28 08:38:22.845 HYPERVISOR: Release 0.2.17-amd64/Linux (tag 2017072410)
Nov 28 08:38:22.845 HYPERVISOR: Started on IP = 127.0.0.1, TCP port = 41295.
Nov 28 08:38:22.900 HYPERVISOR: exec_cmd: hypervisor version 
Nov 28 08:38:22.900 HYPERVISOR: exec_cmd: hypervisor working_dir /media/actionmystique/SAMSUNG5-VMs/Labs/GNS3/TT 3-solutions-linux-/project-files/dynamips 
Nov 28 08:38:22.900 GENERAL: working_dir=/media/actionmystique/SAMSUNG5-VMs/Labs/GNS3/TT 3-solutions-linux-/project-files/dynamips
Nov 28 08:38:22.901 HYPERVISOR: exec_cmd: vm create ESW1 1 c3725 
Nov 28 08:38:22.901 VM: VM ESW1 created.
Nov 28 08:38:22.901 HYPERVISOR: exec_cmd: vm set_con_tcp_port ESW1 2004 
Nov 28 08:38:22.901 HYPERVISOR: exec_cmd: c3725 get_mac_addr ESW1 
Nov 28 08:38:22.902 HYPERVISOR: exec_cmd: vm set_disk0 ESW1 1 
Nov 28 08:38:22.902 HYPERVISOR: exec_cmd: vm get_status ESW1 
Nov 28 08:38:22.902 HYPERVISOR: exec_cmd: vm slot_add_binding ESW1 1 0 NM-16ESW 
Nov 28 08:38:22.903 HYPERVISOR: exec_cmd: vm set_ios ESW1 /media/actionmystique/SAMSUNG5-VMs/Images/GNS3/IOS/c3725-adventerprisek9-mz.124-15.T10.image 
Nov 28 08:38:22.903 HYPERVISOR: exec_cmd: c3725 set_mac_addr ESW1 c201.1b91.0000 
Nov 28 08:38:22.904 HYPERVISOR: exec_cmd: vm slot_add_binding ESW1 0 16 WIC-2T 
Nov 28 08:38:22.904 HYPERVISOR: exec_cmd: vm get_status ESW1 
Nov 28 08:38:22.904 HYPERVISOR: exec_cmd: vm set_idle_pc ESW1 0x6026b804 
Nov 28 08:38:22.905 HYPERVISOR: exec_cmd: vm set_nvram ESW1 256 
Nov 28 08:38:22.905 HYPERVISOR: exec_cmd: vm set_config ESW1 configs/ios_base_startup-config.txt 
Nov 28 08:38:22.906 HYPERVISOR: exec_cmd: vm set_config ESW1 configs/ios_base_startup-config.txt configs/ios_base_private-config.txt 
Nov 28 08:38:23.131 HYPERVISOR: exec_cmd: nio create_udp udp-78101706-b3dc-49b6-a382-910b4aee9080 15008 127.0.0.1 15009 
Nov 28 08:38:23.132 HYPERVISOR: exec_cmd: vm slot_add_nio_binding ESW1 1 0 udp-78101706-b3dc-49b6-a382-910b4aee9080 
Nov 28 08:38:23.132 HYPERVISOR: exec_cmd: vm get_status ESW1 
Nov 28 08:38:23.154 HYPERVISOR: exec_cmd: nio create_udp udp-99b2cff0-9853-4f89-9fb2-9c99261ed445 15011 127.0.0.1 15010 
Nov 28 08:38:23.155 HYPERVISOR: exec_cmd: vm slot_add_nio_binding ESW1 1 1 udp-99b2cff0-9853-4f89-9fb2-9c99261ed445 
Nov 28 08:38:23.155 HYPERVISOR: exec_cmd: vm get_status ESW1 
Nov 28 08:38:42.336 HYPERVISOR: exec_cmd: vm get_status ESW1 
Nov 28 08:38:42.338 HYPERVISOR: exec_cmd: vm extract_config ESW1 
Nov 28 08:38:42.339 HYPERVISOR: exec_cmd: vm delete ESW1 
Nov 28 08:38:42.339 VM: VM ESW1 destroyed.
Nov 28 08:38:42.340 HYPERVISOR: exec_cmd: hypervisor stop 
Nov 28 08:38:42.420 HYPERVISOR: Stopped.
Nov 28 08:38:42.420 GENERAL: reset done.
