Nov 26 20:03:39.263 HYPERVISOR: Release 0.2.17-amd64/Linux (tag 2017072410)
Nov 26 20:03:39.263 HYPERVISOR: Started on IP = 127.0.0.1, TCP port = 43723.
Nov 26 20:03:39.298 HYPERVISOR: exec_cmd: hypervisor version 
Nov 26 20:03:39.302 HYPERVISOR: exec_cmd: hypervisor working_dir /media/actionmystique/SAMSUNG5-VMs/Labs/GNS3/git-Public-Labs-Collection/CCDP/ARCH/BGP/Jean-Christophe_Manciot/1+/Route Reflectors-linux-/project-files/dynamips 
Nov 26 20:03:39.302 GENERAL: working_dir=/media/actionmystique/SAMSUNG5-VMs/Labs/GNS3/git-Public-Labs-Collection/CCDP/ARCH/BGP/Jean-Christophe_Manciot/1+/Route Reflectors-linux-/project-files/dynamips
Nov 26 20:03:39.304 HYPERVISOR: exec_cmd: vm create Client-Prague 6 c7200 
Nov 26 20:03:39.304 VM: VM Client-Prague created.
Nov 26 20:03:39.306 HYPERVISOR: exec_cmd: vm set_con_tcp_port Client-Prague 2107 
Nov 26 20:03:39.307 HYPERVISOR: exec_cmd: vm set_aux_tcp_port Client-Prague 2507 
Nov 26 20:03:39.310 HYPERVISOR: exec_cmd: c7200 get_mac_addr Client-Prague 
Nov 26 20:03:39.313 HYPERVISOR: exec_cmd: vm get_status Client-Prague 
Nov 26 20:03:39.318 HYPERVISOR: exec_cmd: vm slot_add_binding Client-Prague 0 0 C7200-IO-FE 
Nov 26 20:03:39.326 HYPERVISOR: exec_cmd: vm get_status Client-Prague 
Nov 26 20:03:39.329 HYPERVISOR: exec_cmd: vm set_idle_pc Client-Prague 0x6062d534 
Nov 26 20:03:39.334 HYPERVISOR: exec_cmd: vm set_ram Client-Prague 512 
Nov 26 20:03:39.337 HYPERVISOR: exec_cmd: vm set_ios Client-Prague /media/actionmystique/SAMSUNG5-VMs/Images/GNS3/IOS/c7200-adventerprisek9-mz.152-4.M2.image 
Nov 26 20:03:39.341 HYPERVISOR: exec_cmd: vm get_status Client-Prague 
Nov 26 20:03:39.345 HYPERVISOR: exec_cmd: vm slot_remove_binding Client-Prague 0 0 
Nov 26 20:03:39.356 HYPERVISOR: exec_cmd: vm get_status Client-Prague 
Nov 26 20:03:39.367 HYPERVISOR: exec_cmd: vm slot_add_binding Client-Prague 0 0 C7200-IO-GE-E 
Nov 26 20:03:39.371 HYPERVISOR: exec_cmd: c7200 set_mac_addr Client-Prague ca06.0944.0000 
Nov 26 20:03:39.373 HYPERVISOR: exec_cmd: vm set_config Client-Prague configs/i6_startup-config.cfg 
Nov 26 20:03:39.776 HYPERVISOR: exec_cmd: nio create_udp udp-3773d87c-8ebc-462e-ab47-91b512c5065a 15005 127.0.0.1 15008 
Nov 26 20:03:39.784 HYPERVISOR: exec_cmd: vm slot_add_nio_binding Client-Prague 0 0 udp-3773d87c-8ebc-462e-ab47-91b512c5065a 
Nov 26 20:03:39.790 HYPERVISOR: exec_cmd: vm get_status Client-Prague 
