Nov 26 20:03:53.305 HYPERVISOR: Release 0.2.17-amd64/Linux (tag 2017072410)
Nov 26 20:03:53.305 HYPERVISOR: Started on IP = 127.0.0.1, TCP port = 47865.
Nov 26 20:03:53.336 HYPERVISOR: exec_cmd: hypervisor version 
Nov 26 20:03:53.340 HYPERVISOR: exec_cmd: hypervisor working_dir /media/actionmystique/SAMSUNG5-VMs/Labs/GNS3/Route Reflectors-linux/project-files/dynamips 
Nov 26 20:03:53.340 GENERAL: working_dir=/media/actionmystique/SAMSUNG5-VMs/Labs/GNS3/Route Reflectors-linux/project-files/dynamips
Nov 26 20:03:53.357 HYPERVISOR: exec_cmd: vm create Client_Munich 7 c7200 
Nov 26 20:03:53.357 VM: VM Client_Munich created.
Nov 26 20:03:53.366 HYPERVISOR: exec_cmd: vm set_con_tcp_port Client_Munich 2108 
Nov 26 20:03:53.367 HYPERVISOR: exec_cmd: vm set_aux_tcp_port Client_Munich 2508 
Nov 26 20:03:53.368 HYPERVISOR: exec_cmd: c7200 get_mac_addr Client_Munich 
Nov 26 20:03:53.370 HYPERVISOR: exec_cmd: vm get_status Client_Munich 
Nov 26 20:03:53.371 HYPERVISOR: exec_cmd: vm slot_add_binding Client_Munich 0 0 C7200-IO-FE 
Nov 26 20:03:53.373 HYPERVISOR: exec_cmd: vm get_status Client_Munich 
Nov 26 20:03:53.374 HYPERVISOR: exec_cmd: vm set_idle_pc Client_Munich 0x6062d534 
Nov 26 20:03:53.376 HYPERVISOR: exec_cmd: vm set_ram Client_Munich 512 
Nov 26 20:03:53.377 HYPERVISOR: exec_cmd: vm set_ios Client_Munich /media/actionmystique/SAMSUNG5-VMs/Images/GNS3/IOS/c7200-adventerprisek9-mz.152-4.M2.image 
Nov 26 20:03:53.378 HYPERVISOR: exec_cmd: vm get_status Client_Munich 
Nov 26 20:03:53.379 HYPERVISOR: exec_cmd: vm slot_remove_binding Client_Munich 0 0 
Nov 26 20:03:53.381 HYPERVISOR: exec_cmd: vm get_status Client_Munich 
Nov 26 20:03:53.382 HYPERVISOR: exec_cmd: vm slot_add_binding Client_Munich 0 0 C7200-IO-GE-E 
Nov 26 20:03:53.389 HYPERVISOR: exec_cmd: c7200 set_mac_addr Client_Munich ca07.0955.0000 
Nov 26 20:03:53.390 HYPERVISOR: exec_cmd: vm set_config Client_Munich configs/i7_startup-config.cfg 
Nov 26 20:03:53.888 HYPERVISOR: exec_cmd: nio create_udp udp-36677cc9-1196-4058-a93e-c78c3c296d47 15016 127.0.0.1 15017 
Nov 26 20:03:53.904 HYPERVISOR: exec_cmd: vm slot_add_nio_binding Client_Munich 0 0 udp-36677cc9-1196-4058-a93e-c78c3c296d47 
Nov 26 20:03:53.906 HYPERVISOR: exec_cmd: vm get_status Client_Munich 
Nov 26 20:04:32.015 HYPERVISOR: exec_cmd: vm get_status Client_Munich 
Nov 26 20:04:32.018 HYPERVISOR: exec_cmd: vm extract_config Client_Munich 
Nov 26 20:04:32.023 HYPERVISOR: exec_cmd: vm delete Client_Munich 
Nov 26 20:04:32.023 VM: VM Client_Munich destroyed.
Nov 26 20:04:32.025 HYPERVISOR: exec_cmd: hypervisor stop 
Nov 26 20:04:32.363 HYPERVISOR: Stopped.
Nov 26 20:04:32.363 GENERAL: reset done.
