Nov 26 20:03:53.155 HYPERVISOR: Release 0.2.17-amd64/Linux (tag 2017072410)
Nov 26 20:03:53.155 HYPERVISOR: Started on IP = 127.0.0.1, TCP port = 40275.
Nov 26 20:03:53.208 HYPERVISOR: exec_cmd: hypervisor version 
Nov 26 20:03:53.212 HYPERVISOR: exec_cmd: hypervisor working_dir /media/actionmystique/SAMSUNG5-VMs/Labs/GNS3/Route Reflectors-linux/project-files/dynamips 
Nov 26 20:03:53.212 GENERAL: working_dir=/media/actionmystique/SAMSUNG5-VMs/Labs/GNS3/Route Reflectors-linux/project-files/dynamips
Nov 26 20:03:53.215 HYPERVISOR: exec_cmd: vm create RR-London 4 c7200 
Nov 26 20:03:53.215 VM: VM RR-London created.
Nov 26 20:03:53.219 HYPERVISOR: exec_cmd: vm set_con_tcp_port RR-London 2105 
Nov 26 20:03:53.222 HYPERVISOR: exec_cmd: vm set_aux_tcp_port RR-London 2505 
Nov 26 20:03:53.225 HYPERVISOR: exec_cmd: c7200 get_mac_addr RR-London 
Nov 26 20:03:53.228 HYPERVISOR: exec_cmd: vm get_status RR-London 
Nov 26 20:03:53.231 HYPERVISOR: exec_cmd: vm slot_add_binding RR-London 0 0 C7200-IO-FE 
Nov 26 20:03:53.235 HYPERVISOR: exec_cmd: vm get_status RR-London 
Nov 26 20:03:53.246 HYPERVISOR: exec_cmd: vm set_idle_pc RR-London 0x6062d534 
Nov 26 20:03:53.262 HYPERVISOR: exec_cmd: vm get_status RR-London 
Nov 26 20:03:53.264 HYPERVISOR: exec_cmd: vm slot_add_binding RR-London 3 0 PA-GE 
Nov 26 20:03:53.281 HYPERVISOR: exec_cmd: vm set_ram RR-London 512 
Nov 26 20:03:53.308 HYPERVISOR: exec_cmd: vm set_ios RR-London /media/actionmystique/SAMSUNG5-VMs/Images/GNS3/IOS/c7200-adventerprisek9-mz.152-4.M2.image 
Nov 26 20:03:53.311 HYPERVISOR: exec_cmd: vm get_status RR-London 
Nov 26 20:03:53.314 HYPERVISOR: exec_cmd: vm slot_add_binding RR-London 1 0 PA-GE 
Nov 26 20:03:53.317 HYPERVISOR: exec_cmd: vm get_status RR-London 
Nov 26 20:03:53.320 HYPERVISOR: exec_cmd: vm slot_remove_binding RR-London 0 0 
Nov 26 20:03:53.323 HYPERVISOR: exec_cmd: vm get_status RR-London 
Nov 26 20:03:53.325 HYPERVISOR: exec_cmd: vm slot_add_binding RR-London 0 0 C7200-IO-GE-E 
Nov 26 20:03:53.329 HYPERVISOR: exec_cmd: vm get_status RR-London 
Nov 26 20:03:53.331 HYPERVISOR: exec_cmd: vm slot_add_binding RR-London 2 0 PA-GE 
Nov 26 20:03:53.334 HYPERVISOR: exec_cmd: c7200 set_mac_addr RR-London ca04.091f.0000 
Nov 26 20:03:53.337 HYPERVISOR: exec_cmd: vm set_config RR-London configs/i4_startup-config.cfg 
Nov 26 20:03:53.671 HYPERVISOR: exec_cmd: nio create_udp udp-2a77e6cb-db8a-4953-879e-15b957edc580 15001 127.0.0.1 15000 
Nov 26 20:03:53.673 HYPERVISOR: exec_cmd: vm slot_add_nio_binding RR-London 3 0 udp-2a77e6cb-db8a-4953-879e-15b957edc580 
Nov 26 20:03:53.674 HYPERVISOR: exec_cmd: vm get_status RR-London 
Nov 26 20:03:53.705 HYPERVISOR: exec_cmd: nio create_udp udp-40b6fc02-e615-452c-8aac-e97d0accf903 15003 127.0.0.1 15002 
Nov 26 20:03:53.707 HYPERVISOR: exec_cmd: vm slot_add_nio_binding RR-London 2 0 udp-40b6fc02-e615-452c-8aac-e97d0accf903 
Nov 26 20:03:53.708 HYPERVISOR: exec_cmd: vm get_status RR-London 
Nov 26 20:03:53.736 HYPERVISOR: exec_cmd: nio create_udp udp-d35e8df0-d6a2-42c1-bada-87ea47b62bed 15005 127.0.0.1 15004 
Nov 26 20:03:53.745 HYPERVISOR: exec_cmd: vm slot_add_nio_binding RR-London 1 0 udp-d35e8df0-d6a2-42c1-bada-87ea47b62bed 
Nov 26 20:03:53.747 HYPERVISOR: exec_cmd: vm get_status RR-London 
Nov 26 20:03:53.855 HYPERVISOR: exec_cmd: nio create_udp udp-c6083349-4f27-48ad-b63f-3f82a56604f5 15012 127.0.0.1 15013 
Nov 26 20:03:53.857 HYPERVISOR: exec_cmd: vm slot_add_nio_binding RR-London 0 0 udp-c6083349-4f27-48ad-b63f-3f82a56604f5 
Nov 26 20:03:53.873 HYPERVISOR: exec_cmd: vm get_status RR-London 
Nov 26 20:04:32.015 HYPERVISOR: exec_cmd: vm get_status RR-London 
Nov 26 20:04:32.018 HYPERVISOR: exec_cmd: vm extract_config RR-London 
Nov 26 20:04:32.022 HYPERVISOR: exec_cmd: vm delete RR-London 
Nov 26 20:04:32.022 VM: VM RR-London destroyed.
Nov 26 20:04:32.025 HYPERVISOR: exec_cmd: hypervisor stop 
Nov 26 20:04:32.232 HYPERVISOR: Stopped.
Nov 26 20:04:32.232 GENERAL: reset done.
