autostart = False
version = 0.8.2
[127.0.0.1:7200]
    workingdir = C:\Users\ActionMystique\Documents\Missions\GNS3\Temp
    udp = 10000
    [[3725]]
        image = C:\Users\ActionMystique\Documents\Missions\IOS\Binaries\c3725-adventerprisek9-mz.124-15.T5.image
        ram = 128
        idlepc = 0x6148b534
        sparsemem = True
        ghostios = True
    [[ROUTER R1]]
        model = 3725
        console = 2000
        aux = 2100
        cnfg = configs\R1.cfg
        wic0/0 = WIC-2T
        s0/0 = R2 s0/0
        slot1 = NM-1FE-TX
        slot2 = NM-1FE-TX
        x = -399.0
        y = 82.0
        z = 1.0
    [[ROUTER R2]]
        model = 3725
        console = 2001
        aux = 2101
        cnfg = configs\R2.cfg
        wic0/0 = WIC-2T
        s0/0 = R1 s0/0
        s0/1 = R3 s0/1
        slot1 = NM-1FE-TX
        slot2 = NM-1FE-TX
        x = -178.0
        y = -313.0
        z = 1.0
    [[ROUTER R3]]
        model = 3725
        console = 2002
        aux = 2102
        cnfg = configs\R3.cfg
        wic0/0 = WIC-2T
        s0/1 = R2 s0/1
        slot1 = NM-1FE-TX
        slot2 = NM-1FE-TX
        x = 60.0
        y = 85.0
        z = 1.0
[GNS3-DATA]
    configs = configs
    width = 5000
    height = 2500
    [[NOTE 1]]
        text = AS 300
        x = -189.0
        y = -411.5
        font = "Sans Serif,16,-1,5,75,0,0,0,0,0"
    [[NOTE 2]]
        text = AS 100
        x = -416.0
        y = 185.5
        font = "Sans Serif,16,-1,5,75,0,0,0,0,0"
    [[NOTE 3]]
        text = AS 65000
        x = 37.0
        y = 181.5
        font = "Sans Serif,16,-1,5,75,0,0,0,0,0"
    [[NOTE 4]]
        text = 192.168.1.4/30
        x = -386.0
        y = -128.5
    [[NOTE 5]]
        text = 172.24.1.16/30
        x = -3.0
        y = -121.5
    [[NOTE 6]]
        text = s0/0\n.6
        x = -217.0
        y = -277.5
    [[NOTE 7]]
        text = s0/1\nDCE\n.17
        x = -101.0
        y = -281.5
    [[NOTE 8]]
        text = s0/0\nDCE\n.5
        x = -383.0
        y = 3.5
    [[NOTE 9]]
        text = s0/1\n.18
        x = 75.0
        y = 18.5
    [[NOTE 10]]
        text = CustRtr
        x = 155.0
        y = 88.5
        font = "Sans Serif,12,-1,5,75,0,0,0,0,0"
    [[NOTE 11]]
        text = ISP
        x = -270.0
        y = -313.5
        font = "Sans Serif,12,-1,5,75,0,0,0,0,0"
    [[NOTE 12]]
        text = SanJose
        x = -497.0
        y = 90.5
        font = "Sans Serif,12,-1,5,75,0,0,0,0,0"
    [[NOTE 13]]
        text = Lo0: 10.2.2.1/24
        x = -211.0
        y = -364.5
    [[NOTE 14]]
        text = Lo0: 10.1.1.1/24
        x = -437.0
        y = 147.5
    [[NOTE 15]]
        text = Lo0: 10.3.3.1/24
        x = 25.0
        y = 148.5
    [[SHAPE 1]]
        type = ellipse
        x = -407.0
        y = 119.0
        width = 27.0
        height = 22.0
        border_style = 2
        z = -2.0
    [[SHAPE 2]]
        type = ellipse
        x = -529.0
        y = 3.0
        width = 316.0
        height = 226.0
        border_style = 2
        z = -2.0
    [[SHAPE 3]]
        type = ellipse
        x = 115.0
        y = 117.0
        width = 27.0
        height = 22.0
        border_style = 2
        z = -2.0
    [[SHAPE 4]]
        type = ellipse
        x = -196.0
        y = -324.0
        width = 27.0
        height = 22.0
        border_style = 2
        z = -2.0
    [[SHAPE 5]]
        type = ellipse
        x = -302.0
        y = -428.0
        width = 316.0
        height = 226.0
        border_style = 2
        z = -2.0
    [[SHAPE 6]]
        type = ellipse
        x = -63.0
        y = 1.0
        width = 316.0
        height = 226.0
        border_style = 2
        z = -2.0
