Jul 19 16:11:07.626 HYPERVISOR: Release 0.2.16-amd64/Linux (tag 2015060118)
Jul 19 16:11:07.626 HYPERVISOR: Started on IP = 127.0.0.1, TCP port = 49705.
Jul 19 16:11:07.641 HYPERVISOR: exec_cmd: hypervisor version 
Jul 19 16:11:07.643 HYPERVISOR: exec_cmd: hypervisor working_dir /media/actionmystique/SAMSUNG-850-Ext4/Labs/GNS3/CCNP/TBSHOOT/Exam-Topology/Jean-Christophe_Manciot/1+/v2-solutions-linux/project-files/dynamips 
Jul 19 16:11:07.643 GENERAL: working_dir=/media/actionmystique/SAMSUNG-850-Ext4/Labs/GNS3/CCNP/TBSHOOT/Exam-Topology/Jean-Christophe_Manciot/1+/v2-solutions-linux/project-files/dynamips
Jul 19 16:11:07.644 HYPERVISOR: exec_cmd: vm create R1 5 c7200 
Jul 19 16:11:07.644 VM: VM R1 created.
Jul 19 16:11:07.647 HYPERVISOR: exec_cmd: vm set_con_tcp_port R1 2012 
Jul 19 16:11:07.648 HYPERVISOR: exec_cmd: c7200 get_mac_addr R1 
Jul 19 16:11:07.651 HYPERVISOR: exec_cmd: vm get_status R1 
Jul 19 16:11:07.653 HYPERVISOR: exec_cmd: vm slot_add_binding R1 0 0 C7200-IO-FE 
Jul 19 16:11:07.655 HYPERVISOR: exec_cmd: vm get_status R1 
Jul 19 16:11:07.657 HYPERVISOR: exec_cmd: vm slot_remove_binding R1 0 0 
Jul 19 16:11:07.658 HYPERVISOR: exec_cmd: vm get_status R1 
Jul 19 16:11:07.659 HYPERVISOR: exec_cmd: vm slot_add_binding R1 0 0 C7200-IO-GE-E 
Jul 19 16:11:07.660 HYPERVISOR: exec_cmd: c7200 set_mac_addr R1 ca05.2e32.0000 
Jul 19 16:11:07.660 HYPERVISOR: exec_cmd: vm set_disk0 R1 1 
Jul 19 16:11:07.661 HYPERVISOR: exec_cmd: vm get_status R1 
Jul 19 16:11:07.662 HYPERVISOR: exec_cmd: vm slot_add_binding R1 6 0 PA-POS-OC3 
Jul 19 16:11:07.662 HYPERVISOR: exec_cmd: vm set_ram R1 512 
Jul 19 16:11:07.663 HYPERVISOR: exec_cmd: vm get_status R1 
Jul 19 16:11:07.669 HYPERVISOR: exec_cmd: vm slot_add_binding R1 3 0 PA-GE 
Jul 19 16:11:07.679 HYPERVISOR: exec_cmd: vm set_ios R1 /media/actionmystique/SAMSUNG-850-Ext4/Images/GNS3/IOS/c7200-adventerprisek9-mz.152-4.M2.image 
Jul 19 16:11:07.682 HYPERVISOR: exec_cmd: vm get_status R1 
Jul 19 16:11:07.683 HYPERVISOR: exec_cmd: vm slot_add_binding R1 4 0 PA-4T+ 
Jul 19 16:11:07.685 HYPERVISOR: exec_cmd: vm get_status R1 
Jul 19 16:11:07.685 HYPERVISOR: exec_cmd: vm set_idle_pc R1 0x6062f0e0 
Jul 19 16:11:07.686 HYPERVISOR: exec_cmd: vm get_status R1 
Jul 19 16:11:07.687 HYPERVISOR: exec_cmd: vm slot_add_binding R1 1 0 PA-GE 
Jul 19 16:11:07.688 HYPERVISOR: exec_cmd: vm get_status R1 
Jul 19 16:11:07.691 HYPERVISOR: exec_cmd: vm slot_add_binding R1 5 0 PA-POS-OC3 
Jul 19 16:11:07.692 HYPERVISOR: exec_cmd: vm get_status R1 
Jul 19 16:11:07.693 HYPERVISOR: exec_cmd: vm slot_add_binding R1 2 0 PA-GE 
Jul 19 16:11:07.693 HYPERVISOR: exec_cmd: vm set_nvram R1 256 
Jul 19 16:11:07.694 HYPERVISOR: exec_cmd: vm set_config R1 configs/i5_startup-config.cfg 
Jul 19 16:11:07.697 HYPERVISOR: exec_cmd: vm set_config R1 configs/i5_startup-config.cfg configs/i5_private-config.cfg 
Jul 19 16:11:08.601 HYPERVISOR: exec_cmd: nio create_udp udp-3e83b450-cac6-4797-95f9-4031afa93123 15029 127.0.0.1 15027 
Jul 19 16:11:08.601 HYPERVISOR: exec_cmd: vm slot_add_nio_binding R1 3 0 udp-3e83b450-cac6-4797-95f9-4031afa93123 
Jul 19 16:11:08.602 HYPERVISOR: exec_cmd: vm get_status R1 
Jul 19 16:11:08.609 HYPERVISOR: exec_cmd: nio create_udp udp-cec279a7-d70d-4311-8d2d-3cd23505d93a 15030 127.0.0.1 15031 
Jul 19 16:11:08.609 HYPERVISOR: exec_cmd: vm slot_add_nio_binding R1 4 0 udp-cec279a7-d70d-4311-8d2d-3cd23505d93a 
Jul 19 16:11:08.610 HYPERVISOR: exec_cmd: vm get_status R1 
Jul 19 16:11:08.656 HYPERVISOR: exec_cmd: nio create_udp udp-46dcf938-1819-4fa9-b44d-a3ea92af9d0c 15035 127.0.0.1 15034 
Jul 19 16:11:08.663 HYPERVISOR: exec_cmd: vm slot_add_nio_binding R1 2 0 udp-46dcf938-1819-4fa9-b44d-a3ea92af9d0c 
Jul 19 16:11:08.667 HYPERVISOR: exec_cmd: vm get_status R1 
Jul 19 16:11:08.841 HYPERVISOR: exec_cmd: nio create_udp udp-0c54ccf1-39c1-4343-ac2d-f434fdd688c4 15053 127.0.0.1 15052 
Jul 19 16:11:08.842 HYPERVISOR: exec_cmd: vm slot_add_nio_binding R1 1 0 udp-0c54ccf1-39c1-4343-ac2d-f434fdd688c4 
Jul 19 16:11:08.842 HYPERVISOR: exec_cmd: vm get_status R1 
Jul 19 16:16:33.575 HYPERVISOR: exec_cmd: vm get_status R1 
Jul 19 16:16:33.580 HYPERVISOR: exec_cmd: vm extract_config R1 
Jul 19 16:16:33.585 HYPERVISOR: exec_cmd: vm delete R1 
Jul 19 16:16:33.585 VM: VM R1 destroyed.
Jul 19 16:16:33.588 HYPERVISOR: exec_cmd: hypervisor stop 
Jul 19 16:16:33.923 HYPERVISOR: Stopped.
Jul 19 16:16:33.923 GENERAL: reset done.
