Nov 26 21:57:52.261 HYPERVISOR: Release 0.2.17-amd64/Linux (tag 2017072410)
Nov 26 21:57:52.261 HYPERVISOR: Started on IP = 127.0.0.1, TCP port = 40423.
Nov 26 21:57:52.285 HYPERVISOR: exec_cmd: hypervisor version 
Nov 26 21:57:52.286 HYPERVISOR: exec_cmd: hypervisor working_dir /media/actionmystique/SAMSUNG5-VMs/Labs/GNS3/v2-solutions-linux-/project-files/dynamips 
Nov 26 21:57:52.286 GENERAL: working_dir=/media/actionmystique/SAMSUNG5-VMs/Labs/GNS3/v2-solutions-linux-/project-files/dynamips
Nov 26 21:57:52.287 HYPERVISOR: exec_cmd: vm create R4 8 c7200 
Nov 26 21:57:52.288 VM: VM R4 created.
Nov 26 21:57:52.289 HYPERVISOR: exec_cmd: vm set_con_tcp_port R4 2003 
Nov 26 21:57:52.290 HYPERVISOR: exec_cmd: c7200 get_mac_addr R4 
Nov 26 21:57:52.292 HYPERVISOR: exec_cmd: vm get_status R4 
Nov 26 21:57:52.293 HYPERVISOR: exec_cmd: vm slot_add_binding R4 0 0 C7200-IO-FE 
Nov 26 21:57:52.295 HYPERVISOR: exec_cmd: vm get_status R4 
Nov 26 21:57:52.296 HYPERVISOR: exec_cmd: vm set_idle_pc R4 0x6062f0e0 
Nov 26 21:57:52.298 HYPERVISOR: exec_cmd: vm get_status R4 
Nov 26 21:57:52.304 HYPERVISOR: exec_cmd: vm slot_add_binding R4 1 0 PA-GE 
Nov 26 21:57:52.311 HYPERVISOR: exec_cmd: vm set_nvram R4 256 
Nov 26 21:57:52.314 HYPERVISOR: exec_cmd: vm get_status R4 
Nov 26 21:57:52.315 HYPERVISOR: exec_cmd: vm slot_add_binding R4 3 0 PA-GE 
Nov 26 21:57:52.317 HYPERVISOR: exec_cmd: vm get_status R4 
Nov 26 21:57:52.319 HYPERVISOR: exec_cmd: vm slot_remove_binding R4 0 0 
Nov 26 21:57:52.324 HYPERVISOR: exec_cmd: vm get_status R4 
Nov 26 21:57:52.327 HYPERVISOR: exec_cmd: vm slot_add_binding R4 0 0 C7200-IO-GE-E 
Nov 26 21:57:52.329 HYPERVISOR: exec_cmd: vm get_status R4 
Nov 26 21:57:52.332 HYPERVISOR: exec_cmd: vm slot_add_binding R4 4 0 PA-4T+ 
Nov 26 21:57:52.333 HYPERVISOR: exec_cmd: vm get_status R4 
Nov 26 21:57:52.335 HYPERVISOR: exec_cmd: vm slot_add_binding R4 2 0 PA-GE 
Nov 26 21:57:52.336 HYPERVISOR: exec_cmd: vm set_ram R4 512 
Nov 26 21:57:52.338 HYPERVISOR: exec_cmd: vm get_status R4 
Nov 26 21:57:52.341 HYPERVISOR: exec_cmd: vm slot_add_binding R4 6 0 PA-POS-OC3 
Nov 26 21:57:52.343 HYPERVISOR: exec_cmd: c7200 set_mac_addr R4 ca08.2e77.0000 
Nov 26 21:57:52.344 HYPERVISOR: exec_cmd: vm set_disk0 R4 1 
Nov 26 21:57:52.345 HYPERVISOR: exec_cmd: vm set_ios R4 /media/actionmystique/SAMSUNG5-VMs/Images/GNS3/IOS/c7200-adventerprisek9-mz.152-4.M2.image 
Nov 26 21:57:52.351 HYPERVISOR: exec_cmd: vm get_status R4 
Nov 26 21:57:52.365 HYPERVISOR: exec_cmd: vm slot_add_binding R4 5 0 PA-POS-OC3 
Nov 26 21:57:52.367 HYPERVISOR: exec_cmd: vm set_config R4 configs/i8_startup-config.cfg 
Nov 26 21:57:52.376 HYPERVISOR: exec_cmd: vm set_config R4 configs/i8_startup-config.cfg configs/i8_private-config.cfg 
Nov 26 21:57:53.409 HYPERVISOR: exec_cmd: nio create_udp udp-9f502b53-a16f-43db-9a7a-5b87d83e444b 15034 127.0.0.1 15035 
Nov 26 21:57:53.410 HYPERVISOR: exec_cmd: vm slot_add_nio_binding R4 4 0 udp-9f502b53-a16f-43db-9a7a-5b87d83e444b 
Nov 26 21:57:53.410 HYPERVISOR: exec_cmd: vm get_status R4 
Nov 26 21:57:53.433 HYPERVISOR: exec_cmd: nio create_udp udp-37686d04-0c35-4171-90a1-7c013b9f7ac9 15038 127.0.0.1 15036 
Nov 26 21:57:53.433 HYPERVISOR: exec_cmd: vm slot_add_nio_binding R4 1 0 udp-37686d04-0c35-4171-90a1-7c013b9f7ac9 
Nov 26 21:57:53.434 HYPERVISOR: exec_cmd: vm get_status R4 
Nov 26 21:57:53.461 HYPERVISOR: exec_cmd: nio create_udp udp-48bf081f-95b8-485c-8737-8af47603a7c6 15039 127.0.0.1 15037 
Nov 26 21:57:53.461 HYPERVISOR: exec_cmd: vm slot_add_nio_binding R4 2 0 udp-48bf081f-95b8-485c-8737-8af47603a7c6 
Nov 26 21:57:53.461 HYPERVISOR: exec_cmd: vm get_status R4 
Nov 26 21:58:35.481 HYPERVISOR: exec_cmd: vm get_status R4 
Nov 26 21:58:35.483 HYPERVISOR: exec_cmd: vm extract_config R4 
Nov 26 21:58:35.488 HYPERVISOR: exec_cmd: vm delete R4 
Nov 26 21:58:35.488 VM: VM R4 destroyed.
Nov 26 21:58:35.490 HYPERVISOR: exec_cmd: hypervisor stop 
Nov 26 21:58:35.826 HYPERVISOR: Stopped.
Nov 26 21:58:35.826 GENERAL: reset done.
