autostart = False
version = 0.8.6
[127.0.0.1:7204]
    workingdir = C:\Users\ActionMystique\AppData\Local\GNS3
    udp = 10401
    [[7200]]
        image = C:\Users\ActionMystique\Google Drive\Missions\Certifications\Cisco\IOS\Binaries\c7200-adventerprisek9-mz.152-4.M2.image
        ram = 512
        idlepc = 0x6062dd70
        sparsemem = True
        ghostios = True
    [[ROUTER R1]]
        console = 2119
        aux = 2519
        cnfg = configs\R1.cfg
        slot0 = C7200-IO-GE-E
        g0/0 = R2 g0/0
        slot1 = PA-GE
        g1/0 = R2 g1/0
        slot2 = PA-GE
        g2/0 = R2 g2/0
        slot3 = PA-GE
        g3/0 = R2 g3/0
        x = -198.65271286
        y = -119.826405233
        z = 1.0
[127.0.0.1:7205]
    workingdir = C:\Users\ActionMystique\AppData\Local\GNS3
    udp = 10501
    [[7200]]
        image = C:\Users\ActionMystique\Google Drive\Missions\Certifications\Cisco\IOS\Binaries\c7200-adventerprisek9-mz.152-4.M2.image
        ram = 512
        idlepc = 0x6062dd70
        sparsemem = True
        ghostios = True
    [[ROUTER R2]]
        console = 2120
        aux = 2520
        cnfg = configs\R2.cfg
        slot0 = C7200-IO-GE-E
        g0/0 = R1 g0/0
        slot1 = PA-GE
        g1/0 = R1 g1/0
        slot2 = PA-GE
        g2/0 = R1 g2/0
        slot3 = PA-GE
        g3/0 = R1 g3/0
        x = 276.131440535
        y = -119.826405233
        z = 1.0
[GNS3-DATA]
    configs = configs
    m11 = 0.766664172334
    m22 = 0.766664172334
    [[NOTE 1]]
        text = "Does not detect when a bundled link goes down on R1, \nso cost remains all the time at 25 "
        x = 345.653298488
        y = -118.956869721
    [[NOTE 2]]
        text = "10.0.0.0/24"
        x = 28.6957455349
        y = -90.261124186
    [[NOTE 3]]
        text = "Reference Bandwidth = 100,000"
        x = -40.4349141628
        y = -9.39129586047
    [[NOTE 4]]
        text = "Interface Cost when 4 links are up:       25\n                         when 2 links are up:       50\n                         when all links are down: 1000\n                         when all llinks recover:   25"
        x = -499.566842721
        y = -135.913446628
    [[NOTE 5]]
        text = ".1/24"
        x = -131.739559046
        y = -85.4784348604
    [[NOTE 6]]
        text = "EtherChannel"
        x = -11.7391686279
        y = -150.261319395
        font = "MS Shell Dlg 2,20,-1,5,75,0,0,0,0,0"
        color = "#0000ff"
    [[NOTE 7]]
        text = ".2/24"
        x = 228.261612209
        y = -87.2175058837
    [[NOTE 8]]
        text = "OSPF"
        x = 27.3913934651
        y = -248.087724628
        font = "MS Shell Dlg 2,20,-1,5,75,0,0,0,0,0"
        color = "#0000ff"
    [[SHAPE 1]]
        type = ellipse
        x = -139.565671465
        y = -249.131245325
        width = 414.783958186
        height = 280.435695
        fill_color = "#00ffff"
        border_style = 2
        z = -1.0
