Nov 26 22:07:21.831 HYPERVISOR: Release 0.2.17-amd64/Linux (tag 2017072410)
Nov 26 22:07:21.831 HYPERVISOR: Started on IP = 127.0.0.1, TCP port = 55883.
Nov 26 22:07:21.844 HYPERVISOR: exec_cmd: hypervisor version 
Nov 26 22:07:21.844 HYPERVISOR: exec_cmd: hypervisor working_dir /media/actionmystique/SAMSUNG5-VMs/Labs/GNS3/TT 1-solutions-linux-/project-files/dynamips 
Nov 26 22:07:21.844 GENERAL: working_dir=/media/actionmystique/SAMSUNG5-VMs/Labs/GNS3/TT 1-solutions-linux-/project-files/dynamips
Nov 26 22:07:21.845 HYPERVISOR: exec_cmd: vm create ESW1 1 c3725 
Nov 26 22:07:21.845 VM: VM ESW1 created.
Nov 26 22:07:21.845 HYPERVISOR: exec_cmd: vm set_con_tcp_port ESW1 2001 
Nov 26 22:07:21.845 HYPERVISOR: exec_cmd: vm set_aux_tcp_port ESW1 2501 
Nov 26 22:07:21.846 HYPERVISOR: exec_cmd: c3725 get_mac_addr ESW1 
Nov 26 22:07:21.846 HYPERVISOR: exec_cmd: vm slot_add_binding ESW1 0 16 WIC-2T 
Nov 26 22:07:21.846 HYPERVISOR: exec_cmd: vm get_status ESW1 
Nov 26 22:07:21.847 HYPERVISOR: exec_cmd: vm set_idle_pc ESW1 0x60c06d20 
Nov 26 22:07:21.847 HYPERVISOR: exec_cmd: vm set_nvram ESW1 256 
Nov 26 22:07:21.847 HYPERVISOR: exec_cmd: vm get_status ESW1 
Nov 26 22:07:21.848 HYPERVISOR: exec_cmd: vm slot_add_binding ESW1 1 0 NM-16ESW 
Nov 26 22:07:21.848 HYPERVISOR: exec_cmd: vm set_ios ESW1 /media/actionmystique/SAMSUNG5-VMs/Images/GNS3/IOS/c3725-adventerprisek9-mz.124-15.T10.image 
Nov 26 22:07:21.848 HYPERVISOR: exec_cmd: vm set_disk0 ESW1 1 
Nov 26 22:07:21.849 HYPERVISOR: exec_cmd: c3725 set_mac_addr ESW1 c201.281a.0000 
Nov 26 22:07:21.849 HYPERVISOR: exec_cmd: vm set_config ESW1 configs/i1_startup-config.cfg 
Nov 26 22:07:21.850 HYPERVISOR: exec_cmd: vm set_config ESW1 configs/i1_startup-config.cfg configs/i1_private-config.cfg 
Nov 26 22:07:22.021 HYPERVISOR: exec_cmd: nio create_udp udp-c5d72152-1a8f-408c-abf5-7d350be1c47e 15001 127.0.0.1 15000 
Nov 26 22:07:22.026 HYPERVISOR: exec_cmd: vm slot_add_nio_binding ESW1 1 2 udp-c5d72152-1a8f-408c-abf5-7d350be1c47e 
Nov 26 22:07:22.033 HYPERVISOR: exec_cmd: vm get_status ESW1 
Nov 26 22:07:22.073 HYPERVISOR: exec_cmd: nio create_udp udp-f1c59863-53cf-4022-aaf3-8a52727438a1 15003 127.0.0.1 15002 
Nov 26 22:07:22.073 HYPERVISOR: exec_cmd: vm slot_add_nio_binding ESW1 1 1 udp-f1c59863-53cf-4022-aaf3-8a52727438a1 
Nov 26 22:07:22.073 HYPERVISOR: exec_cmd: vm get_status ESW1 
Nov 26 22:07:22.080 HYPERVISOR: exec_cmd: nio create_udp udp-8d5fa0df-251f-4563-9b2f-b6522238aef4 15005 127.0.0.1 15004 
Nov 26 22:07:22.081 HYPERVISOR: exec_cmd: vm slot_add_nio_binding ESW1 1 0 udp-8d5fa0df-251f-4563-9b2f-b6522238aef4 
Nov 26 22:07:22.081 HYPERVISOR: exec_cmd: vm get_status ESW1 
Nov 26 22:07:34.422 HYPERVISOR: exec_cmd: vm get_status ESW1 
Nov 26 22:07:34.424 HYPERVISOR: exec_cmd: vm extract_config ESW1 
Nov 26 22:07:34.425 HYPERVISOR: exec_cmd: vm delete ESW1 
Nov 26 22:07:34.425 VM: VM ESW1 destroyed.
Nov 26 22:07:34.426 HYPERVISOR: exec_cmd: hypervisor stop 
Nov 26 22:07:34.857 HYPERVISOR: Stopped.
Nov 26 22:07:34.857 GENERAL: reset done.
