autostart = False
version = 0.8.6
[127.0.0.1:7202]
    workingdir = C:\Users\ActionMystique\AppData\Local\GNS3
    udp = 10201
    [[7200]]
        image = C:\Users\ActionMystique\Google Drive\Missions\Certifications\Cisco\IOS\Binaries\c7200-adventerprisek9-mz.152-4.M2.image
        ram = 512
        idlepc = 0x6062d534
        sparsemem = True
        ghostios = True
    [[ROUTER RR-Berlin]]
        console = 2103
        aux = 2503
        cnfg = configs\RR-Berlin.cfg
        slot0 = C7200-IO-GE-E
        g0/0 = RR-Amsterdam g1/0
        slot1 = PA-GE
        g1/0 = RR-London g1/0
        slot2 = PA-GE
        g2/0 = Client_Munich g0/0
        slot3 = PA-GE
        g3/0 = Client-Prague g0/0
        symbol = gateway
        x = 37.0
        y = -227.0
        z = 1.0
[127.0.0.1:7200]
    workingdir = C:\Users\ActionMystique\AppData\Local\GNS3
    udp = 10001
    [[7200]]
        image = C:\Users\ActionMystique\Google Drive\Missions\Certifications\Cisco\IOS\Binaries\c7200-adventerprisek9-mz.152-4.M2.image
        ram = 512
        idlepc = 0x6062d534
        sparsemem = True
        ghostios = True
    [[ROUTER Client-Paris]]
        console = 2101
        aux = 2501
        cnfg = configs\Client-Paris.cfg
        slot0 = C7200-IO-GE-E
        g0/0 = RR-London g2/0
        slot1 = PA-GE
        g1/0 = RR-Amsterdam g2/0
        symbol = router
        x = -279.0
        y = -65.0
        z = 1.0
        hx = -21.0
        hy = 38.0
[127.0.0.1:7201]
    workingdir = C:\Users\ActionMystique\AppData\Local\GNS3
    udp = 10101
    [[7200]]
        image = C:\Users\ActionMystique\Google Drive\Missions\Certifications\Cisco\IOS\Binaries\c7200-adventerprisek9-mz.152-4.M2.image
        ram = 512
        idlepc = 0x6062d534
        sparsemem = True
        ghostios = True
    [[ROUTER RR-Amsterdam]]
        console = 2102
        aux = 2502
        cnfg = configs\RR-Amsterdam.cfg
        slot0 = C7200-IO-GE-E
        g0/0 = RR-London g0/0
        slot1 = PA-GE
        g1/0 = RR-Berlin g0/0
        slot2 = PA-GE
        g2/0 = Client-Paris g1/0
        slot3 = PA-GE
        g3/0 = Client-Geneva g1/0
        symbol = gateway
        x = -207.0
        y = -227.0
        z = 1.0
[127.0.0.1:7206]
    workingdir = C:\Users\ActionMystique\AppData\Local\GNS3
    udp = 10601
    [[7200]]
        image = C:\Users\ActionMystique\Google Drive\Missions\Certifications\Cisco\IOS\Binaries\c7200-adventerprisek9-mz.152-4.M2.image
        ram = 512
        idlepc = 0x6062d534
        sparsemem = True
        ghostios = True
    [[ROUTER Client-Prague]]
        console = 2107
        aux = 2507
        cnfg = configs\Client-Prague.cfg
        slot0 = C7200-IO-GE-E
        g0/0 = RR-Berlin g3/0
        x = 65.0
        y = -117.0
        z = 1.0
        hx = -25.0
        hy = -20.0
[127.0.0.1:7207]
    workingdir = C:\Users\ActionMystique\AppData\Local\GNS3
    udp = 10701
    [[7200]]
        image = C:\Users\ActionMystique\Google Drive\Missions\Certifications\Cisco\IOS\Binaries\c7200-adventerprisek9-mz.152-4.M2.image
        ram = 512
        idlepc = 0x6062d534
        sparsemem = True
        ghostios = True
    [[ROUTER Client_Munich]]
        console = 2108
        aux = 2508
        cnfg = configs\Client_Munich.cfg
        slot0 = C7200-IO-GE-E
        g0/0 = RR-Berlin g2/0
        x = -17.0
        y = -29.0
        z = 1.0
        hx = -34.0
        hy = -23.0
[127.0.0.1:7204]
    workingdir = C:\Users\ActionMystique\AppData\Local\GNS3
    udp = 10401
    [[7200]]
        image = C:\Users\ActionMystique\Google Drive\Missions\Certifications\Cisco\IOS\Binaries\c7200-adventerprisek9-mz.152-4.M2.image
        ram = 512
        idlepc = 0x6062d534
        sparsemem = True
        ghostios = True
    [[ROUTER RR-London]]
        console = 2105
        aux = 2505
        cnfg = configs\RR-London.cfg
        slot0 = C7200-IO-GE-E
        g0/0 = RR-Amsterdam g0/0
        slot1 = PA-GE
        g1/0 = RR-Berlin g1/0
        slot2 = PA-GE
        g2/0 = Client-Paris g0/0
        slot3 = PA-GE
        g3/0 = Client-Geneva g0/0
        symbol = gateway
        x = -353.0
        y = -177.0
        z = 1.0
        hx = -27.5
        hy = -28.0
[127.0.0.1:7205]
    workingdir = C:\Users\ActionMystique\AppData\Local\GNS3
    udp = 10501
    [[7200]]
        image = C:\Users\ActionMystique\Google Drive\Missions\Certifications\Cisco\IOS\Binaries\c7200-adventerprisek9-mz.152-4.M2.image
        ram = 512
        idlepc = 0x6062d534
        sparsemem = True
        ghostios = True
    [[ROUTER Client-Geneva]]
        console = 2106
        aux = 2506
        cnfg = configs\Client-Geneva.cfg
        slot0 = C7200-IO-GE-E
        g0/0 = RR-London g3/0
        slot1 = PA-GE
        g1/0 = RR-Amsterdam g3/0
        x = -112.0
        y = 15.0
        z = 1.0
        hx = -39.0
        hy = -24.0
[GNS3-DATA]
    configs = configs
    [[NOTE 1]]
        text = "iBGP"
        x = -90.0
        y = 98.5
        font = "MS Shell Dlg 2,14,-1,5,75,0,0,0,0,0"
    [[NOTE 2]]
        text = "10.1.0.0/16"
        x = -270.0
        y = 96.5
        font = "MS Shell Dlg 2,10,-1,5,75,0,0,0,0,0"
        color = "#0055ff"
    [[NOTE 3]]
        text = "BGP Route Reflectors"
        x = -252.0
        y = -359.5
        font = "MS Shell Dlg 2,24,-1,5,75,0,0,0,0,0"
    [[NOTE 4]]
        text = "Eastern Cluster"
        x = 89.0
        y = -57.5
        font = "MS Shell Dlg 2,12,-1,5,75,0,0,0,0,0"
        color = "#ff0000"
    [[NOTE 5]]
        text = "AS 1"
        x = -101.0
        y = 125.5
        font = "MS Shell Dlg 2,24,-1,5,75,0,0,0,0,0"
    [[NOTE 6]]
        text = "10.2.0.0/16"
        x = 9.0
        y = 33.5
        font = "MS Shell Dlg 2,10,-1,5,75,0,0,0,0,0"
        color = "#ff0000"
    [[NOTE 7]]
        text = "Western Cluster"
        x = -342.0
        y = 6.5
        font = "MS Shell Dlg 2,12,-1,5,75,0,0,0,0,0"
        color = "#0055ff"
    [[SHAPE 1]]
        type = ellipse
        x = -383.0
        y = -227.0
        width = 337.0
        height = 350.0
        border_style = 2
        z = -1.0
    [[SHAPE 2]]
        type = ellipse
        x = -44.0
        y = -228.0
        width = 209.0
        height = 294.0
        border_style = 2
        z = -1.0
    [[SHAPE 3]]
        type = ellipse
        x = -408.0
        y = -278.0
        width = 664.0
        height = 446.0
        border_style = 2
        z = -2.0
    [[PIXMAP 1]]
        path = Europe.JPG
        x = -625.5
        y = -299.5
        z = -2.0
