Nov 27 16:21:02.052 HYPERVISOR: Release 0.2.17-amd64/Linux (tag 2017072410)
Nov 27 16:21:02.052 HYPERVISOR: Started on IP = 127.0.0.1, TCP port = 47475.
Nov 27 16:21:02.072 HYPERVISOR: exec_cmd: hypervisor version 
Nov 27 16:21:02.073 HYPERVISOR: exec_cmd: hypervisor working_dir /media/actionmystique/SAMSUNG5-VMs/Labs/GNS3/TT 1-solutions-linux-/project-files/dynamips 
Nov 27 16:21:02.073 GENERAL: working_dir=/media/actionmystique/SAMSUNG5-VMs/Labs/GNS3/TT 1-solutions-linux-/project-files/dynamips
Nov 27 16:21:02.073 HYPERVISOR: exec_cmd: vm create SW1 1 c3725 
Nov 27 16:21:02.073 VM: VM SW1 created.
Nov 27 16:21:02.074 HYPERVISOR: exec_cmd: vm set_con_tcp_port SW1 2001 
Nov 27 16:21:02.075 HYPERVISOR: exec_cmd: c3725 get_mac_addr SW1 
Nov 27 16:21:02.076 HYPERVISOR: exec_cmd: vm set_nvram SW1 256 
Nov 27 16:21:02.077 HYPERVISOR: exec_cmd: vm get_status SW1 
Nov 27 16:21:02.078 HYPERVISOR: exec_cmd: vm set_idle_pc SW1 0x6026b804 
Nov 27 16:21:02.079 HYPERVISOR: exec_cmd: c3725 set_mac_addr SW1 aaaa.aaaa.aaaa 
Nov 27 16:21:02.080 HYPERVISOR: exec_cmd: vm set_exec_area SW1 16 
Nov 27 16:21:02.081 HYPERVISOR: exec_cmd: vm get_status SW1 
Nov 27 16:21:02.082 HYPERVISOR: exec_cmd: vm slot_add_binding SW1 1 0 NM-16ESW 
Nov 27 16:21:02.083 HYPERVISOR: exec_cmd: vm set_disk0 SW1 1 
Nov 27 16:21:02.084 HYPERVISOR: exec_cmd: vm set_ios SW1 /media/actionmystique/SAMSUNG5-VMs/Images/GNS3/IOS/c3725-adventerprisek9-mz.124-15.T10.image 
Nov 27 16:21:02.085 HYPERVISOR: exec_cmd: vm slot_add_binding SW1 0 16 WIC-2T 
Nov 27 16:21:02.086 HYPERVISOR: exec_cmd: vm set_config SW1 configs/i1_startup-config.cfg 
Nov 27 16:21:02.087 HYPERVISOR: exec_cmd: vm set_config SW1 configs/i1_startup-config.cfg configs/i1_private-config.cfg 
Nov 27 16:21:02.335 HYPERVISOR: exec_cmd: nio create_udp udp-a2f03b62-2786-4c99-8487-ffe803da88f4 15005 127.0.0.1 15007 
Nov 27 16:21:02.336 HYPERVISOR: exec_cmd: vm slot_add_nio_binding SW1 1 0 udp-a2f03b62-2786-4c99-8487-ffe803da88f4 
Nov 27 16:21:02.336 HYPERVISOR: exec_cmd: vm get_status SW1 
Nov 27 16:21:02.350 HYPERVISOR: exec_cmd: nio create_udp udp-523de3c3-5ee8-43de-8bfb-a3addacdeecb 15009 127.0.0.1 15008 
Nov 27 16:21:02.350 HYPERVISOR: exec_cmd: vm slot_add_nio_binding SW1 1 1 udp-523de3c3-5ee8-43de-8bfb-a3addacdeecb 
Nov 27 16:21:02.351 HYPERVISOR: exec_cmd: vm get_status SW1 
Nov 27 16:21:02.377 HYPERVISOR: exec_cmd: nio create_udp udp-7cca7e7a-032e-40fc-8f29-a39ea0432d79 15011 127.0.0.1 15010 
Nov 27 16:21:02.377 HYPERVISOR: exec_cmd: vm slot_add_nio_binding SW1 1 5 udp-7cca7e7a-032e-40fc-8f29-a39ea0432d79 
Nov 27 16:21:02.378 HYPERVISOR: exec_cmd: vm get_status SW1 
Nov 27 16:21:02.392 HYPERVISOR: exec_cmd: nio create_udp udp-22b92285-a170-47c3-8e44-f35358ea1573 15012 127.0.0.1 15013 
Nov 27 16:21:02.393 HYPERVISOR: exec_cmd: vm slot_add_nio_binding SW1 1 6 udp-22b92285-a170-47c3-8e44-f35358ea1573 
Nov 27 16:21:02.393 HYPERVISOR: exec_cmd: vm get_status SW1 
Nov 27 16:21:14.993 HYPERVISOR: exec_cmd: vm get_status SW1 
Nov 27 16:21:14.994 HYPERVISOR: exec_cmd: vm extract_config SW1 
Nov 27 16:21:14.998 HYPERVISOR: exec_cmd: vm delete SW1 
Nov 27 16:21:14.998 VM: VM SW1 destroyed.
Nov 27 16:21:15.003 HYPERVISOR: exec_cmd: hypervisor stop 
Nov 27 16:21:15.082 HYPERVISOR: Stopped.
Nov 27 16:21:15.082 GENERAL: reset done.
