Nov 27 16:21:02.039 HYPERVISOR: Release 0.2.17-amd64/Linux (tag 2017072410)
Nov 27 16:21:02.039 HYPERVISOR: Started on IP = 127.0.0.1, TCP port = 47393.
Nov 27 16:21:02.071 HYPERVISOR: exec_cmd: hypervisor version 
Nov 27 16:21:02.072 HYPERVISOR: exec_cmd: hypervisor working_dir /media/actionmystique/SAMSUNG5-VMs/Labs/GNS3/TT 1-solutions-linux-/project-files/dynamips 
Nov 27 16:21:02.072 GENERAL: working_dir=/media/actionmystique/SAMSUNG5-VMs/Labs/GNS3/TT 1-solutions-linux-/project-files/dynamips
Nov 27 16:21:02.073 HYPERVISOR: exec_cmd: vm create SW3 3 c3725 
Nov 27 16:21:02.073 VM: VM SW3 created.
Nov 27 16:21:02.074 HYPERVISOR: exec_cmd: vm set_con_tcp_port SW3 2003 
Nov 27 16:21:02.075 HYPERVISOR: exec_cmd: c3725 get_mac_addr SW3 
Nov 27 16:21:02.076 HYPERVISOR: exec_cmd: vm set_nvram SW3 256 
Nov 27 16:21:02.077 HYPERVISOR: exec_cmd: vm get_status SW3 
Nov 27 16:21:02.077 HYPERVISOR: exec_cmd: vm set_idle_pc SW3 0x6026b804 
Nov 27 16:21:02.078 HYPERVISOR: exec_cmd: c3725 set_mac_addr SW3 cccc.cccc.cccc 
Nov 27 16:21:02.079 HYPERVISOR: exec_cmd: vm set_exec_area SW3 16 
Nov 27 16:21:02.080 HYPERVISOR: exec_cmd: vm get_status SW3 
Nov 27 16:21:02.081 HYPERVISOR: exec_cmd: vm slot_add_binding SW3 1 0 NM-16ESW 
Nov 27 16:21:02.082 HYPERVISOR: exec_cmd: vm set_disk0 SW3 1 
Nov 27 16:21:02.083 HYPERVISOR: exec_cmd: vm set_ios SW3 /media/actionmystique/SAMSUNG5-VMs/Images/GNS3/IOS/c3725-adventerprisek9-mz.124-15.T10.image 
Nov 27 16:21:02.084 HYPERVISOR: exec_cmd: vm slot_add_binding SW3 0 16 WIC-2T 
Nov 27 16:21:02.085 HYPERVISOR: exec_cmd: vm set_config SW3 configs/i3_startup-config.cfg 
Nov 27 16:21:02.086 HYPERVISOR: exec_cmd: vm set_config SW3 configs/i3_startup-config.cfg configs/i3_private-config.cfg 
Nov 27 16:21:02.284 HYPERVISOR: exec_cmd: nio create_udp udp-45704d9b-cc7f-4791-a3db-bd0817e84cd0 15004 127.0.0.1 15003 
Nov 27 16:21:02.291 HYPERVISOR: exec_cmd: vm slot_add_nio_binding SW3 1 1 udp-45704d9b-cc7f-4791-a3db-bd0817e84cd0 
Nov 27 16:21:02.292 HYPERVISOR: exec_cmd: vm get_status SW3 
Nov 27 16:21:02.321 HYPERVISOR: exec_cmd: nio create_udp udp-b8676172-61b8-4476-a1ba-103b512b141b 15000 127.0.0.1 15006 
Nov 27 16:21:02.321 HYPERVISOR: exec_cmd: vm slot_add_nio_binding SW3 1 2 udp-b8676172-61b8-4476-a1ba-103b512b141b 
Nov 27 16:21:02.322 HYPERVISOR: exec_cmd: vm get_status SW3 
Nov 27 16:21:02.384 HYPERVISOR: exec_cmd: nio create_udp udp-9e3a9a8a-b81d-499c-bcb5-fe2918d1920f 15010 127.0.0.1 15011 
Nov 27 16:21:02.385 HYPERVISOR: exec_cmd: vm slot_add_nio_binding SW3 1 5 udp-9e3a9a8a-b81d-499c-bcb5-fe2918d1920f 
Nov 27 16:21:02.385 HYPERVISOR: exec_cmd: vm get_status SW3 
Nov 27 16:21:02.401 HYPERVISOR: exec_cmd: nio create_udp udp-7a35369c-6f54-4255-85fc-0b7994997dfe 15013 127.0.0.1 15012 
Nov 27 16:21:02.401 HYPERVISOR: exec_cmd: vm slot_add_nio_binding SW3 1 6 udp-7a35369c-6f54-4255-85fc-0b7994997dfe 
Nov 27 16:21:02.402 HYPERVISOR: exec_cmd: vm get_status SW3 
Nov 27 16:21:14.992 HYPERVISOR: exec_cmd: vm get_status SW3 
Nov 27 16:21:14.994 HYPERVISOR: exec_cmd: vm extract_config SW3 
Nov 27 16:21:14.996 HYPERVISOR: exec_cmd: vm delete SW3 
Nov 27 16:21:14.996 VM: VM SW3 destroyed.
Nov 27 16:21:15.002 HYPERVISOR: exec_cmd: hypervisor stop 
Nov 27 16:21:15.082 HYPERVISOR: Stopped.
Nov 27 16:21:15.082 GENERAL: reset done.
