autostart = False
version = 0.8.2
[127.0.0.1:7200]
    workingdir = C:\Users\ActionMystique\Documents\Missions\GNS3\Temp
    udp = 10000
    [[3725]]
        image = C:\Users\ActionMystique\Documents\Missions\IOS\Binaries\c3725-adventerprisek9-mz.124-15.T5.image
        ram = 128
        idlepc = 0x62af9f1c
        sparsemem = True
        ghostios = True
    [[ROUTER R4]]
        model = 3725
        console = 2018
        aux = 2105
        cnfg = configs\R4.cfg
        wic0/0 = WIC-2T
        wic0/1 = WIC-2T
        s0/0 = R3 s0/2
        x = -131.0
        y = 35.0
        z = 1.0
    [[ROUTER R1]]
        model = 3725
        console = 2015
        aux = 2106
        cnfg = configs\R1.cfg
        wic0/0 = WIC-2T
        wic0/1 = WIC-2T
        s0/0 = R2 s0/0
        x = -591.0
        y = 36.0
        z = 1.0
    [[ROUTER R2]]
        model = 3725
        console = 2016
        aux = 2107
        cnfg = configs\R2.cfg
        wic0/0 = WIC-2T
        wic0/1 = WIC-2T
        s0/0 = R1 s0/0
        s0/1 = R3 s0/1
        x = -588.0
        y = -312.0
        z = 1.0
    [[ROUTER R3]]
        model = 3725
        console = 2017
        aux = 2108
        cnfg = configs\R3.cfg
        wic0/0 = WIC-2T
        wic0/1 = WIC-2T
        s0/1 = R2 s0/1
        s0/2 = R4 s0/0
        x = -140.0
        y = -315.0
        z = 1.0
[GNS3-DATA]
    configs = configs
    width = 5000
    height = 2500
    [[NOTE 1]]
        text = s0/1\nDCE\n:2
        x = -505.0
        y = -331.5
    [[NOTE 2]]
        text = s0/2\nDCE\n:3
        x = -91.0
        y = -263.5
    [[NOTE 3]]
        text = FEC0::34:0/112
        x = -81.0
        y = -135.5
    [[NOTE 4]]
        text = s0/0\n:4
        x = -86.0
        y = -34.5
    [[NOTE 5]]
        text = FEC0::12:0/112
        x = -700.0
        y = -134.5
    [[NOTE 6]]
        text = s0/1\n:3
        x = -195.0
        y = -312.5
    [[NOTE 7]]
        text = s0/0\nDCE\n:1
        x = -614.0
        y = -31.5
    [[NOTE 8]]
        text = Lo0: FEC0::2:1/112
        x = -635.0
        y = -371.5
    [[NOTE 9]]
        text = FEC0::23:0/112
        x = -404.0
        y = -332.5
    [[NOTE 10]]
        text = s0/0\n:2
        x = -609.0
        y = -255.5
    [[NOTE 11]]
        text = Lo0: FEC0::3:1/112
        x = -173.0
        y = -377.5
    [[NOTE 12]]
        text = Lo0: FEC0::1:1/112
        x = -635.0
        y = 108.5
    [[NOTE 13]]
        text = Lo0: FEC0::4:1/112
        x = -173.0
        y = 104.5
    [[SHAPE 1]]
        type = ellipse
        x = -598.0
        y = -335.0
        width = 30.0
        height = 28.0
        border_style = 2
        z = -2.0
    [[SHAPE 2]]
        type = ellipse
        x = -95.0
        y = -337.0
        width = 30.0
        height = 28.0
        border_style = 2
        z = -2.0
    [[SHAPE 3]]
        type = ellipse
        x = -115.0
        y = 76.0
        width = 30.0
        height = 28.0
        border_style = 2
        z = -2.0
    [[SHAPE 4]]
        type = ellipse
        x = -575.0
        y = 76.0
        width = 30.0
        height = 28.0
        border_style = 2
        z = -2.0
