Dec 04 11:09:26.912 HYPERVISOR: Release 0.2.17-amd64/Linux (tag 2017072410)
Dec 04 11:09:26.912 HYPERVISOR: Started on IP = 127.0.0.1, TCP port = 53423.
Dec 04 11:09:26.964 HYPERVISOR: exec_cmd: hypervisor version 
Dec 04 11:09:26.966 HYPERVISOR: exec_cmd: hypervisor working_dir /media/actionmystique/SAMSUNG5-VMs/Labs/GNS3/TT 1-linux-/project-files/dynamips 
Dec 04 11:09:26.966 GENERAL: working_dir=/media/actionmystique/SAMSUNG5-VMs/Labs/GNS3/TT 1-linux-/project-files/dynamips
Dec 04 11:09:26.966 HYPERVISOR: exec_cmd: vm create ESW1 1 c3725 
Dec 04 11:09:26.966 VM: VM ESW1 created.
Dec 04 11:09:26.967 HYPERVISOR: exec_cmd: vm set_con_tcp_port ESW1 2004 
Dec 04 11:09:26.968 HYPERVISOR: exec_cmd: c3725 get_mac_addr ESW1 
Dec 04 11:09:26.976 HYPERVISOR: exec_cmd: vm set_nvram ESW1 256 
Dec 04 11:09:26.988 HYPERVISOR: exec_cmd: vm set_ios ESW1 /media/actionmystique/SAMSUNG5-VMs/Images/GNS3/IOS/c3725-adventerprisek9-mz.124-15.T10.image 
Dec 04 11:09:26.989 HYPERVISOR: exec_cmd: c3725 set_mac_addr ESW1 c201.1b91.0000 
Dec 04 11:09:26.990 HYPERVISOR: exec_cmd: vm get_status ESW1 
Dec 04 11:09:26.991 HYPERVISOR: exec_cmd: vm slot_add_binding ESW1 1 0 NM-16ESW 
Dec 04 11:09:26.992 HYPERVISOR: exec_cmd: vm get_status ESW1 
Dec 04 11:09:26.993 HYPERVISOR: exec_cmd: vm set_idle_pc ESW1 0x6026b804 
Dec 04 11:09:26.993 HYPERVISOR: exec_cmd: vm set_disk0 ESW1 1 
Dec 04 11:09:26.994 HYPERVISOR: exec_cmd: vm slot_add_binding ESW1 0 16 WIC-2T 
Dec 04 11:09:26.995 HYPERVISOR: exec_cmd: vm set_config ESW1 configs/ios_base_startup-config.txt 
Dec 04 11:09:26.996 HYPERVISOR: exec_cmd: vm set_config ESW1 configs/ios_base_startup-config.txt configs/ios_base_private-config.txt 
Dec 04 11:09:27.288 HYPERVISOR: exec_cmd: nio create_udp udp-95008618-6588-400b-a34f-f2496a8c2eb6 15007 127.0.0.1 15004 
Dec 04 11:09:27.288 HYPERVISOR: exec_cmd: vm slot_add_nio_binding ESW1 1 0 udp-95008618-6588-400b-a34f-f2496a8c2eb6 
Dec 04 11:09:27.288 HYPERVISOR: exec_cmd: vm get_status ESW1 
Dec 04 11:09:27.317 HYPERVISOR: exec_cmd: nio create_udp udp-a30d38b1-69f5-4f24-99f1-664a08d51ccf 15009 127.0.0.1 15008 
Dec 04 11:09:27.324 HYPERVISOR: exec_cmd: vm slot_add_nio_binding ESW1 1 1 udp-a30d38b1-69f5-4f24-99f1-664a08d51ccf 
Dec 04 11:09:27.324 HYPERVISOR: exec_cmd: vm get_status ESW1 
Dec 04 11:09:38.533 HYPERVISOR: exec_cmd: vm get_status ESW1 
Dec 04 11:09:38.536 HYPERVISOR: exec_cmd: vm extract_config ESW1 
Dec 04 11:09:38.542 HYPERVISOR: exec_cmd: vm delete ESW1 
Dec 04 11:09:38.542 VM: VM ESW1 destroyed.
Dec 04 11:09:38.544 HYPERVISOR: exec_cmd: hypervisor stop 
Dec 04 11:09:38.972 HYPERVISOR: Stopped.
Dec 04 11:09:38.972 GENERAL: reset done.
