Dec 04 11:08:25.166 HYPERVISOR: Release 0.2.17-amd64/Linux (tag 2017072410)
Dec 04 11:08:25.166 HYPERVISOR: Started on IP = 127.0.0.1, TCP port = 59711.
Dec 04 11:08:25.184 HYPERVISOR: exec_cmd: hypervisor version 
Dec 04 11:08:25.185 HYPERVISOR: exec_cmd: hypervisor working_dir /media/actionmystique/SAMSUNG5-VMs/Labs/GNS3/git-Public-Labs-Collection/CCNP/TBSHOOT/L3-Technologies/IPv6/Routing-Protocols/Redistribution/Jean-Christophe_Manciot/1+/TT 1-linux/project-files/dynamips 
Dec 04 11:08:25.185 GENERAL: working_dir=/media/actionmystique/SAMSUNG5-VMs/Labs/GNS3/git-Public-Labs-Collection/CCNP/TBSHOOT/L3-Technologies/IPv6/Routing-Protocols/Redistribution/Jean-Christophe_Manciot/1+/TT 1-linux/project-files/dynamips
Dec 04 11:08:25.187 HYPERVISOR: exec_cmd: vm create ESW1 1 c3725 
Dec 04 11:08:25.187 VM: VM ESW1 created.
Dec 04 11:08:25.188 HYPERVISOR: exec_cmd: vm set_con_tcp_port ESW1 2004 
Dec 04 11:08:25.189 HYPERVISOR: exec_cmd: c3725 get_mac_addr ESW1 
Dec 04 11:08:25.190 HYPERVISOR: exec_cmd: vm set_nvram ESW1 256 
Dec 04 11:08:25.190 HYPERVISOR: exec_cmd: vm set_ios ESW1 /media/actionmystique/SAMSUNG5-VMs/Images/GNS3/IOS/c3725-adventerprisek9-mz.124-15.T10.image 
Dec 04 11:08:25.191 HYPERVISOR: exec_cmd: c3725 set_mac_addr ESW1 c201.1b91.0000 
Dec 04 11:08:25.192 HYPERVISOR: exec_cmd: vm get_status ESW1 
Dec 04 11:08:25.196 HYPERVISOR: exec_cmd: vm slot_add_binding ESW1 1 0 NM-16ESW 
Dec 04 11:08:25.197 HYPERVISOR: exec_cmd: vm get_status ESW1 
Dec 04 11:08:25.197 HYPERVISOR: exec_cmd: vm set_idle_pc ESW1 0x6026b804 
Dec 04 11:08:25.197 HYPERVISOR: exec_cmd: vm set_disk0 ESW1 1 
Dec 04 11:08:25.198 HYPERVISOR: exec_cmd: vm slot_add_binding ESW1 0 16 WIC-2T 
Dec 04 11:08:25.198 HYPERVISOR: exec_cmd: vm set_config ESW1 configs/ios_base_startup-config.txt 
Dec 04 11:08:25.199 HYPERVISOR: exec_cmd: vm set_config ESW1 configs/ios_base_startup-config.txt configs/ios_base_private-config.txt 
Dec 04 11:08:25.529 HYPERVISOR: exec_cmd: nio create_udp udp-0189441b-25a2-4f57-ae54-6338d2dec5fb 15017 127.0.0.1 15018 
Dec 04 11:08:25.530 HYPERVISOR: exec_cmd: vm slot_add_nio_binding ESW1 1 1 udp-0189441b-25a2-4f57-ae54-6338d2dec5fb 
Dec 04 11:08:25.530 HYPERVISOR: exec_cmd: vm get_status ESW1 
Dec 04 11:08:25.537 HYPERVISOR: exec_cmd: nio create_udp udp-59034149-d28c-4c46-b694-d4f9324a6dc8 15016 127.0.0.1 15019 
Dec 04 11:08:25.544 HYPERVISOR: exec_cmd: vm slot_add_nio_binding ESW1 1 0 udp-59034149-d28c-4c46-b694-d4f9324a6dc8 
Dec 04 11:08:25.544 HYPERVISOR: exec_cmd: vm get_status ESW1 
