Dec 04 11:08:25.122 HYPERVISOR: Release 0.2.17-amd64/Linux (tag 2017072410)
Dec 04 11:08:25.122 HYPERVISOR: Started on IP = 127.0.0.1, TCP port = 49247.
Dec 04 11:08:25.142 HYPERVISOR: exec_cmd: hypervisor version 
Dec 04 11:08:25.143 HYPERVISOR: exec_cmd: hypervisor working_dir /media/actionmystique/SAMSUNG5-VMs/Labs/GNS3/git-Public-Labs-Collection/CCNP/TBSHOOT/L3-Technologies/IPv6/Routing-Protocols/Redistribution/Jean-Christophe_Manciot/1+/TT 1-linux/project-files/dynamips 
Dec 04 11:08:25.143 GENERAL: working_dir=/media/actionmystique/SAMSUNG5-VMs/Labs/GNS3/git-Public-Labs-Collection/CCNP/TBSHOOT/L3-Technologies/IPv6/Routing-Protocols/Redistribution/Jean-Christophe_Manciot/1+/TT 1-linux/project-files/dynamips
Dec 04 11:08:25.144 HYPERVISOR: exec_cmd: vm create ESW5 5 c3725 
Dec 04 11:08:25.144 VM: VM ESW5 created.
Dec 04 11:08:25.145 HYPERVISOR: exec_cmd: vm set_con_tcp_port ESW5 2010 
Dec 04 11:08:25.146 HYPERVISOR: exec_cmd: c3725 get_mac_addr ESW5 
Dec 04 11:08:25.147 HYPERVISOR: exec_cmd: vm set_nvram ESW5 256 
Dec 04 11:08:25.148 HYPERVISOR: exec_cmd: vm set_ios ESW5 /media/actionmystique/SAMSUNG5-VMs/Images/GNS3/IOS/c3725-adventerprisek9-mz.124-15.T10.image 
Dec 04 11:08:25.149 HYPERVISOR: exec_cmd: c3725 set_mac_addr ESW5 c205.6a03.0000 
Dec 04 11:08:25.150 HYPERVISOR: exec_cmd: vm get_status ESW5 
Dec 04 11:08:25.151 HYPERVISOR: exec_cmd: vm slot_add_binding ESW5 1 0 NM-16ESW 
Dec 04 11:08:25.155 HYPERVISOR: exec_cmd: vm get_status ESW5 
Dec 04 11:08:25.157 HYPERVISOR: exec_cmd: vm set_idle_pc ESW5 0x6026b804 
Dec 04 11:08:25.160 HYPERVISOR: exec_cmd: vm set_disk0 ESW5 1 
Dec 04 11:08:25.161 HYPERVISOR: exec_cmd: vm slot_add_binding ESW5 0 16 WIC-2T 
Dec 04 11:08:25.163 HYPERVISOR: exec_cmd: vm set_config ESW5 configs/ios_base_startup-config.txt 
Dec 04 11:08:25.165 HYPERVISOR: exec_cmd: vm set_config ESW5 configs/ios_base_startup-config.txt configs/ios_base_private-config.txt 
Dec 04 11:08:25.467 HYPERVISOR: exec_cmd: nio create_udp udp-c0d46c6e-60a4-4d0f-af51-c063eb4d7380 15012 127.0.0.1 15010 
Dec 04 11:08:25.468 HYPERVISOR: exec_cmd: vm slot_add_nio_binding ESW5 1 0 udp-c0d46c6e-60a4-4d0f-af51-c063eb4d7380 
Dec 04 11:08:25.469 HYPERVISOR: exec_cmd: vm get_status ESW5 
Dec 04 11:08:25.476 HYPERVISOR: exec_cmd: nio create_udp udp-e3c0bcff-9157-49f9-8eae-16705181107f 15011 127.0.0.1 15013 
Dec 04 11:08:25.477 HYPERVISOR: exec_cmd: vm slot_add_nio_binding ESW5 1 1 udp-e3c0bcff-9157-49f9-8eae-16705181107f 
Dec 04 11:08:25.477 HYPERVISOR: exec_cmd: vm get_status ESW5 
