Nov 28 08:08:10.342 HYPERVISOR: Release 0.2.17-amd64/Linux (tag 2017072410)
Nov 28 08:08:10.342 HYPERVISOR: Started on IP = 127.0.0.1, TCP port = 51853.
Nov 28 08:08:10.354 HYPERVISOR: exec_cmd: hypervisor version 
Nov 28 08:08:10.355 HYPERVISOR: exec_cmd: hypervisor working_dir /media/actionmystique/SAMSUNG5-VMs/Labs/GNS3/TT 1-linux-/project-files/dynamips 
Nov 28 08:08:10.355 GENERAL: working_dir=/media/actionmystique/SAMSUNG5-VMs/Labs/GNS3/TT 1-linux-/project-files/dynamips
Nov 28 08:08:10.355 HYPERVISOR: exec_cmd: vm create ESW2 2 c3725 
Nov 28 08:08:10.355 VM: VM ESW2 created.
Nov 28 08:08:10.355 HYPERVISOR: exec_cmd: vm set_con_tcp_port ESW2 2004 
Nov 28 08:08:10.356 HYPERVISOR: exec_cmd: c3725 get_mac_addr ESW2 
Nov 28 08:08:10.356 HYPERVISOR: exec_cmd: vm get_status ESW2 
Nov 28 08:08:10.356 HYPERVISOR: exec_cmd: vm slot_add_binding ESW2 1 0 NM-16ESW 
Nov 28 08:08:10.357 HYPERVISOR: exec_cmd: vm set_disk0 ESW2 1 
Nov 28 08:08:10.357 HYPERVISOR: exec_cmd: vm slot_add_binding ESW2 0 16 WIC-2T 
Nov 28 08:08:10.357 HYPERVISOR: exec_cmd: vm get_status ESW2 
Nov 28 08:08:10.358 HYPERVISOR: exec_cmd: vm set_idle_pc ESW2 0x614ac27c 
Nov 28 08:08:10.358 HYPERVISOR: exec_cmd: c3725 set_mac_addr ESW2 c202.447a.0000 
Nov 28 08:08:10.358 HYPERVISOR: exec_cmd: vm set_nvram ESW2 256 
Nov 28 08:08:10.359 HYPERVISOR: exec_cmd: vm set_ios ESW2 /media/actionmystique/SAMSUNG5-VMs/Images/GNS3/IOS/c3725-adventerprisek9-mz.124-15.T10.image 
Nov 28 08:08:10.359 HYPERVISOR: exec_cmd: vm set_config ESW2 configs/ios_base_startup-config.txt 
Nov 28 08:08:10.360 HYPERVISOR: exec_cmd: vm set_config ESW2 configs/ios_base_startup-config.txt configs/ios_base_private-config.txt 
Nov 28 08:08:10.623 HYPERVISOR: exec_cmd: nio create_udp udp-e96d6951-de4e-4842-bda0-1f1e01d17e42 15002 127.0.0.1 15005 
Nov 28 08:08:10.624 HYPERVISOR: exec_cmd: vm slot_add_nio_binding ESW2 1 0 udp-e96d6951-de4e-4842-bda0-1f1e01d17e42 
Nov 28 08:08:10.624 HYPERVISOR: exec_cmd: vm get_status ESW2 
Nov 28 08:08:35.044 HYPERVISOR: exec_cmd: vm get_status ESW2 
Nov 28 08:08:35.046 HYPERVISOR: exec_cmd: vm extract_config ESW2 
Nov 28 08:08:35.048 HYPERVISOR: exec_cmd: vm delete ESW2 
Nov 28 08:08:35.048 VM: VM ESW2 destroyed.
Nov 28 08:08:35.058 HYPERVISOR: exec_cmd: hypervisor stop 
Nov 28 08:08:35.381 HYPERVISOR: Stopped.
Nov 28 08:08:35.381 GENERAL: reset done.
