tclsh
foreach address {
10.1.1.1
10.1.1.5
10.1.1.9
10.1.2.1
10.1.2.5
10.1.2.9
10.1.3.1
10.1.3.5
10.1.3.9
10.1.102.1
10.1.102.2
10.1.103.1
10.1.103.3
10.1.203.2
10.1.203.3
} {
ping $address }
exit
