autostart = False
version = 0.8.6
[127.0.0.1:7202]
    workingdir = /tmp
    udp = 10200
    [[7200]]
        image = c7200-adventerprisek9-mz.152-4.M2.image
        ram = 512
        idlepc = 0x60188e14
        sparsemem = True
        ghostios = True
    [[ROUTER R4]]
        console = 2007
        aux = 2107
        cnfg = configs/R4.cfg
        slot0 = C7200-IO-GE-E
        g0/0 = R8 g0/0
        slot1 = PA-8T
        s1/0 = RD1 s1/3
        s1/1 = RD5 s1/1
        s1/2 = R10 s1/1
        slot2 = PA-2FE-TX
        slot3 = PA-2FE-TX
        slot4 = PA-2FE-TX
        slot5 = PA-2FE-TX
        x = 107.0
        y = 107.0
        z = 1.0
        hx = 20.5
        hy = -16.5147186258
    [[ROUTER RD1]]
        console = 2004
        aux = 2104
        cnfg = configs/RD1.cfg
        slot0 = C7200-IO-GE-E
        g0/0 = R3 g0/0
        slot1 = PA-8T
        s1/0 = R7 s1/0
        s1/1 = R2 s1/0
        s1/2 = R8 s1/0
        s1/3 = R4 s1/0
        x = -128.0
        y = -30.0
        z = 1.0
[127.0.0.1:7203]
    workingdir = /tmp
    udp = 10300
    [[7200]]
        image = c7200-adventerprisek9-mz.152-4.M2.image
        ram = 512
        idlepc = 0x60188e14
        sparsemem = True
        ghostios = True
    [[ROUTER RD5]]
        console = 2006
        aux = 2106
        cnfg = configs/RD5.cfg
        slot0 = C7200-IO-GE-E
        g0/0 = R15 g0/0
        slot1 = PA-8T
        s1/0 = R3 s1/0
        s1/1 = R4 s1/1
        s1/2 = R6 s1/0
        x = 56.5979797464
        y = 281.518289963
        z = 1.0
        hx = 66.9116882454
        hy = 10.3553390593
    [[ROUTER R6]]
        console = 2008
        aux = 2108
        cnfg = configs/R6.cfg
        slot0 = C7200-IO-GE-E
        slot1 = PA-8T
        s1/0 = RD5 s1/2
        s1/1 = RD9 s1/1
        x = -126.338095117
        y = 375.394011027
        z = 1.0
[127.0.0.1:7200]
    workingdir = /tmp
    udp = 10000
    [[7200]]
        image = c7200-adventerprisek9-mz.152-4.M2.image
        ram = 512
        idlepc = 0x60188e14
        sparsemem = True
        ghostios = True
    [[ROUTER R3]]
        console = 2003
        aux = 2103
        cnfg = configs/R3.cfg
        slot0 = C7200-IO-GE-E
        g0/0 = RD1 g0/0
        slot1 = PA-8T
        s1/0 = RD5 s1/0
        s1/1 = R15 s1/0
        x = -5.50252531694
        y = 107.455844123
        z = 1.0
        hx = 20.5
        hy = -22.1715728753
    [[ROUTER R8]]
        console = 2000
        aux = 2100
        cnfg = configs/R8.cfg
        slot0 = C7200-IO-GE-E
        g0/0 = R4 g0/0
        slot1 = PA-8T
        s1/0 = RD1 s1/2
        s1/1 = R10 s1/0
        s1/2 = RD14 s1/1
        x = 107.0
        y = -181.0
        z = 1.0
[127.0.0.1:7201]
    workingdir = /tmp
    udp = 10100
    [[7200]]
        image = c7200-adventerprisek9-mz.152-4.M2.image
        ram = 512
        idlepc = 0x60188e14
        sparsemem = True
        ghostios = True
    [[ROUTER R7]]
        console = 2001
        aux = 2101
        cnfg = configs/R7.cfg
        slot0 = C7200-IO-GE-E
        g0/0 = R2 g0/0
        slot1 = PA-8T
        s1/0 = RD1 s1/0
        s1/1 = RD11 s1/1
        s1/2 = RD14 s1/0
        x = -351.0
        y = -181.0
        z = 1.0
    [[ROUTER R2]]
        console = 2002
        aux = 2102
        cnfg = configs/R2.cfg
        slot0 = C7200-IO-GE-E
        g0/0 = R7 g0/0
        slot1 = PA-8T
        s1/0 = RD1 s1/1
        s1/1 = RD9 s1/0
        s1/2 = RD11 s1/0
        x = -272.175765581
        y = 55.6354545675
        z = 1.0
        hx = 5.28873058522
        hy = 40.3824712704
[127.0.0.1:7206]
    workingdir = /tmp
    udp = 10600
    [[7200]]
        image = c7200-adventerprisek9-mz.152-4.M2.image
        ram = 512
        idlepc = 0x60188e14
        sparsemem = True
        ghostios = True
    [[ROUTER RD14]]
        console = 2014
        aux = 2114
        cnfg = configs/RD14.cfg
        slot0 = C7200-IO-GE-E
        g0/0 = R13 g0/0
        slot1 = PA-8T
        s1/0 = R7 s1/2
        s1/1 = R8 s1/2
        x = -124.757359313
        y = -102.100505063
        z = 1.0
    [[ROUTER R12]]
        console = 2013
        aux = 2113
        cnfg = configs/R12.cfg
        slot0 = C7200-IO-2FE
        f0/0 = RD11 f0/0
        slot1 = PA-2FE-TX
        f1/0 = RD13 f1/0
        slot2 = PA-2FE-TX
        slot3 = PA-2FE-TX
        x = -609.999133448
        y = -24.8284271247
        z = 1.0
[127.0.0.1:7207]
    workingdir = /tmp
    udp = 10700
    [[7200]]
        image = c7200-adventerprisek9-mz.152-4.M2.image
        ram = 512
        idlepc = 0x60188e14
        sparsemem = True
        ghostios = True
    [[ROUTER R13]]
        console = 2015
        aux = 2115
        cnfg = configs/R13.cfg
        slot0 = C7200-IO-GE-E
        g0/0 = RD14 g0/0
        slot1 = PA-GE
        x = -125.0
        y = -227.0
        z = 1.0
[127.0.0.1:7204]
    workingdir = /tmp
    udp = 10400
    [[7200]]
        image = c7200-adventerprisek9-mz.152-4.M2.image
        ram = 512
        idlepc = 0x60188e14
        sparsemem = True
        ghostios = True
    [[ROUTER RD9]]
        console = 2009
        aux = 2109
        cnfg = configs/RD9.cfg
        slot0 = C7200-IO-GE-E
        g0/0 = RD13 g0/0
        slot1 = PA-8T
        s1/0 = R2 s1/1
        s1/1 = R6 s1/1
        x = -266.345237791
        y = 279.227488785
        z = 1.0
        hx = 17.4306459324
        hy = 37.9484210271
    [[ROUTER R9]]
        console = 2010
        aux = 2110
        cnfg = configs/R9.cfg
        slot0 = C7200-IO-GE-E
        g0/0 = R10 g0/0
        x = 426.619407771
        y = -48.8700576851
        z = 1.0
[127.0.0.1:7205]
    workingdir = /tmp
    udp = 10500
    [[7200]]
        image = c7200-adventerprisek9-mz.152-4.M2.image
        ram = 512
        idlepc = 0x60188e14
        sparsemem = True
        ghostios = True
    [[ROUTER RD11]]
        console = 2012
        aux = 2112
        cnfg = configs/RD11.cfg
        slot0 = C7200-IO-2FE
        f0/0 = R12 f0/0
        slot1 = PA-8T
        s1/0 = R2 s1/2
        s1/1 = R7 s1/1
        slot2 = PA-GE
        g2/0 = RD13 g2/0
        x = -454.534235808
        y = -76.3645454325
        z = 1.0
        hx = 9.31946420582
        hy = -21.4639512255
    [[ROUTER R10]]
        console = 2011
        aux = 2111
        cnfg = configs/R10.cfg
        slot0 = C7200-IO-GE-E
        g0/0 = R9 g0/0
        slot1 = PA-8T
        s1/0 = R8 s1/1
        s1/1 = R4 s1/2
        x = 273.884343035
        y = -48.8700576851
        z = 1.0
[127.0.0.1:7208]
    workingdir = /tmp
    udp = 10800
    [[7200]]
        image = c7200-adventerprisek9-mz.152-4.M2.image
        ram = 512
        idlepc = 0x60188e14
        sparsemem = True
        ghostios = True
    [[ROUTER R15]]
        console = 2017
        aux = 2517
        cnfg = configs/R15.cfg
        slot0 = C7200-IO-GE-E
        g0/0 = RD5 g0/0
        slot1 = PA-8T
        s1/0 = R3 s1/1
        x = -100.882250994
        y = 209.931024229
        z = 1.0
        hx = 19.3284271247
        hy = 41.4680374315
[127.0.0.1:7209]
    workingdir = /tmp
    udp = 10900
    [[7200]]
        image = c7200-adventerprisek9-mz.152-4.M2.image
        ram = 512
        idlepc = 0x60188e14
        sparsemem = True
        ghostios = True
    [[ROUTER RD13]]
        console = 2018
        aux = 2518
        cnfg = configs/RD13.cfg
        slot0 = C7200-IO-GE-E
        g0/0 = RD9 g0/0
        slot1 = PA-2FE-TX
        f1/0 = R12 f1/0
        slot2 = PA-GE
        g2/0 = RD11 g2/0
        x = -450.748612271
        y = 56.6855262839
        z = 1.0
        hx = 7.91612440536
        hy = 40.809712892
[GNS3-DATA]
    configs = configs
    m11 = 0.988514020354
    m22 = 0.988514020354
    [[NOTE 1]]
        text = "145.15/27"
        x = -37.066017178
        y = 225.102597105
    [[NOTE 2]]
        text = "13.3/29"
        x = -68.1787155501
        y = 85.6984848098
    [[NOTE 3]]
        text = "-"
        x = 331.279526986
        y = 95.8893936688
    [[NOTE 4]]
        text = "3.3/24"
        x = -61.4163056032
        y = 130.384776311
    [[NOTE 5]]
        text = "139.9/28"
        x = -337.304896323
        y = 257.423610523
    [[NOTE 6]]
        text = "108.10/28"
        x = 204.764501988
        y = -51.4730880648
    [[NOTE 7]]
        text = "Backbone"
        x = -36.3969696196
        y = -196.017243943
        font = "MS Shell Dlg 2,12,-1,5,75,0,0,0,0,0"
        color = "#0000ff"
    [[NOTE 8]]
        text = "NSSA\nArea 1"
        x = 154.220346111
        y = 180.607214463
        font = "MS Shell Dlg 2,12,-1,5,75,0,0,0,0,0"
        color = "#0000ff"
    [[NOTE 9]]
        text = "---------------------------"
        x = 166.87720036
        y = 123.563491861
    [[NOTE 10]]
        text = "-----"
        x = -289.0
        y = -179.0
    [[NOTE 11]]
        text = "Filtering on RD1/RD5/RD14 : redistribute route-map"
        x = 473.522565741
        y = 132.30673648
    [[NOTE 12]]
        text = "4.4/24"
        x = 57.377633636
        y = 112.201010127
    [[NOTE 13]]
        text = "TAG 16"
        x = 265.148956696
        y = 164.77473423
        font = "MS Shell Dlg 2,14,-1,5,75,0,0,0,0,0"
        color = "#0000ff"
    [[NOTE 14]]
        text = "Stub Area 4"
        x = -145.46385335
        y = -272.086219713
        font = "MS Shell Dlg 2,12,-1,5,75,0,0,0,0,0"
        color = "#0000ff"
    [[NOTE 15]]
        text = "143.3/27"
        x = -51.2081528017
        y = 162.475180107
    [[NOTE 16]]
        text = "147.7/28"
        x = -282.183766184
        y = -165.313708499
    [[NOTE 17]]
        text = "-"
        x = -640.992297146
        y = -50.6342533004
    [[NOTE 18]]
        text = "1 Gbits/s"
        x = -303.530080068
        y = -49.0215061818
        color = "#ff0000"
    [[NOTE 19]]
        text = "98.0/27 ***"
        x = 337.997041407
        y = 145.185858225
    [[NOTE 20]]
        text = "113.13/28"
        x = -452.015412962
        y = 19.7675816352
        font = "MS Shell Dlg 2,10,-1,5,75,0,0,0,0,0"
        color = "#00ff00"
    [[NOTE 21]]
        text = "*** 98.32/27"
        x = -730.109306504
        y = 23.9766594034
    [[NOTE 22]]
        text = "108.8/28"
        x = 175.066017178
        y = -160.166522241
    [[NOTE 23]]
        text = "-"
        x = -640.638743756
        y = -4.6238456608
    [[NOTE 24]]
        text = "|"
        x = 72.7918471984
        y = 119.727922061
    [[NOTE 25]]
        text = "172.16.0.0/16"
        x = -143.708586079
        y = -303.029437251
        font = "MS Shell Dlg 2,10,-1,5,75,0,0,0,0,0"
        color = "#0000ff"
    [[NOTE 26]]
        text = "38.3/28"
        x = -67.8751083191
        y = -117.615223689
    [[NOTE 27]]
        text = "69.6/28"
        x = -186.972654789
        y = 380.465078839
    [[NOTE 28]]
        text = "27.7/28"
        x = -328.079128559
        y = -113.786796564
    [[NOTE 29]]
        text = "172.16.0.0/16"
        x = 58.5239533405
        y = -257.573593128
        font = "MS Shell Dlg 2,10,-1,5,75,0,0,0,0,0"
        color = "#0000ff"
    [[NOTE 30]]
        text = "OSPF"
        x = 237.57568517
        y = 205.945309579
        font = "MS Shell Dlg 2,14,-1,5,75,0,0,0,0,0"
    [[NOTE 31]]
        text = "123.13/28"
        x = -529.928617855
        y = 66.5390450999
        font = "MS Shell Dlg 2,10,-1,5,75,0,0,0,0,0"
        color = "#00ff00"
    [[NOTE 32]]
        text = "** Redistributed in OSPF only on RD1 with metric 1000 as E1"
        x = -917.069704984
        y = 172.518411625
    [[NOTE 33]]
        text = "2.2/24"
        x = -213.965989634
        y = 75.7030948906
    [[NOTE 34]]
        text = "-----"
        x = 74.0
        y = -173.0
    [[NOTE 35]]
        text = "** 97.0/26"
        x = -714.872762472
        y = -28.7436867078
    [[NOTE 36]]
        text = "-"
        x = -640.992297146
        y = 9.36574669961
    [[NOTE 37]]
        text = "1 Gbits/s"
        x = -124.450793489
        y = -164.526911935
        color = "#ff0000"
    [[NOTE 38]]
        text = "* Not redistributed in OSPF"
        x = -904.570810588
        y = 153.122015875
    [[NOTE 39]]
        text = "48.4/28"
        x = 103.573593129
        y = 57.686291501
    [[NOTE 40]]
        text = "*** Redistributed in OSPF only on RD5 with metric 100 as N1"
        x = -928.779843505
        y = 190.70217781
    [[NOTE 41]]
        text = "172.16.0.0/16"
        x = 256.513852073
        y = 184.67323164
        font = "MS Shell Dlg 2,10,-1,5,75,0,0,0,0,0"
        color = "#0000ff"
    [[NOTE 42]]
        text = "|"
        x = -637.143361113
        y = -32.9030662734
    [[NOTE 43]]
        text = "SLA icmp-echo\nwith 172.16.109.9"
        x = -624.752717431
        y = -120.014739691
    [[NOTE 44]]
        text = "172.16.0.0/16"
        x = 134.891485709
        y = 221.241774135
        font = "MS Shell Dlg 2,10,-1,5,75,0,0,0,0,0"
        color = "#0000ff"
    [[NOTE 45]]
        text = "147.3/28"
        x = -181.012193309
        y = -116.000000001
    [[NOTE 46]]
        text = "97.128/26 **"
        x = 337.997041407
        y = 131.244732728
    [[NOTE 47]]
        text = "Filtering on RD1/RD5 /RD14 : redistribute route-map with a match tag"
        x = -919.263048563
        y = 229.23060639
    [[NOTE 48]]
        text = "--"
        x = -14.8893936687
        y = 128.012193309
    [[NOTE 49]]
        text = "EIGRP"
        x = -287.0
        y = -287.0
        font = "MS Shell Dlg 2,14,-1,5,75,0,0,0,0,0"
    [[NOTE 50]]
        text = "-"
        x = -640.992297146
        y = -39.3205448014
    [[NOTE 51]]
        text = "27.2/28"
        x = -255.701972443
        y = 12.2835429968
    [[NOTE 52]]
        text = "29.2/28"
        x = -260.199545002
        y = 123.445719677
    [[NOTE 53]]
        text = "TAGS 96-97-98"
        x = -745.561776769
        y = 39.2445377426
        font = "MS Shell Dlg 2,14,-1,5,75,0,0,0,0,0"
        color = "#55ff00"
    [[NOTE 54]]
        text = "PBR for 172.16.109.0\non S1/1  towards R2"
        x = -546.807668637
        y = -184.868859322
    [[NOTE 55]]
        text = "12.2/30"
        x = -210.764979507
        y = 41.4310169521
    [[NOTE 56]]
        text = "-"
        x = 331.633080377
        y = 108.111219076
    [[NOTE 57]]
        text = "|"
        x = -637.143361113
        y = -52.9030662734
    [[NOTE 58]]
        text = "Filtered in Area 0"
        x = -107.48023074
        y = 143.563491861
    [[NOTE 59]]
        text = "-"
        x = 330.925973595
        y = 85.9898987322
    [[NOTE 60]]
        text = "112.11/28"
        x = -384.516212094
        y = -54.5152888563
    [[NOTE 61]]
        text = "-----"
        x = -213.451271008
        y = 66.5643867555
    [[NOTE 62]]
        text = "TAG 30"
        x = 134.285471678
        y = 358.30762373
        font = "MS Shell Dlg 2,14,-1,5,75,0,0,0,0,0"
        color = "#ff5500"
    [[NOTE 63]]
        text = "12.1/30"
        x = -155.585786438
        y = 23.0294372516
    [[NOTE 64]]
        text = "35.3/29"
        x = 22.3309524417
        y = 146.509667992
    [[NOTE 65]]
        text = "-"
        x = -640.638743756
        y = 23.3553390592
    [[NOTE 66]]
        text = "56.6/29"
        x = -61.1076477383
        y = 375.009234716
    [[NOTE 67]]
        text = "|"
        x = 324.521861301
        y = 142.965512115
    [[NOTE 68]]
        text = "|"
        x = -262.0
        y = -180.0
    [[NOTE 69]]
        text = "8 Mbits/s"
        x = 193.747258045
        y = -115.639610307
        color = "#ff0000"
    [[NOTE 70]]
        text = "IPv4 Routing Protocols : EIGRP, OSPF and RIP"
        x = -329.511760033
        y = -422.121933088
        font = "MS Shell Dlg 2,20,-1,5,75,0,1,0,0,0"
    [[NOTE 71]]
        text = "13.1/29"
        x = -68.1787155501
        y = 23.2720779387
    [[NOTE 72]]
        text = "100 Mbits/s"
        x = -524.558205049
        y = 37.9937667737
        color = "#ff0000"
    [[NOTE 73]]
        text = "1 Gbits/s"
        x = 349.310749906
        y = -29.9756133824
        color = "#ff0000"
    [[NOTE 74]]
        text = "|"
        x = -637.143361113
        y = 23.4644660946
    [[NOTE 75]]
        text = "96.128/25 *"
        x = 338.350594797
        y = 95.4317638773
    [[NOTE 76]]
        text = "* 96.128/25"
        x = -723.286976034
        y = -40.270598642
    [[NOTE 77]]
        text = "Totally Stubby\n      Area 3"
        x = 198.866154787
        y = 113.283221304
        font = "MS Shell Dlg 2,12,-1,5,75,0,0,0,0,0"
        color = "#0000ff"
    [[NOTE 78]]
        text = "EIGRP"
        x = 234.844804516
        y = 342.124025129
        font = "MS Shell Dlg 2,14,-1,5,75,0,0,0,0,0"
    [[NOTE 79]]
        text = "134.3/28"
        x = -125.857864376
        y = -143.27207794
    [[NOTE 80]]
        text = "1 Gbits/s"
        x = -74.9533188057
        y = 53.0609665436
        color = "#ff0000"
    [[NOTE 81]]
        text = "96.0/25 *"
        x = 337.997041407
        y = 81.1370849898
    [[NOTE 82]]
        text = "*** 98.0/27"
        x = -722.630121784
        y = 8.71572875265
    [[NOTE 83]]
        text = "8 Mbits/s"
        x = -214.960461481
        y = 342.364573775
        color = "#ff0000"
    [[NOTE 84]]
        text = "Resolve "routing loops" due to these multiple redistribution points:\n   - only with TAGs\n   - then only with "distance" commands\nWhich method works completely ?"
        x = -919.431717824
        y = 298.635872933
    [[NOTE 85]]
        text = "*** Redistributed in EIGRP only on RD14 with metric 10000 4 ..."
        x = 457.441079046
        y = 110.748576437
    [[NOTE 86]]
        text = "TAG 16"
        x = 147.801101621
        y = 232.553236731
        font = "MS Shell Dlg 2,14,-1,5,75,0,0,0,0,0"
        color = "#0000ff"
    [[NOTE 87]]
        text = "104.10/28"
        x = 204.764501988
        y = -17.7329726947
    [[NOTE 88]]
        text = "113.11/28"
        x = -453.446058894
        y = -16.0276097297
        font = "MS Shell Dlg 2,10,-1,5,75,0,0,0,0,0"
        color = "#00ff00"
    [[NOTE 89]]
        text = "|"
        x = 324.521861301
        y = 161.149278299
    [[NOTE 90]]
        text = "104.4/28"
        x = 158.09545443
        y = 91.7645019883
    [[NOTE 91]]
        text = "** 97.64/26"
        x = -723.286976033
        y = -17.2167747728
    [[NOTE 92]]
        text = "145.5/27"
        x = -8.78174593048
        y = 283.286363289
    [[NOTE 93]]
        text = "|"
        x = 324.521861301
        y = 84.781745931
    [[NOTE 94]]
        text = "OSPF"
        x = 428.49451609
        y = -149.223304703
        font = "MS Shell Dlg 2,14,-1,5,75,0,0,0,0,0"
    [[NOTE 95]]
        text = "-"
        x = -640.992297146
        y = -15.077904114
    [[NOTE 96]]
        text = "1 Gbits/s"
        x = -453.747902974
        y = -0.350501424956
        color = "#ff0000"
    [[NOTE 97]]
        text = "117.7/28"
        x = -389.071067812
        y = -138.029437252
    [[NOTE 98]]
        text = "|"
        x = 71.0
        y = -174.0
    [[NOTE 99]]
        text = "** Redistributed in EIGRP only on RD1 with metric 1000 44 ..."
        x = 464.512146858
        y = 95.3932373769
    [[NOTE 100]]
        text = "-"
        x = 331.986633767
        y = 130.9396462
    [[NOTE 101]]
        text = "98.32/27 ***"
        x = 337.997041407
        y = 157.71277016
    [[NOTE 102]]
        text = "1 Gbits/s"
        x = -352.172041771
        y = 178.480240129
        color = "#ff0000"
    [[NOTE 103]]
        text = "121.12/28"
        x = -537.081847517
        y = -20.7884428868
        font = "MS Shell Dlg 2,10,-1,5,75,0,0,0,0,0"
        color = "#00ff00"
    [[NOTE 104]]
        text = "109.10/28"
        x = 322.144227665
        y = -61.7746032551
    [[NOTE 105]]
        text = "192.26.64..0/18"
        x = -622.52622658
        y = 136.47037504
        font = "MS Shell Dlg 2,10,-1,5,75,0,0,0,0,0"
        color = "#00ff00"
    [[NOTE 106]]
        text = "AS 2"
        x = -108.762409947
        y = 297.815367264
        font = "MS Shell Dlg 2,12,-1,5,75,0,0,0,0,0"
        color = "#ff5500"
    [[NOTE 107]]
        text = "|"
        x = 324.521861301
        y = 104.781745931
    [[NOTE 108]]
        text = "TAG 16"
        x = 69.9064047182
        y = -245.395916704
        font = "MS Shell Dlg 2,14,-1,5,75,0,0,0,0,0"
        color = "#0000ff"
    [[NOTE 109]]
        text = "|"
        x = -637.143361113
        y = -14.3172798354
    [[NOTE 110]]
        text = "Route 172.16.98.0/27\nthrough RD1 when RTT \nis below 100 ms"
        x = -532.658343399
        y = -250.03142557
    [[NOTE 111]]
        text = "172.30.0.0/16"
        x = -299.27207794
        y = -250.703535443
        font = "MS Shell Dlg 2,10,-1,5,75,0,0,0,0,0"
        color = "#ff5500"
    [[NOTE 112]]
        text = "Default metric on RD1/RD5/RD14 : 1000 1500 255 1 1500"
        x = 474.019466555
        y = 153.556723274
    [[NOTE 113]]
        text = "1 Gbits/s"
        x = -36.7695526217
        y = 256.908729652
        color = "#ff0000"
    [[NOTE 114]]
        text = "8 Mbits/s"
        x = 199.404112294
        y = 45.3797256769
        color = "#ff0000"
    [[NOTE 115]]
        text = "* Not redistributed in EIGRP"
        x = 470.169001107
        y = 77.0084610669
    [[NOTE 116]]
        text = "17.1/28"
        x = -187.627416998
        y = -27.6446609407
    [[NOTE 117]]
        text = "172.30.0.0/16"
        x = 126.406204334
        y = 344.479364189
        font = "MS Shell Dlg 2,10,-1,5,75,0,0,0,0,0"
        color = "#ff5500"
    [[NOTE 118]]
        text = "14.1/29"
        x = -63.0
        y = -10.0
    [[NOTE 119]]
        text = "** 97.128/26"
        x = -731.286976034
        y = -5.10407640079
    [[NOTE 120]]
        text = "1 Gbits/s"
        x = 107.48023074
        y = -21.2893218814
        color = "#ff0000"
    [[NOTE 121]]
        text = "17.7/28"
        x = -305.012193309
        y = -137.071067812
    [[NOTE 122]]
        text = "Redistribution, Filtering, PBR and SLA"
        x = -265.872149726
        y = -388.180807591
        font = "MS Shell Dlg 2,20,-1,5,75,0,0,0,0,0"
    [[NOTE 123]]
        text = "SLA icmp-echo\nwith 172.16.98.4"
        x = -462.55669271
        y = -294.165032494
    [[NOTE 124]]
        text = "45.5/29"
        x = 101.526911935
        y = 259.043722601
    [[NOTE 125]]
        text = "109.9/28"
        x = 411.239682095
        y = -13.8923522612
    [[NOTE 126]]
        text = "TAG 26"
        x = -602.497183526
        y = 110.74779131
        font = "MS Shell Dlg 2,14,-1,5,75,0,0,0,0,0"
        color = "#55ff00"
    [[NOTE 127]]
        text = "---"
        x = -632.153462381
        y = -13.4142135624
    [[NOTE 128]]
        text = "69.9/28"
        x = -203.943217538
        y = 296.825468532
    [[NOTE 129]]
        text = "35.5/29"
        x = 39.3015151902
        y = 248.132034356
    [[NOTE 130]]
        text = "|"
        x = -637.143361113
        y = 5.28069991064
    [[NOTE 131]]
        text = "97.64/26 **"
        x = 338.350594798
        y = 120.132034356
    [[NOTE 132]]
        text = "Strange behaviours when area 1 is changed to normal:\n- RD5 and R15 cannot see R10 as border router \n- R9 cannot see R3 or R4 as border routers\n- Any suggestions?"
        x = 229.168326585
        y = 249.514482448
        font = "MS Shell Dlg 2,12,-1,5,75,0,0,0,0,0"
        color = "#ff0000"
    [[NOTE 133]]
        text = "-"
        x = 332.693740548
        y = 158.91883092
    [[NOTE 134]]
        text = "112.2/28"
        x = -348.865090373
        y = 56.1181947239
    [[NOTE 135]]
        text = "AS 1"
        x = -195.230447378
        y = -196.774603256
        font = "MS Shell Dlg 2,12,-1,5,75,0,0,0,0,0"
        color = "#ff5500"
    [[NOTE 136]]
        text = "TAG 16"
        x = -133.429102782
        y = -290.221625099
        font = "MS Shell Dlg 2,14,-1,5,75,0,0,0,0,0"
        color = "#0000ff"
    [[NOTE 137]]
        text = "Default OSPF metric on RD1/RD14/RD5 : 500"
        x = -920.845931385
        y = 268.871658643
    [[NOTE 138]]
        text = "134.13/28"
        x = -123.029437251
        y = -187.3137085
    [[NOTE 139]]
        text = "100 Mbits/s"
        x = -548.879185901
        y = -52.1659700237
        color = "#ff0000"
    [[NOTE 140]]
        text = "TAG 16"
        x = 420.938350503
        y = -103.536806255
        font = "MS Shell Dlg 2,14,-1,5,75,0,0,0,0,0"
        color = "#0000ff"
    [[NOTE 141]]
        text = "8 Mbits/s"
        x = -226.653144228
        y = 171.932100322
        color = "#ff0000"
    [[NOTE 142]]
        text = "97.0/26 **"
        x = 339.411254969
        y = 107.605122421
    [[NOTE 143]]
        text = "45.4/29"
        x = 100.112698372
        y = 147.5218613
    [[NOTE 144]]
        text = "Default EIGRP metric on RD11/RD13 : 100000 100 255 1 1500"
        x = -920.845931385
        y = 249.286289581
    [[NOTE 145]]
        text = "-----"
        x = 76.0883117542
        y = 121.154328932
    [[NOTE 146]]
        text = "7.7/24"
        x = -291.0
        y = -197.0
    [[NOTE 147]]
        text = "OSPF"
        x = -123.402020254
        y = -338.242640687
        font = "MS Shell Dlg 2,14,-1,5,75,0,0,0,0,0"
    [[NOTE 148]]
        text = "121.11/28"
        x = -529.270293313
        y = -73.2824900811
        font = "MS Shell Dlg 2,10,-1,5,75,0,0,0,0,0"
        color = "#00ff00"
    [[NOTE 149]]
        text = "117.11/28"
        x = -399.003427489
        y = -85.0818973303
    [[NOTE 150]]
        text = "8.8/24"
        x = 56.3431457505
        y = -188.171572875
    [[NOTE 151]]
        text = "8 Mbits/s"
        x = -4.24264068712
        y = 33.8650070511
        color = "#ff0000"
    [[NOTE 152]]
        text = "18.1/28"
        x = -58.7867965644
        y = -40.3725830021
    [[NOTE 153]]
        text = "48.8/28"
        x = 113.887301628
        y = -119.786796564
    [[NOTE 154]]
        text = "RIP"
        x = -789.997862369
        y = -20.2114592365
        font = "MS Shell Dlg 2,14,-1,5,75,0,0,0,0,0"
    [[NOTE 155]]
        text = "TAG 30"
        x = -286.324432458
        y = -232.57818942
        font = "MS Shell Dlg 2,14,-1,5,75,0,0,0,0,0"
        color = "#ff5500"
    [[NOTE 156]]
        text = "123.12/28"
        x = -610.044790071
        y = 16.4373944106
        font = "MS Shell Dlg 2,10,-1,5,75,0,0,0,0,0"
        color = "#00ff00"
    [[NOTE 157]]
        text = "29.9/28"
        x = -248.425730141
        y = 252.635946641
    [[NOTE 158]]
        text = "-"
        x = 331.986633767
        y = 121.192694528
    [[NOTE 159]]
        text = "OSPF"
        x = 80.5979797464
        y = -290.242640687
        font = "MS Shell Dlg 2,14,-1,5,75,0,0,0,0,0"
    [[NOTE 160]]
        text = "-"
        x = -640.992297146
        y = -27.4522727848
    [[NOTE 161]]
        text = "|"
        x = -186.451271008
        y = 63.7030948906
    [[NOTE 162]]
        text = "56.5/29"
        x = 49.2010101268
        y = 325.71277016
    [[NOTE 163]]
        text = "* 96.0/25"
        x = -706.286976034
        y = -51.211724139
    [[NOTE 164]]
        text = "Area 2"
        x = 417.264068712
        y = 31.9137802871
        font = "MS Shell Dlg 2,12,-1,5,75,0,0,0,0,0"
        color = "#0000ff"
    [[NOTE 165]]
        text = "38.8/28"
        x = 38.1909088588
        y = -154.585786437
    [[NOTE 166]]
        text = "14.4/29"
        x = 62.8650070511
        y = 81.7228714274
    [[NOTE 167]]
        text = "18.8/28"
        x = 52.936074863
        y = -128.254833996
    [[NOTE 168]]
        text = "|"
        x = 324.521861301
        y = 123.367532369
    [[NOTE 169]]
        text = "143.15/27"
        x = -121.91883092
        y = 186.717820794
    [[NOTE 170]]
        text = "-"
        x = 331.633080377
        y = 145.282791951
    [[NOTE 171]]
        text = "172.16.0.0/16"
        x = 407.834703246
        y = -114.939033456
        font = "MS Shell Dlg 2,10,-1,5,75,0,0,0,0,0"
        color = "#0000ff"
    [[NOTE 172]]
        text = "139.13/28"
        x = -384.516212094
        y = 101.454160833
    [[SHAPE 1]]
        type = ellipse
        x = -745.290547371
        y = -121.604904257
        width = 343.251875404
        height = 288.990478352
        fill_color = "#00aa00"
        border_color = "#0055ff"
        border_style = 2
    [[SHAPE 2]]
        type = ellipse
        x = -130.107647738
        y = 131.521861301
        width = 366.281312654
        height = 178.190908859
        fill_color = "#00aaff"
        border_color = "#0055ff"
        border_style = 2
        z = -1.0
    [[SHAPE 3]]
        type = ellipse
        x = -92.6568542495
        y = -260.242640687
        width = 399.0
        height = 400.956890143
        fill_color = "#00ffff"
        border_color = "#0055ff"
        border_style = 2
        z = -2.0
    [[SHAPE 4]]
        type = ellipse
        x = -414.364573775
        y = 289.913780286
        width = 648.604255869
        height = 138.592929113
        fill_color = "#ffaa00"
        border_color = "#0055ff"
        border_style = 2
        z = -2.0
    [[SHAPE 5]]
        type = ellipse
        x = 305.269119346
        y = -117.580735803
        width = 299.813275223
        height = 178.190908859
        fill_color = "#00aaff"
        border_color = "#0055ff"
        border_style = 2
        z = -2.0
    [[SHAPE 6]]
        type = ellipse
        x = -408.585786438
        y = -257.0
        width = 322.0
        height = 561.05591591
        fill_color = "#ffff00"
        border_color = "#0055ff"
        border_style = 2
        z = -2.0
    [[SHAPE 7]]
        type = ellipse
        x = -144.730880654
        y = -304.0
        width = 102.730880654
        height = 204.610173056
        fill_color = "#00aaff"
        border_color = "#0055ff"
        border_style = 2
        z = -2.0
    [[SHAPE 8]]
        type = ellipse
        x = 157.989898733
        y = 77.7817459305
        width = 299.813275223
        height = 131.521861301
        fill_color = "#00aaff"
        border_color = "#0055ff"
        border_style = 2
        z = -3.0
