Nov 28 08:34:52.853 HYPERVISOR: Release 0.2.17-amd64/Linux (tag 2017072410)
Nov 28 08:34:52.853 HYPERVISOR: Started on IP = 127.0.0.1, TCP port = 38877.
Nov 28 08:34:52.859 HYPERVISOR: exec_cmd: hypervisor version 
Nov 28 08:34:52.859 HYPERVISOR: exec_cmd: hypervisor working_dir /media/actionmystique/SAMSUNG5-VMs/Labs/GNS3/git-Public-Labs-Collection/CCNP/TBSHOOT/L3-Technologies/IPv4/Routing-Protocols/EIGRP/Jean-Christophe_Manciot/1+/TT 1-solutions-linux/project-files/dynamips 
Nov 28 08:34:52.859 GENERAL: working_dir=/media/actionmystique/SAMSUNG5-VMs/Labs/GNS3/git-Public-Labs-Collection/CCNP/TBSHOOT/L3-Technologies/IPv4/Routing-Protocols/EIGRP/Jean-Christophe_Manciot/1+/TT 1-solutions-linux/project-files/dynamips
Nov 28 08:34:52.860 HYPERVISOR: exec_cmd: vm create ESW1 1 c3725 
Nov 28 08:34:52.860 VM: VM ESW1 created.
Nov 28 08:34:52.861 HYPERVISOR: exec_cmd: vm set_con_tcp_port ESW1 2004 
Nov 28 08:34:52.861 HYPERVISOR: exec_cmd: c3725 get_mac_addr ESW1 
Nov 28 08:34:52.862 HYPERVISOR: exec_cmd: vm set_disk0 ESW1 1 
Nov 28 08:34:52.862 HYPERVISOR: exec_cmd: vm get_status ESW1 
Nov 28 08:34:52.863 HYPERVISOR: exec_cmd: vm slot_add_binding ESW1 1 0 NM-16ESW 
Nov 28 08:34:52.863 HYPERVISOR: exec_cmd: vm set_ios ESW1 /media/actionmystique/SAMSUNG5-VMs/Images/GNS3/IOS/c3725-adventerprisek9-mz.124-15.T10.image 
Nov 28 08:34:52.864 HYPERVISOR: exec_cmd: c3725 set_mac_addr ESW1 c201.1b91.0000 
Nov 28 08:34:52.864 HYPERVISOR: exec_cmd: vm slot_add_binding ESW1 0 16 WIC-2T 
Nov 28 08:34:52.865 HYPERVISOR: exec_cmd: vm get_status ESW1 
Nov 28 08:34:52.866 HYPERVISOR: exec_cmd: vm set_idle_pc ESW1 0x6026b804 
Nov 28 08:34:52.866 HYPERVISOR: exec_cmd: vm set_nvram ESW1 256 
Nov 28 08:34:52.867 HYPERVISOR: exec_cmd: vm set_config ESW1 configs/ios_base_startup-config.txt 
Nov 28 08:34:52.868 HYPERVISOR: exec_cmd: vm set_config ESW1 configs/ios_base_startup-config.txt configs/ios_base_private-config.txt 
Nov 28 08:34:52.979 HYPERVISOR: exec_cmd: nio create_udp udp-a9962785-4c57-4fe6-860f-9c7cb2818d57 15004 127.0.0.1 15007 
Nov 28 08:34:52.986 HYPERVISOR: exec_cmd: vm slot_add_nio_binding ESW1 1 0 udp-a9962785-4c57-4fe6-860f-9c7cb2818d57 
Nov 28 08:34:52.987 HYPERVISOR: exec_cmd: vm get_status ESW1 
Nov 28 08:34:53.015 HYPERVISOR: exec_cmd: nio create_udp udp-96638740-9ab9-441e-83ad-1cdd9f0a54d4 15008 127.0.0.1 15006 
Nov 28 08:34:53.016 HYPERVISOR: exec_cmd: vm slot_add_nio_binding ESW1 1 1 udp-96638740-9ab9-441e-83ad-1cdd9f0a54d4 
Nov 28 08:34:53.016 HYPERVISOR: exec_cmd: vm get_status ESW1 
