Nov 28 08:13:41.118 HYPERVISOR: Release 0.2.17-amd64/Linux (tag 2017072410)
Nov 28 08:13:41.118 HYPERVISOR: Started on IP = 127.0.0.1, TCP port = 51457.
Nov 28 08:13:41.132 HYPERVISOR: exec_cmd: hypervisor version 
Nov 28 08:13:41.134 HYPERVISOR: exec_cmd: hypervisor working_dir /media/actionmystique/SAMSUNG5-VMs/Labs/GNS3/git-Public-Labs-Collection/CCNP/TBSHOOT/L3-Technologies/IPv4/PBR/Jean-Christophe_Manciot/1+/TT 2-linux/project-files/dynamips 
Nov 28 08:13:41.134 GENERAL: working_dir=/media/actionmystique/SAMSUNG5-VMs/Labs/GNS3/git-Public-Labs-Collection/CCNP/TBSHOOT/L3-Technologies/IPv4/PBR/Jean-Christophe_Manciot/1+/TT 2-linux/project-files/dynamips
Nov 28 08:13:41.135 HYPERVISOR: exec_cmd: vm create ESW1 1 c3725 
Nov 28 08:13:41.135 VM: VM ESW1 created.
Nov 28 08:13:41.136 HYPERVISOR: exec_cmd: vm set_con_tcp_port ESW1 2004 
Nov 28 08:13:41.137 HYPERVISOR: exec_cmd: c3725 get_mac_addr ESW1 
Nov 28 08:13:41.138 HYPERVISOR: exec_cmd: vm set_disk0 ESW1 1 
Nov 28 08:13:41.139 HYPERVISOR: exec_cmd: vm get_status ESW1 
Nov 28 08:13:41.140 HYPERVISOR: exec_cmd: vm slot_add_binding ESW1 1 0 NM-16ESW 
Nov 28 08:13:41.141 HYPERVISOR: exec_cmd: vm set_ios ESW1 /media/actionmystique/SAMSUNG5-VMs/Images/GNS3/IOS/c3725-adventerprisek9-mz.124-15.T10.image 
Nov 28 08:13:41.142 HYPERVISOR: exec_cmd: c3725 set_mac_addr ESW1 c201.1b91.0000 
Nov 28 08:13:41.143 HYPERVISOR: exec_cmd: vm slot_add_binding ESW1 0 16 WIC-2T 
Nov 28 08:13:41.144 HYPERVISOR: exec_cmd: vm get_status ESW1 
Nov 28 08:13:41.147 HYPERVISOR: exec_cmd: vm set_idle_pc ESW1 0x614ac27c 
Nov 28 08:13:41.149 HYPERVISOR: exec_cmd: vm set_nvram ESW1 256 
Nov 28 08:13:41.151 HYPERVISOR: exec_cmd: vm set_config ESW1 configs/ios_base_startup-config.txt 
Nov 28 08:13:41.153 HYPERVISOR: exec_cmd: vm set_config ESW1 configs/ios_base_startup-config.txt configs/ios_base_private-config.txt 
Nov 28 08:13:41.359 HYPERVISOR: exec_cmd: nio create_udp udp-f19db6a2-1397-4544-8217-521ca800a727 15008 127.0.0.1 15009 
Nov 28 08:13:41.360 HYPERVISOR: exec_cmd: vm slot_add_nio_binding ESW1 1 0 udp-f19db6a2-1397-4544-8217-521ca800a727 
Nov 28 08:13:41.360 HYPERVISOR: exec_cmd: vm get_status ESW1 
Nov 28 08:13:41.387 HYPERVISOR: exec_cmd: nio create_udp udp-c8aa5a59-31d3-48b3-bfad-2895c28c248f 15011 127.0.0.1 15010 
Nov 28 08:13:41.388 HYPERVISOR: exec_cmd: vm slot_add_nio_binding ESW1 1 1 udp-c8aa5a59-31d3-48b3-bfad-2895c28c248f 
Nov 28 08:13:41.388 HYPERVISOR: exec_cmd: vm get_status ESW1 
