Nov 29 19:05:20.833 HYPERVISOR: Release 0.2.17-amd64/Linux (tag 2017072410)
Nov 29 19:05:20.833 HYPERVISOR: Started on IP = 127.0.0.1, TCP port = 56905.
Nov 29 19:05:20.838 HYPERVISOR: exec_cmd: hypervisor version 
Nov 29 19:05:20.838 HYPERVISOR: exec_cmd: hypervisor working_dir /media/actionmystique/SAMSUNG5-VMs/Labs/GNS3/git-Public-Labs-Collection/CCNP/TBSHOOT/L3-Technologies/IPv6/Routing-Protocols/EIGRPv6/Jean-Christophe_Manciot/1+/TT 2-linux/project-files/dynamips 
Nov 29 19:05:20.838 GENERAL: working_dir=/media/actionmystique/SAMSUNG5-VMs/Labs/GNS3/git-Public-Labs-Collection/CCNP/TBSHOOT/L3-Technologies/IPv6/Routing-Protocols/EIGRPv6/Jean-Christophe_Manciot/1+/TT 2-linux/project-files/dynamips
Nov 29 19:05:20.839 HYPERVISOR: exec_cmd: vm create ESW3 3 c3725 
Nov 29 19:05:20.839 VM: VM ESW3 created.
Nov 29 19:05:20.840 HYPERVISOR: exec_cmd: vm set_con_tcp_port ESW3 2006 
Nov 29 19:05:20.841 HYPERVISOR: exec_cmd: c3725 get_mac_addr ESW3 
Nov 29 19:05:20.841 HYPERVISOR: exec_cmd: vm set_disk0 ESW3 1 
Nov 29 19:05:20.842 HYPERVISOR: exec_cmd: vm set_ios ESW3 /media/actionmystique/SAMSUNG5-VMs/Images/GNS3/IOS/c3725-adventerprisek9-mz.124-15.T10.image 
Nov 29 19:05:20.843 HYPERVISOR: exec_cmd: c3725 set_mac_addr ESW3 c203.1bfb.0000 
Nov 29 19:05:20.844 HYPERVISOR: exec_cmd: vm get_status ESW3 
Nov 29 19:05:20.845 HYPERVISOR: exec_cmd: vm slot_add_binding ESW3 1 0 NM-16ESW 
Nov 29 19:05:20.845 HYPERVISOR: exec_cmd: vm slot_add_binding ESW3 0 16 WIC-2T 
Nov 29 19:05:20.846 HYPERVISOR: exec_cmd: vm get_status ESW3 
Nov 29 19:05:20.847 HYPERVISOR: exec_cmd: vm set_idle_pc ESW3 0x614ac27c 
Nov 29 19:05:20.847 HYPERVISOR: exec_cmd: vm set_nvram ESW3 256 
Nov 29 19:05:20.848 HYPERVISOR: exec_cmd: vm set_config ESW3 configs/ios_base_startup-config.txt 
Nov 29 19:05:56.630 HYPERVISOR: exec_cmd: vm get_status ESW3 
Nov 29 19:05:56.632 HYPERVISOR: exec_cmd: vm extract_config ESW3 
Nov 29 19:05:56.636 HYPERVISOR: exec_cmd: vm delete ESW3 
Nov 29 19:05:56.636 VM: VM ESW3 destroyed.
Nov 29 19:05:56.638 HYPERVISOR: exec_cmd: hypervisor stop 
Nov 29 19:05:56.875 HYPERVISOR: Stopped.
Nov 29 19:05:56.875 GENERAL: reset done.
