Nov 29 19:01:14.474 HYPERVISOR: Release 0.2.17-amd64/Linux (tag 2017072410)
Nov 29 19:01:14.474 HYPERVISOR: Started on IP = 127.0.0.1, TCP port = 39667.
Nov 29 19:01:14.489 HYPERVISOR: exec_cmd: hypervisor version 
Nov 29 19:01:14.490 HYPERVISOR: exec_cmd: hypervisor working_dir /media/actionmystique/SAMSUNG5-VMs/Labs/GNS3/TT 2-linux-/project-files/dynamips 
Nov 29 19:01:14.490 GENERAL: working_dir=/media/actionmystique/SAMSUNG5-VMs/Labs/GNS3/TT 2-linux-/project-files/dynamips
Nov 29 19:01:14.490 HYPERVISOR: exec_cmd: vm create ESW2 2 c3725 
Nov 29 19:01:14.490 VM: VM ESW2 created.
Nov 29 19:01:14.490 HYPERVISOR: exec_cmd: vm set_con_tcp_port ESW2 2002 
Nov 29 19:01:14.491 HYPERVISOR: exec_cmd: vm set_aux_tcp_port ESW2 2502 
Nov 29 19:01:14.491 HYPERVISOR: exec_cmd: c3725 get_mac_addr ESW2 
Nov 29 19:01:14.491 HYPERVISOR: exec_cmd: vm slot_add_binding ESW2 0 16 WIC-2T 
Nov 29 19:01:14.492 HYPERVISOR: exec_cmd: vm set_ios ESW2 /media/actionmystique/SAMSUNG5-VMs/Images/GNS3/IOS/c3725-adventerprisek9-mz.124-15.T10.image 
Nov 29 19:01:14.492 HYPERVISOR: exec_cmd: vm get_status ESW2 
Nov 29 19:01:14.493 HYPERVISOR: exec_cmd: vm set_idle_pc ESW2 0x60c06d20 
Nov 29 19:01:14.493 HYPERVISOR: exec_cmd: vm get_status ESW2 
Nov 29 19:01:14.495 HYPERVISOR: exec_cmd: vm slot_add_binding ESW2 1 0 NM-16ESW 
Nov 29 19:01:14.496 HYPERVISOR: exec_cmd: c3725 set_mac_addr ESW2 c202.28c2.0000 
Nov 29 19:01:14.496 HYPERVISOR: exec_cmd: vm set_nvram ESW2 256 
Nov 29 19:01:14.497 HYPERVISOR: exec_cmd: vm set_disk0 ESW2 1 
Nov 29 19:01:14.497 HYPERVISOR: exec_cmd: vm set_config ESW2 configs/i2_startup-config.cfg 
Nov 29 19:01:14.498 HYPERVISOR: exec_cmd: vm set_config ESW2 configs/i2_startup-config.cfg configs/i2_private-config.cfg 
Nov 29 19:01:14.637 HYPERVISOR: exec_cmd: nio create_tap tap-bfd43e14-fa33-4b0d-8fd0-eb79c6fd71c6 tap2 
Nov 29 19:01:14.638 HYPERVISOR: exec_cmd: vm slot_add_nio_binding ESW2 1 1 tap-bfd43e14-fa33-4b0d-8fd0-eb79c6fd71c6 
Nov 29 19:01:14.638 HYPERVISOR: exec_cmd: vm get_status ESW2 
Nov 29 19:01:14.732 HYPERVISOR: exec_cmd: nio create_udp udp-dcc38ad1-1ceb-46ee-bdc2-702b1605aecf 15011 127.0.0.1 15010 
Nov 29 19:01:14.733 HYPERVISOR: exec_cmd: vm slot_add_nio_binding ESW2 1 2 udp-dcc38ad1-1ceb-46ee-bdc2-702b1605aecf 
Nov 29 19:01:14.733 HYPERVISOR: exec_cmd: vm get_status ESW2 
Nov 29 19:01:26.166 HYPERVISOR: exec_cmd: vm get_status ESW2 
Nov 29 19:01:26.167 HYPERVISOR: exec_cmd: vm extract_config ESW2 
Nov 29 19:01:26.168 HYPERVISOR: exec_cmd: vm delete ESW2 
Nov 29 19:01:26.168 VM: VM ESW2 destroyed.
Nov 29 19:01:26.169 HYPERVISOR: exec_cmd: hypervisor stop 
Nov 29 19:01:26.498 HYPERVISOR: Stopped.
Nov 29 19:01:26.498 GENERAL: reset done.
