Nov 29 19:08:30.222 HYPERVISOR: Release 0.2.17-amd64/Linux (tag 2017072410)
Nov 29 19:08:30.222 HYPERVISOR: Started on IP = 127.0.0.1, TCP port = 35407.
Nov 29 19:08:30.236 HYPERVISOR: exec_cmd: hypervisor version 
Nov 29 19:08:30.237 HYPERVISOR: exec_cmd: hypervisor working_dir /media/actionmystique/SAMSUNG5-VMs/Labs/GNS3/git-Public-Labs-Collection/CCNP/TBSHOOT/L3-Technologies/IPv6/Routing-Protocols/EIGRPv6/Jean-Christophe_Manciot/1+/TT 2-solutions-linux/project-files/dynamips 
Nov 29 19:08:30.237 GENERAL: working_dir=/media/actionmystique/SAMSUNG5-VMs/Labs/GNS3/git-Public-Labs-Collection/CCNP/TBSHOOT/L3-Technologies/IPv6/Routing-Protocols/EIGRPv6/Jean-Christophe_Manciot/1+/TT 2-solutions-linux/project-files/dynamips
Nov 29 19:08:30.237 HYPERVISOR: exec_cmd: vm create ESW3 3 c3725 
Nov 29 19:08:30.237 VM: VM ESW3 created.
Nov 29 19:08:30.238 HYPERVISOR: exec_cmd: vm set_con_tcp_port ESW3 2006 
Nov 29 19:08:30.238 HYPERVISOR: exec_cmd: c3725 get_mac_addr ESW3 
Nov 29 19:08:30.238 HYPERVISOR: exec_cmd: vm set_disk0 ESW3 1 
Nov 29 19:08:30.239 HYPERVISOR: exec_cmd: vm get_status ESW3 
Nov 29 19:08:30.239 HYPERVISOR: exec_cmd: vm set_idle_pc ESW3 0x6026b804 
Nov 29 19:08:30.240 HYPERVISOR: exec_cmd: c3725 set_mac_addr ESW3 c203.1bfb.0000 
Nov 29 19:08:30.240 HYPERVISOR: exec_cmd: vm set_nvram ESW3 256 
Nov 29 19:08:30.240 HYPERVISOR: exec_cmd: vm get_status ESW3 
Nov 29 19:08:30.241 HYPERVISOR: exec_cmd: vm slot_add_binding ESW3 1 0 NM-16ESW 
Nov 29 19:08:30.241 HYPERVISOR: exec_cmd: vm set_ios ESW3 /media/actionmystique/SAMSUNG5-VMs/Images/GNS3/IOS/c3725-adventerprisek9-mz.124-15.T10.image 
Nov 29 19:08:30.241 HYPERVISOR: exec_cmd: vm slot_add_binding ESW3 0 16 WIC-2T 
Nov 29 19:08:30.242 HYPERVISOR: exec_cmd: vm set_config ESW3 configs/ios_base_startup-config.txt 
Nov 29 19:08:30.242 HYPERVISOR: exec_cmd: vm set_config ESW3 configs/ios_base_startup-config.txt configs/ios_base_private-config.txt 
Nov 29 19:08:30.326 HYPERVISOR: exec_cmd: nio create_tap tap-1b9c770a-dc19-4845-b30c-99e1a5904e55 tap2 
Nov 29 19:08:30.332 HYPERVISOR: exec_cmd: vm slot_add_nio_binding ESW3 1 1 tap-1b9c770a-dc19-4845-b30c-99e1a5904e55 
Nov 29 19:08:30.333 HYPERVISOR: exec_cmd: vm get_status ESW3 
Nov 29 19:08:30.533 HYPERVISOR: exec_cmd: nio create_udp udp-e5ce8f7a-12a9-4258-9dda-8b60ebf09ff1 15006 127.0.0.1 15005 
Nov 29 19:08:30.540 HYPERVISOR: exec_cmd: vm slot_add_nio_binding ESW3 1 0 udp-e5ce8f7a-12a9-4258-9dda-8b60ebf09ff1 
Nov 29 19:08:30.541 HYPERVISOR: exec_cmd: vm get_status ESW3 
