autostart = False
version = 0.8.6
[127.0.0.1:7202]
    workingdir = C:\Users\ActionMystique\AppData\Local\GNS3
    udp = 10200
    [[7200]]
        image = C:\Users\ActionMystique\Google Drive\Missions\Certifications\Cisco\IOS\Binaries\c7200-adventerprisek9-mz.152-4.M2.image
        ram = 512
        idlepc = 0x6062d534
        sparsemem = True
        ghostios = True
    [[ROUTER R5]]
        console = 2003
        aux = 2103
        cnfg = configs\R5.cfg
        slot0 = C7200-IO-GE-E
        slot1 = PA-8T
        s1/0 = FR1 5
        x = -4.8284271247
        y = 197.414213562
        z = 1.0
    [[ROUTER WAN2]]
        console = 2005
        aux = 2105
        cnfg = configs\WAN2.cfg
        slot0 = C7200-IO-GE-E
        g0/0 = WAN1 g0/0
        slot1 = PA-8T
        s1/0 = FR1 2
        slot2 = PA-2FE-TX
        f2/0 = R14 f1/0
        f2/1 = R13 f2/0
        x = 75.585786438
        y = 47.0
        z = 1.0
[127.0.0.1:7203]
    workingdir = C:\Users\ActionMystique\AppData\Local\GNS3
    udp = 10100
    [[7200]]
        image = C:\Users\ActionMystique\Google Drive\Missions\Certifications\Cisco\IOS\Binaries\c7200-adventerprisek9-mz.152-4.M2.image
        ram = 512
        idlepc = 0x6062d534
        sparsemem = True
        ghostios = True
    [[ROUTER R11]]
        console = 2051
        aux = 2151
        cnfg = configs\R11.cfg
        slot0 = C7200-IO-GE-E
        g0/0 = I11 g0/0
        slot1 = PA-2FE-TX
        f1/0 = R13 f1/1
        f1/1 = R16 f1/1
        slot2 = PA-8T
        s2/0 = I11 s1/0
        s2/1 = I16 s1/0
        x = 451.757359313
        y = -254.757359313
        z = 1.0
    [[ROUTER I11]]
        console = 2012
        aux = 2112
        cnfg = configs\I11.cfg
        slot0 = C7200-IO-GE-E
        g0/0 = R11 g0/0
        slot1 = PA-8T
        s1/0 = R11 s2/0
        s1/1 = I6 s1/1
        s1/2 = I7 s1/2
        s1/3 = I16 s1/1
        s1/4 = I12 s1/0
        x = 796.104741965
        y = -313.236812752
        z = 1.0
[127.0.0.1:7200]
    workingdir = C:\Users\ActionMystique\AppData\Local\GNS3
    udp = 10000
    [[7200]]
        image = C:\Users\ActionMystique\Google Drive\Missions\Certifications\Cisco\IOS\Binaries\c7200-adventerprisek9-mz.152-4.M2.image
        ram = 512
        idlepc = 0x6062d534
        sparsemem = True
        ghostios = True
    [[ROUTER R13]]
        console = 2013
        aux = 2113
        cnfg = configs\R13.cfg
        slot0 = C7200-IO-GE-E
        g0/0 = R14 g0/0
        slot1 = PA-2FE-TX
        f1/0 = WAN1 f2/0
        f1/1 = R11 f1/0
        slot2 = PA-2FE-TX
        f2/0 = WAN2 f2/1
        x = 311.749350086
        y = -254.249783362
        z = 1.0
    [[FRSW FR1]]
        1:103 = 3:301
        1:104 = 4:401
        1:105 = 5:501
        2:203 = 3:302
        2:204 = 4:402
        2:205 = 5:502
        3:301 = 1:103
        3:302 = 2:203
        4:401 = 1:104
        4:402 = 2:204
        5:501 = 1:105
        5:502 = 2:205
        1 = WAN1 s1/0
        2 = WAN2 s1/0
        3 = ASBR3 s1/0
        4 = ASBR4 s1/0
        5 = R5 s1/0
        x = -93.3578643763
        y = -110.5
        z = 1.0
    [[ROUTER WAN1]]
        console = 2000
        aux = 2100
        cnfg = configs\WAN1.cfg
        slot0 = C7200-IO-GE-E
        g0/0 = WAN2 g0/0
        slot1 = PA-8T
        s1/0 = FR1 1
        slot2 = PA-2FE-TX
        f2/0 = R13 f1/0
        f2/1 = R14 f2/0
        x = 76.0
        y = -252.0
        z = 1.0
[127.0.0.1:7201]
    workingdir = C:\Users\ActionMystique\AppData\Local\GNS3
    udp = 10300
    [[7200]]
        image = C:\Users\ActionMystique\Google Drive\Missions\Certifications\Cisco\IOS\Binaries\c7200-adventerprisek9-mz.152-4.M2.image
        ram = 512
        idlepc = 0x6062d534
        sparsemem = True
        ghostios = True
    [[ROUTER ASBR3]]
        console = 2001
        aux = 2101
        cnfg = configs\ASBR3.cfg
        slot0 = C7200-IO-GE-E
        g0/0 = ASBR4 g0/0
        slot1 = PA-8T
        s1/0 = FR1 3
        s1/1 = I3 s1/0
        s1/2 = I5 s1/2
        s1/3 = I3 s1/3
        x = -472.225396745
        y = -168.017243942
        z = 1.0
        hx = 9.10457496271
        hy = -34.1045749627
    [[ROUTER ASBR4]]
        console = 2002
        aux = 2102
        cnfg = configs\ASBR4.cfg
        slot0 = C7200-IO-GE-E
        g0/0 = ASBR3 g0/0
        slot1 = PA-8T
        s1/0 = FR1 4
        s1/1 = I5 s1/0
        s1/2 = I3 s1/2
        s1/3 = C4 s1/1
        x = -471.811183182
        y = 2.9949493662
        z = 1.0
        hx = 37.1984848099
        hy = -16.5147186257
[127.0.0.1:7206]
    workingdir = C:\Users\ActionMystique\AppData\Local\GNS3
    udp = 10600
    [[7200]]
        image = C:\Users\ActionMystique\Google Drive\Missions\Certifications\Cisco\IOS\Binaries\c7200-adventerprisek9-mz.152-4.M2.image
        ram = 512
        idlepc = 0x6062d534
        sparsemem = True
        ghostios = True
    [[ROUTER I3]]
        console = 2015
        aux = 2115
        cnfg = configs\I3.cfg
        slot0 = C7200-IO-GE-E
        g0/0 = I5 g0/0
        slot1 = PA-8T
        s1/0 = ASBR3 s1/1
        s1/1 = I4 s1/0
        s1/2 = ASBR4 s1/2
        s1/3 = ASBR3 s1/3
        x = -748.910821693
        y = -242.936074863
        z = 1.0
    [[ROUTER I5]]
        console = 2056
        aux = 2156
        cnfg = configs\I5.cfg
        slot0 = C7200-IO-GE-E
        g0/0 = I3 g0/0
        slot1 = PA-8T
        s1/0 = ASBR4 s1/1
        s1/1 = I4 s1/1
        s1/2 = ASBR3 s1/2
        s1/3 = I105 s1/0
        s1/4 = C4 s1/0
        x = -840.910821693
        y = 228.977705423
        z = 1.0
[127.0.0.1:7207]
    workingdir = C:\Users\ActionMystique\AppData\Local\GNS3
    udp = 10700
    [[7200]]
        image = C:\Users\ActionMystique\Google Drive\Missions\Certifications\Cisco\IOS\Binaries\c7200-adventerprisek9-mz.152-4.M2.image
        ram = 512
        idlepc = 0x6062d534
        sparsemem = True
        ghostios = True
    [[ROUTER R14]]
        console = 2019
        aux = 2119
        cnfg = configs\R14.cfg
        slot0 = C7200-IO-GE-E
        g0/0 = R13 g0/0
        slot1 = PA-2FE-TX
        f1/0 = WAN2 f2/0
        f1/1 = R16 f1/0
        slot2 = PA-2FE-TX
        f2/0 = WAN1 f2/1
        x = 313.163563648
        y = 46.977705423
        z = 1.0
    [[ROUTER I4]]
        console = 2017
        aux = 2117
        cnfg = configs\I4.cfg
        slot0 = C7200-IO-GE-E
        slot1 = PA-8T
        s1/0 = I3 s1/1
        s1/1 = I5 s1/1
        s1/2 = C4 s1/2
        x = -915.738724943
        y = -87.3397182619
        z = 1.0
[127.0.0.1:7204]
    workingdir = C:\Users\ActionMystique\AppData\Local\GNS3
    udp = 10400
    [[7200]]
        image = C:\Users\ActionMystique\Google Drive\Missions\Certifications\Cisco\IOS\Binaries\c7200-adventerprisek9-mz.152-4.M2.image
        ram = 512
        idlepc = 0x6062d534
        sparsemem = True
        ghostios = True
    [[ROUTER R16]]
        console = 2016
        aux = 2116
        cnfg = configs\R16.cfg
        slot0 = C7200-IO-GE-E
        slot1 = PA-2FE-TX
        f1/0 = R14 f1/1
        f1/1 = R11 f1/1
        slot2 = PA-8T
        s2/0 = I6 s1/0
        s2/1 = I16 s1/3
        s2/2 = C3 s1/1
        x = 457.171572876
        y = 48.242640687
        z = 1.0
        hx = 5.98121147489
        hy = -23.3896235117
    [[ROUTER I6]]
        console = 2014
        aux = 2114
        cnfg = configs\I6.cfg
        slot0 = C7200-IO-GE-E
        g0/0 = I7 g0/0
        slot1 = PA-8T
        s1/0 = R16 s2/0
        s1/1 = I11 s1/1
        x = 740.610173055
        y = 136.663996924
        z = 1.0
[127.0.0.1:7205]
    workingdir = C:\Users\ActionMystique\AppData\Local\GNS3
    udp = 10500
    [[7200]]
        image = C:\Users\ActionMystique\Google Drive\Missions\Certifications\Cisco\IOS\Binaries\c7200-adventerprisek9-mz.152-4.M2.image
        ram = 512
        idlepc = 0x6062d534
        sparsemem = True
        ghostios = True
    [[ROUTER I7]]
        console = 2041
        aux = 2141
        cnfg = configs\I7.cfg
        slot0 = C7200-IO-GE-E
        g0/0 = I6 g0/0
        slot1 = PA-8T
        s1/0 = C3 s1/0
        s1/1 = I107 s1/1
        s1/2 = I11 s1/2
        s1/3 = I12 s1/2
        x = 871.35533906
        y = 323.345237792
        z = 1.0
    [[ROUTER C3]]
        console = 2044
        aux = 2144
        cnfg = configs\C3.cfg
        slot0 = C7200-IO-GE-E
        slot1 = PA-8T
        s1/0 = I7 s1/0
        s1/1 = R16 s2/2
        x = 466.289321881
        y = 400.019335984
        z = 1.0
        hx = 19.5857864376
        hy = -13.686291501
[127.0.0.1:7208]
    workingdir = C:\Users\ActionMystique\AppData\Local\GNS3
    udp = 10800
    [[7200]]
        image = C:\Users\ActionMystique\Google Drive\Missions\Certifications\Cisco\IOS\Binaries\c7200-adventerprisek9-mz.152-4.M2.image
        ram = 512
        idlepc = 0x6062d534
        sparsemem = True
        ghostios = True
    [[ROUTER I107]]
        console = 2031
        aux = 2131
        cnfg = configs\I107.cfg
        slot0 = C7200-IO-GE-E
        g0/0 = I106 g1/0
        slot1 = PA-8T
        s1/0 = I105 s1/1
        s1/1 = I7 s1/1
        x = 122.656854249
        y = 309.431457505
        z = 1.0
    [[ROUTER I105]]
        console = 2018
        aux = 2118
        cnfg = configs\I105.cfg
        slot0 = C7200-IO-GE-E
        g0/0 = I106 g0/0
        slot1 = PA-8T
        s1/0 = I5 s1/3
        s1/1 = I107 s1/0
        x = -149.284271247
        y = 301.53614665
        z = 1.0
        hx = 6.4767611194
        hy = -30.0580972015
[127.0.0.1:7209]
    workingdir = C:\Users\ActionMystique\AppData\Local\GNS3
    udp = 10900
    [[7200]]
        image = C:\Users\ActionMystique\Google Drive\Missions\Certifications\Cisco\IOS\Binaries\c7200-adventerprisek9-mz.152-4.M2.image
        ram = 512
        idlepc = 0x6062d534
        sparsemem = True
        ghostios = True
    [[ROUTER C4]]
        console = 2026
        aux = 2126
        cnfg = configs\C4.cfg
        slot0 = C7200-IO-GE-E
        slot1 = PA-8T
        s1/0 = I5 s1/4
        s1/1 = ASBR4 s1/3
        s1/2 = I4 s1/2
        x = -509.362426755
        y = 410.565583902
        z = 1.0
        hx = 16.502525317
        hy = 39.6984848098
    [[ROUTER I106]]
        console = 2027
        aux = 2127
        cnfg = configs\I106.cfg
        slot0 = C7200-IO-GE-E
        g0/0 = I105 g0/0
        slot1 = PA-GE
        g1/0 = I107 g0/0
        x = -27.6619048834
        y = 368.004184082
        z = 1.0
[127.0.0.1:7210]
    workingdir = C:\Users\ActionMystique\AppData\Local\GNS3
    udp = 10910
    [[7200]]
        image = C:\Users\ActionMystique\Google Drive\Missions\Certifications\Cisco\IOS\Binaries\c7200-adventerprisek9-mz.152-4.M2.image
        ram = 512
        idlepc = 0x6062d534
        sparsemem = True
        ghostios = True
    [[ROUTER I16]]
        console = 2024
        aux = 2124
        cnfg = configs\I16.cfg
        slot0 = C7200-IO-GE-E
        slot1 = PA-8T
        s1/0 = R11 s2/1
        s1/1 = I11 s1/3
        s1/2 = I12 s1/1
        s1/3 = R16 s2/1
        x = 679.444876303
        y = -194.852813742
        z = 1.0
    [[ROUTER I12]]
        console = 2025
        aux = 2125
        cnfg = configs\I12.cfg
        slot0 = C7200-IO-GE-E
        slot1 = PA-8T
        s1/0 = I11 s1/4
        s1/1 = I16 s1/2
        s1/2 = I7 s1/3
        x = 918.446968343
        y = -186.367532368
        z = 1.0
[GNS3-DATA]
    configs = configs
    m11 = 0.988514020354
    m22 = 0.988514020354
    [[NOTE 1]]
        text = "ISP & T"
        x = -39.961328032
        y = 416.176623508
        font = "MS Shell Dlg 2,16,-1,5,75,0,0,0,0,0"
    [[NOTE 2]]
        text = "eBGP"
        x = -274.413347009
        y = 314.933982821
        font = "MS Shell Dlg 2,16,-1,5,75,0,0,0,0,0"
    [[NOTE 3]]
        text = "10.11.13.2/29"
        x = -9.5269119346
        y = 24.242640687
    [[NOTE 4]]
        text = "EIGRP"
        x = 584.070201262
        y = 93.8843430347
        font = "MS Shell Dlg 2,16,-1,5,75,0,0,0,0,0"
    [[NOTE 5]]
        text = "13.4/29"
        x = -390.012193309
        y = 4.19595949323
    [[NOTE 6]]
        text = "3.1/24"
        x = 115.646752982
        y = 350.136218438
    [[NOTE 7]]
        text = "4.9/29"
        x = -442.437733627
        y = 439.158513014
    [[NOTE 8]]
        text = "501"
        x = -60.5664504539
        y = 72.066017178
    [[NOTE 9]]
        text = "99.7/24"
        x = 358.89148571
        y = -267.48023074
    [[NOTE 10]]
        text = "1.29/30"
        x = 739.314933989
        y = -174.336003076
    [[NOTE 11]]
        text = "10.12.15.1/29"
        x = -18.3259018078
        y = -234.526911935
    [[NOTE 12]]
        text = "10.11.13.1/29"
        x = -19.0121933088
        y = -212.029437252
    [[NOTE 13]]
        text = "5.5/30"
        x = -928.683718481
        y = -24.994063095
    [[NOTE 14]]
        text = "1.21/30"
        x = 766.184991674
        y = -231.916738879
    [[NOTE 15]]
        text = "200.17..2.5/30"
        x = -246.980664016
        y = 286.277128572
    [[NOTE 16]]
        text = "1.13/30"
        x = 732.243866176
        y = -210.502525317
    [[NOTE 17]]
        text = "17.1/24"
        x = 143.0
        y = -259.0
    [[NOTE 18]]
        text = "OSPF"
        x = -635.300648638
        y = 111.126983721
        font = "MS Shell Dlg 2,16,-1,5,75,0,0,0,0,0"
    [[NOTE 19]]
        text = "5.1/30"
        x = -796.520994749
        y = -215.147186257
    [[NOTE 20]]
        text = "4.6/30"
        x = -771.141269071
        y = 211.913780286
    [[NOTE 21]]
        text = "Santa Barbara\nBranch Office"
        x = 413.243507238
        y = 524.317892581
        font = "MS Shell Dlg 2,20,-1,5,75,0,0,0,0,0"
        color = "#0055ff"
    [[NOTE 22]]
        text = "VPN Tunnels : GRE over IPsec"
        x = -646.861181907
        y = -556.201010127
        font = "MS Shell Dlg 2,26,-1,5,75,0,1,0,0,0"
    [[NOTE 23]]
        text = "Backbone Area"
        x = -233.663996924
        y = -322.031529293
        font = "MS Shell Dlg 2,12,-1,5,75,0,0,0,0,0"
        color = "#ffffff"
    [[NOTE 24]]
        text = "100.16.6.2/30"
        x = 537.08239457
        y = 56.5828278446
    [[NOTE 25]]
        text = "16.5/29"
        x = 12.0
        y = 150.0
    [[NOTE 26]]
        text = "200.17.5.10/30"
        x = -631.88962858
        y = 369.260020415
    [[NOTE 27]]
        text = "15.5/29"
        x = -54.0
        y = 178.0
    [[NOTE 28]]
        text = "98.2/24"
        x = 395.248175939
        y = 66.0996913313
    [[NOTE 29]]
        text = "iBGP"
        x = 392.788022054
        y = -107.60093834
        font = "MS Shell Dlg 2,16,-1,5,75,0,0,0,0,0"
    [[NOTE 30]]
        text = "NAT service"
        x = -467.009234715
        y = -56.7624099466
        font = "MS Shell Dlg 2,11,-1,5,75,0,0,0,0,0"
    [[NOTE 31]]
        text = "NAT service"
        x = 423.94530958
        y = -26.051731828
        font = "MS Shell Dlg 2,11,-1,5,75,0,0,0,0,0"
    [[NOTE 32]]
        text = "4.2/30"
        x = -703.182899632
        y = -196.159379566
    [[NOTE 33]]
        text = "GRE/VPN Tunnel"
        x = -733.344371239
        y = 76.6833329086
        font = "MS Shell Dlg 2,14,-1,5,75,0,0,0,0,0"
        color = "#0055ff"
    [[NOTE 34]]
        text = "8.2/30"
        x = 438.162084352
        y = 370.896536344
    [[NOTE 35]]
        text = "3.10/30"
        x = -674.898628385
        y = -216.159379567
    [[NOTE 36]]
        text = "200.17.7.5/29"
        x = -643.927388988
        y = 393.132931721
    [[NOTE 37]]
        text = "OSPF"
        x = -659.342279199
        y = 323.460028204
        font = "MS Shell Dlg 2,16,-1,5,75,0,0,0,0,0"
    [[NOTE 38]]
        text = "Private WAN\nBackup link"
        x = -445.575933506
        y = 184.8877141
        font = "MS Shell Dlg 2,14,-1,5,75,0,0,0,0,0"
        color = "#0055ff"
    [[NOTE 39]]
        text = "104"
        x = -26.0
        y = -162.0
    [[NOTE 40]]
        text = "OSPF"
        x = -32.8456710674
        y = -440.014285351
        font = "MS Shell Dlg 2,16,-1,5,75,0,0,0,0,0"
    [[NOTE 41]]
        text = "6.4/24"
        x = -820.638743755
        y = 184.239682094
    [[NOTE 42]]
        text = "13.3/29"
        x = -412.468037432
        y = -173.402020254
    [[NOTE 43]]
        text = "100.16.1.0/24"
        x = 749.792649431
        y = -95.1526073276
    [[NOTE 44]]
        text = "Tu3 10.9.163.3/27"
        x = 412.248916811
        y = 423.266160753
    [[NOTE 45]]
        text = "10.10.0.0/16"
        x = -226.809628579
        y = -346.27416998
    [[NOTE 46]]
        text = "iBGP"
        x = 786.226622234
        y = -125.230447379
        font = "MS Shell Dlg 2,16,-1,5,75,0,0,0,0,0"
    [[NOTE 47]]
        text = "3.2/30"
        x = -676.312841947
        y = -238.585786438
    [[NOTE 48]]
        text = "1.34/30"
        x = 911.067242669
        y = 287.484414823
    [[NOTE 49]]
        text = "200.17.0.0/16"
        x = -869.701281291
        y = 161.842509041
    [[NOTE 50]]
        text = "12.1/24"
        x = 93.970562748
        y = -182.828427125
    [[NOTE 51]]
        text = "200.17.16.0/20"
        x = -995.142132161
        y = -51.4418464709
    [[NOTE 52]]
        text = "San Francisco Central Office"
        x = -152.170706324
        y = -498.782612482
        font = "MS Shell Dlg 2,24,-1,5,75,0,0,0,0,0"
        color = "#0055ff"
    [[NOTE 53]]
        text = "10.9.0.0/16"
        x = 400.935208312
        y = 301.844804515
    [[NOTE 54]]
        text = "EIGRP"
        x = 651.952452255
        y = 365.614357137
        font = "MS Shell Dlg 2,16,-1,5,75,0,0,0,0,0"
    [[NOTE 55]]
        text = "NAT service"
        x = 417.64379439
        y = 473.006276123
        font = "MS Shell Dlg 2,11,-1,5,75,0,0,0,0,0"
    [[NOTE 56]]
        text = "301"
        x = -277.133513652
        y = -153.686291501
    [[NOTE 57]]
        text = "BelISP"
        x = -916.780355503
        y = -190.136616094
        font = "MS Shell Dlg 2,16,-1,5,75,0,0,0,0,0"
    [[NOTE 58]]
        text = "ISPcast"
        x = 726.805265997
        y = 28.2203461091
        font = "MS Shell Dlg 2,16,-1,5,75,0,0,0,0,0"
    [[NOTE 59]]
        text = "160.2/24"
        x = 425.359523142
        y = 2.03152929237
    [[NOTE 60]]
        text = "Tu16 10.9.163.16/27"
        x = 360.46016243
        y = 86.8849169027
    [[NOTE 61]]
        text = "1.18/30"
        x = 865.226622234
        y = 265.962553522
    [[NOTE 62]]
        text = "Securing communications between Dual Muti-homed Core Enterprise network and Remote Branch Offices"
        x = -924.0
        y = -610.0
        font = "MS Shell Dlg 2,28,-1,5,75,0,1,0,0,0"
        color = "#0055ff"
    [[NOTE 63]]
        text = "28.8/24"
        x = 242.306680007
        y = 73.1490748652
    [[NOTE 64]]
        text = "200.17.3.1/30"
        x = -587.650786449
        y = -186.864062746
    [[NOTE 65]]
        text = "10.11.4.42/30"
        x = -482.985766171
        y = 388.102726782
    [[NOTE 66]]
        text = "eBGP"
        x = 316.251008852
        y = 325.499566723
        font = "MS Shell Dlg 2,16,-1,5,75,0,0,0,0,0"
    [[NOTE 67]]
        text = "|"
        x = -943.549908125
        y = -78.7539318243
    [[NOTE 68]]
        text = "---"
        x = -448.094587877
        y = 424.808224589
    [[NOTE 69]]
        text = "16.38/27"
        x = 340.506709399
        y = 2.2325394194
    [[NOTE 70]]
        text = "GRE/VPN Tunnel"
        x = -703.645886429
        y = -74.838528392
        font = "MS Shell Dlg 2,14,-1,5,75,0,0,0,0,0"
        color = "#0055ff"
    [[NOTE 71]]
        text = "204"
        x = -3.58578643763
        y = -28.0
    [[NOTE 72]]
        text = "GooglISP"
        x = -764.19509294
        y = -352.87720036
        font = "MS Shell Dlg 2,16,-1,5,75,0,0,0,0,0"
    [[NOTE 73]]
        text = "San Jose Branch Office"
        x = -577.915078637
        y = 539.263865279
        font = "MS Shell Dlg 2,20,-1,5,75,0,0,0,0,0"
        color = "#0055ff"
    [[NOTE 74]]
        text = "EIGRP"
        x = 264.13917703
        y = -459.612265097
        font = "MS Shell Dlg 2,16,-1,5,75,0,0,0,0,0"
    [[NOTE 75]]
        text = "100.16.7.0/24"
        x = 852.256059484
        y = 420.773736703
    [[NOTE 76]]
        text = "GRE/VPN Tunnel"
        x = 548.584919885
        y = 135.859956418
        font = "MS Shell Dlg 2,14,-1,5,75,0,0,0,0,0"
        color = "#0055ff"
    [[NOTE 77]]
        text = "eBGP"
        x = -689.966737602
        y = 351.171572874
        font = "MS Shell Dlg 2,16,-1,5,75,0,0,0,0,0"
    [[NOTE 78]]
        text = "eBGP"
        x = -660.268252792
        y = 160.051731827
        font = "MS Shell Dlg 2,16,-1,5,75,0,0,0,0,0"
    [[NOTE 79]]
        text = "10.11.4.41/30"
        x = -459.180338696
        y = 66.8910168145
    [[NOTE 80]]
        text = "200.17.3.5/30"
        x = -582.602957519
        y = -131.322255163
    [[NOTE 81]]
        text = "12.2/24"
        x = 96.970562748
        y = -1.8284271247
    [[NOTE 82]]
        text = "|"
        x = 493.758584802
        y = 435.577777211
    [[NOTE 83]]
        text = "OSPF"
        x = -205.379725677
        y = -403.244732729
        font = "MS Shell Dlg 2,16,-1,5,75,0,0,0,0,0"
    [[NOTE 84]]
        text = "eBGP"
        x = 644.881384443
        y = 336.116882454
        font = "MS Shell Dlg 2,16,-1,5,75,0,0,0,0,0"
    [[NOTE 85]]
        text = "200.17.4.5/30"
        x = -565.058402147
        y = 47.2244786726
    [[NOTE 86]]
        text = "100.16.7.14/30"
        x = 526.992603518
        y = 379.442784263
    [[NOTE 87]]
        text = "200.17.4.1/30"
        x = -554.608313733
        y = -28.5164714485
    [[NOTE 88]]
        text = "NAT service"
        x = -476.485598989
        y = 468.12267396
        font = "MS Shell Dlg 2,11,-1,5,75,0,0,0,0,0"
    [[NOTE 89]]
        text = "AS 1"
        x = 872.251008851
        y = -317.178715551
        font = "MS Shell Dlg 2,14,-1,5,75,0,0,0,0,0"
    [[NOTE 90]]
        text = "Tu41 10.11.4.1/30"
        x = -627.138280693
        y = -2.65478691275
    [[NOTE 91]]
        text = "1.6/30"
        x = 722.344371239
        y = -296.568542494
    [[NOTE 92]]
        text = "27.2/24"
        x = 140.414213562
        y = 28.656854249
    [[NOTE 93]]
        text = "100.16.7.2/30"
        x = 194.597113195
        y = 307.005050633
    [[NOTE 94]]
        text = "103"
        x = -26.0
        y = -179.0
    [[NOTE 95]]
        text = "99.1/24"
        x = 408.388960393
        y = -225.254833996
    [[NOTE 96]]
        text = "---"
        x = -25.2426406871
        y = 209.242640687
    [[NOTE 97]]
        text = "6.1/30"
        x = 715.805265996
        y = 178.737156777
    [[NOTE 98]]
        text = "10.12.16.2/29"
        x = -13.5269119346
        y = 41.928932188
    [[NOTE 99]]
        text = "200.17.3.9/30"
        x = -590.881807697
        y = -154.538160938
    [[NOTE 100]]
        text = "3.6/30"
        x = -792.354472507
        y = 194.742207411
    [[NOTE 101]]
        text = "18.8/24"
        x = 239.880847004
        y = 31.3371143817
    [[NOTE 102]]
        text = "L1 23.23.23.23/32"
        x = -704.597113194
        y = -278.190908859
    [[NOTE 103]]
        text = "17.7/24"
        x = 251.41125497
        y = -262.634559673
    [[NOTE 104]]
        text = "iBGP"
        x = -7.50461735701
        y = 309.383909758
        font = "MS Shell Dlg 2,16,-1,5,75,0,0,0,0,0"
    [[NOTE 105]]
        text = "3.3/24"
        x = 42.107647739
        y = 375.793072687
    [[NOTE 106]]
        text = "2.3/24"
        x = -78.100505063
        y = 373.165655689
    [[NOTE 107]]
        text = "Tu45 10.11.4.6/30"
        x = -639.747744954
        y = 434.865499126
    [[NOTE 108]]
        text = "27.7/24"
        x = 257.068109219
        y = -213.338095117
    [[NOTE 109]]
        text = "1.2/30"
        x = -87.9999999995
        y = 295.986940139
    [[NOTE 110]]
        text = "10.11.4.0/24"
        x = -430.663130371
        y = 270.75649276
    [[NOTE 111]]
        text = "AS 7"
        x = 939.351513915
        y = 320.305699271
        font = "MS Shell Dlg 2,14,-1,5,75,0,0,0,0,0"
    [[NOTE 112]]
        text = "1.25/30"
        x = 842.552524042
        y = -285.656854249
    [[NOTE 113]]
        text = "10.10.34.4/24"
        x = -434.845671067
        y = -34.5613998203
    [[NOTE 114]]
        text = "3..0.0.0/8"
        x = -182.370251098
        y = 368.301999808
    [[NOTE 115]]
        text = "L16 10.9.16.16/27"
        x = 519.354472508
        y = 43.5046173578
    [[NOTE 116]]
        text = "Tu45 10.11.4.5/30"
        x = -630.173139013
        y = 16.3335936469
    [[NOTE 117]]
        text = "203"
        x = -5.0
        y = -46.0
    [[NOTE 118]]
        text = "98.8/24"
        x = 370.205194209
        y = 35.9726547893
    [[NOTE 119]]
        text = "1.33/30"
        x = 882.150503789
        y = -135.140043583
    [[NOTE 120]]
        text = "401"
        x = -287.254833996
        y = -59.4522727853
    [[NOTE 121]]
        text = "6.3/24"
        x = -745.609306503
        y = -175.750216638
    [[NOTE 122]]
        text = "7.6/29"
        x = -792.354472507
        y = 269.695526217
    [[NOTE 123]]
        text = "1.17/30"
        x = 807.197184983
        y = -244.443650814
    [[NOTE 124]]
        text = "---"
        x = 488.101730553
        y = 442.063058585
    [[NOTE 125]]
        text = "10.12.0.0/16"
        x = -62.1620982957
        y = -396.194775325
    [[NOTE 126]]
        text = "205"
        x = -3.0
        y = -10.0
    [[NOTE 127]]
        text = "1.30/30"
        x = 853.866232541
        y = -163.223304703
    [[NOTE 128]]
        text = "NAT service"
        x = 426.773736705
        y = -320.409162928
        font = "MS Shell Dlg 2,11,-1,5,75,0,0,0,0,0"
    [[NOTE 129]]
        text = "502"
        x = -29.2426406871
        y = 71.585786438
    [[NOTE 130]]
        text = "ClearwISP"
        x = 848.581961294
        y = 452.371716449
        font = "MS Shell Dlg 2,16,-1,5,75,0,0,0,0,0"
    [[NOTE 131]]
        text = "AS 64493"
        x = -763.994082814
        y = -149.289321882
        font = "MS Shell Dlg 2,14,-1,5,75,0,0,0,0,0"
    [[NOTE 132]]
        text = "5.6/30"
        x = -874.378859125
        y = 206.256926037
    [[NOTE 133]]
        text = "Private WAN\nBackup link"
        x = 428.360455151
        y = 175.926048426
        font = "MS Shell Dlg 2,14,-1,5,75,0,0,0,0,0"
        color = "#0055ff"
    [[NOTE 134]]
        text = "GRE/VPN Tunnel"
        x = -689.082000371
        y = 277.683332909
        font = "MS Shell Dlg 2,14,-1,5,75,0,0,0,0,0"
        color = "#0055ff"
    [[NOTE 135]]
        text = "eBGP"
        x = -726.88138444
        y = -16.0660171792
        font = "MS Shell Dlg 2,16,-1,5,75,0,0,0,0,0"
    [[NOTE 136]]
        text = "L11 10.9.11.11/32"
        x = 422.531096017
        y = -299.605122421
    [[NOTE 137]]
        text = "1.26/30"
        x = 853.866232541
        y = -199.590837072
    [[NOTE 138]]
        text = "AS 64512"
        x = 397.648845023
        y = 273.683332908
        font = "MS Shell Dlg 2,14,-1,5,75,0,0,0,0,0"
    [[NOTE 139]]
        text = "|"
        x = 814.800215362
        y = 140.747258045
    [[NOTE 140]]
        text = "MetroISP"
        x = -856.986940138
        y = 357.582827845
        font = "MS Shell Dlg 2,16,-1,5,75,0,0,0,0,0"
    [[NOTE 141]]
        text = "NAT service"
        x = -447.416676038
        y = -243.867151912
        font = "MS Shell Dlg 2,11,-1,5,75,0,0,0,0,0"
    [[NOTE 142]]
        text = "2.6/30"
        x = -764.07020126
        y = 234.340187158
    [[NOTE 143]]
        text = "1.14/30"
        x = 736.486506863
        y = -268.284271247
    [[NOTE 144]]
        text = "eBGP"
        x = 643.467170881
        y = 60.5462479176
        font = "MS Shell Dlg 2,16,-1,5,75,0,0,0,0,0"
    [[NOTE 145]]
        text = "10.10.34.3/24"
        x = -439.573593129
        y = -130.088311755
    [[NOTE 146]]
        text = "160.1/24"
        x = 429.602163829
        y = -198.585786438
    [[NOTE 147]]
        text = "eBGP"
        x = 747.983981547
        y = -33.4415587736
        font = "MS Shell Dlg 2,16,-1,5,75,0,0,0,0,0"
    [[NOTE 148]]
        text = "302"
        x = -272.06244584
        y = -109.765981284
    [[NOTE 149]]
        text = "28.2/24"
        x = 139.0
        y = 70.0
    [[NOTE 150]]
        text = "---"
        x = -937.893053876
        y = -77.3397182619
    [[NOTE 151]]
        text = "7.18/28"
        x = 472.545381367
        y = 457.200143575
    [[NOTE 152]]
        text = "|"
        x = -434.124025128
        y = 424.607214462
    [[NOTE 153]]
        text = "1.38/30"
        x = 520.111831821
        y = 15.5706345354
    [[NOTE 154]]
        text = "6.5/30"
        x = 803.486506862
        y = 168.636651714
    [[NOTE 155]]
        text = "L3 10.9.3.3/28"
        x = 533.04285605
        y = 434.964645562
    [[NOTE 156]]
        text = "6.6/30"
        x = 826.214428923
        y = 299.702668892
    [[NOTE 157]]
        text = "AS 64495"
        x = -852.923015002
        y = 313.388960392
        font = "MS Shell Dlg 2,14,-1,5,75,0,0,0,0,0"
    [[NOTE 158]]
        text = "eBGP"
        x = 908.975972321
        y = 1.29350596265
        font = "MS Shell Dlg 2,16,-1,5,75,0,0,0,0,0"
    [[NOTE 159]]
        text = "105"
        x = -24.0
        y = -143.0
    [[NOTE 160]]
        text = "eBGP"
        x = 558.251008852
        y = -146.99790796
        font = "MS Shell Dlg 2,16,-1,5,75,0,0,0,0,0"
    [[NOTE 161]]
        text = "5.2/30"
        x = -853.040240133
        y = -98.9477992761
    [[NOTE 162]]
        text = "AS 64494"
        x = -925.165131815
        y = 10.3486652793
        font = "MS Shell Dlg 2,14,-1,5,75,0,0,0,0,0"
    [[NOTE 163]]
        text = "1.37/30"
        x = 686.989032181
        y = -142.620274323
    [[NOTE 164]]
        text = "AS 6"
        x = 717.219479559
        y = 69.0315292913
        font = "MS Shell Dlg 2,14,-1,5,75,0,0,0,0,0"
    [[NOTE 165]]
        text = "|"
        x = -29.8284271247
        y = 208.914213562
    [[NOTE 166]]
        text = "5.9/30"
        x = -848.748302335
        y = -48.8461485869
    [[NOTE 167]]
        text = "1.2/30"
        x = 729.415439052
        y = -311.923881554
    [[NOTE 168]]
        text = "Tu41 10.11.4.2/30"
        x = -639.747744954
        y = 414.865499126
    [[NOTE 169]]
        text = "eBGP"
        x = 834.022653515
        y = -26.789755158
        font = "MS Shell Dlg 2,16,-1,5,75,0,0,0,0,0"
    [[NOTE 170]]
        text = "---"
        x = 800.658079738
        y = 142.161471607
    [[NOTE 171]]
        text = "5.5/27"
        x = -50.0710678119
        y = 223.849242405
    [[NOTE 172]]
        text = "200.17.0.0/16"
        x = -943.593683547
        y = -152.492899458
    [[NOTE 173]]
        text = "18.1/24"
        x = 141.585786438
        y = -211.828427125
    [[NOTE 174]]
        text = "1.1/30"
        x = 501.727055509
        y = -276.367532368
    [[NOTE 175]]
        text = "1.22/30"
        x = 770.959594929
        y = 92.4701294725
    [[NOTE 176]]
        text = "1.5/30"
        x = 521.526045382
        y = -249.69848481
    [[NOTE 177]]
        text = "BGP with EIGRP and OSPF"
        x = 394.0
        y = -556.0
        font = "MS Shell Dlg 2,26,-1,5,75,0,1,0,0,0"
    [[NOTE 178]]
        text = "AS 64512"
        x = 257.068109219
        y = 219.619407771
        font = "MS Shell Dlg 2,14,-1,5,75,0,0,0,0,0"
    [[NOTE 179]]
        text = "16.37/27"
        x = 343.335136524
        y = -210.710678119
    [[NOTE 180]]
        text = "VerISPon"
        x = 761.841845923
        y = -387.788888606
        font = "MS Shell Dlg 2,16,-1,5,75,0,0,0,0,0"
    [[NOTE 181]]
        text = "10.9.0.0/16"
        x = 249.976504867
        y = -421.428498912
    [[NOTE 182]]
        text = "1.1/30"
        x = 73.220346111
        y = 307.099638511
    [[NOTE 183]]
        text = "6.18/28"
        x = 809.143361113
        y = 129.038671967
    [[NOTE 184]]
        text = "1.9/30"
        x = 493.241774136
        y = -222.828427125
    [[NOTE 185]]
        text = "10.11.0.0/16"
        x = -227.821248019
        y = -364.457936164
    [[NOTE 186]]
        text = "7.13/30"
        x = 823.327127298
        y = 356.045814641
    [[NOTE 187]]
        text = "AS 65534"
        x = -219.521861301
        y = 187.49451609
        font = "MS Shell Dlg 2,14,-1,5,75,0,0,0,0,0"
    [[NOTE 188]]
        text = "AS 100"
        x = -36.4668119417
        y = 280.669047557
        font = "MS Shell Dlg 2,14,-1,5,75,0,0,0,0,0"
    [[NOTE 189]]
        text = "100.16.6.0/24"
        x = 729.947401619
        y = 230.452885529
    [[NOTE 190]]
        text = "2.2/24"
        x = -116.284271247
        y = 343.668181006
    [[NOTE 191]]
        text = "Area 5"
        x = -1.7329726953
        y = -336.374675043
        font = "MS Shell Dlg 2,12,-1,5,75,0,0,0,0,0"
        color = "#ffffff"
    [[NOTE 192]]
        text = "eBGP"
        x = 603.5571842
        y = -302.370657964
        font = "MS Shell Dlg 2,16,-1,5,75,0,0,0,0,0"
    [[NOTE 193]]
        text = "1.10/30"
        x = 606.358322585
        y = -180.396599184
    [[NOTE 194]]
        text = "200.17.0.0/16"
        x = -784.858735819
        y = -310.912835982
    [[NOTE 195]]
        text = "Area 4"
        x = -399.168614282
        y = 247.979797465
        font = "MS Shell Dlg 2,12,-1,5,75,0,0,0,0,0"
        color = "#ffffff"
    [[NOTE 196]]
        text = "7.1/30"
        x = 814.311975395
        y = 325.951226765
    [[NOTE 197]]
        text = "8.1/30"
        x = 440.798123322
        y = 108.582827845
    [[NOTE 198]]
        text = "OSPF"
        x = -592.874241767
        y = -99.7918471992
        font = "MS Shell Dlg 2,16,-1,5,75,0,0,0,0,0"
    [[NOTE 199]]
        text = "402"
        x = -265.04163056
        y = -24.4817100368
    [[NOTE 200]]
        text = "GRE/VPN Tunnel"
        x = 646.165655689
        y = 400.518902708
        font = "MS Shell Dlg 2,14,-1,5,75,0,0,0,0,0"
        color = "#0055ff"
    [[NOTE 201]]
        text = "L1 3.3.3.3/32"
        x = -451.463153799
        y = -226.902010233
    [[PIXMAP 1]]
        path = VPN-Tunnel-2.png
        x = -689.0
        y = 67.5
        z = 1.0
    [[PIXMAP 2]]
        path = VPN-Tunnel-1.png
        x = -705.5
        y = 285.5
        z = 1.0
    [[PIXMAP 3]]
        path = VPN-Tunnel-5.png
        x = -628.856997824
        y = -142.852813742
        z = 1.0
    [[SHAPE 1]]
        type = ellipse
        x = 93.019335984
        y = -425.997041407
        width = 425.997041407
        height = 681.650937064
        fill_color = "#00ffff"
        border_style = 2
    [[SHAPE 2]]
        type = ellipse
        x = -517.602163828
        y = 38.1837661841
        width = 180.033621333
        height = 498.215295476
        fill_color = "#55aaff"
        border_style = 2
    [[PIXMAP 4]]
        path = VPN-Tunnel-4.png
        x = 523.925540319
        y = 64.2228714274
    [[PIXMAP 5]]
        path = VPN-Tunnel-3.png
        x = 589.722004875
        y = 351.751875403
    [[SHAPE 3]]
        type = ellipse
        x = 399.006276123
        y = 86.2670273047
        width = 129.909596205
        height = 433.732972695
        fill_color = "#00ffff"
        border_style = 2
        z = -1.0
    [[SHAPE 4]]
        type = ellipse
        x = -455.0
        y = -367.0
        width = 565.0
        height = 588.0
        fill_color = "#00aaff"
        border_style = 2
        z = -2.0
    [[SHAPE 5]]
        type = ellipse
        x = -830.462120245
        y = -317.102597104
        width = 236.173664916
        height = 199.404112294
        fill_color = "#ffaaff"
        border_style = 2
        z = -2.0
    [[SHAPE 6]]
        type = ellipse
        x = -901.24891681
        y = 154.811183182
        width = 200.0
        height = 200.0
        fill_color = "#ff00ff"
        border_style = 2
        z = -2.0
    [[SHAPE 7]]
        type = ellipse
        x = -978.954544294
        y = -158.710678119
        width = 200.0
        height = 200.0
        fill_color = "#ffd8ff"
        border_style = 2
        z = -2.0
    [[SHAPE 8]]
        type = ellipse
        x = 677.621499812
        y = 59.4091629284
        width = 200.0
        height = 200.0
        fill_color = "#ffff7f"
        border_style = 2
        z = -2.0
    [[SHAPE 9]]
        type = ellipse
        x = -215.279220613
        y = 283.938166904
        width = 431.335136523
        height = 131.5218613
        fill_color = "#ff5500"
        border_style = 2
        z = -2.0
    [[SHAPE 10]]
        type = ellipse
        x = 617.692567624
        y = -348.215295476
        width = 381.83766184
        height = 284.256926037
        fill_color = "#ffff00"
        border_style = 2
        z = -2.0
    [[SHAPE 11]]
        type = ellipse
        x = 785.071067812
        y = 249.759451354
        width = 213.202235616
        height = 209.193867452
        fill_color = "#c9ff15"
        border_style = 2
        z = -2.0
    [[SHAPE 12]]
        type = ellipse
        x = -102.142135624
        y = -406.198051534
        width = 205.060966544
        height = 719.834703248
        fill_color = "#0055ff"
        border_style = 2
        z = -3.0
