Nov 28 08:24:59.415 HYPERVISOR: Release 0.2.17-amd64/Linux (tag 2017072410)
Nov 28 08:24:59.415 HYPERVISOR: Started on IP = 127.0.0.1, TCP port = 34853.
Nov 28 08:24:59.426 HYPERVISOR: exec_cmd: hypervisor version 
Nov 28 08:24:59.426 HYPERVISOR: exec_cmd: hypervisor working_dir /media/actionmystique/SAMSUNG5-VMs/Labs/GNS3/git-Public-Labs-Collection/CCNP/TBSHOOT/L3-Technologies/IPv4/Routing/Static Routing/Jean-Christophe_Manciot/1+/TT 1-linux/project-files/dynamips 
Nov 28 08:24:59.426 GENERAL: working_dir=/media/actionmystique/SAMSUNG5-VMs/Labs/GNS3/git-Public-Labs-Collection/CCNP/TBSHOOT/L3-Technologies/IPv4/Routing/Static Routing/Jean-Christophe_Manciot/1+/TT 1-linux/project-files/dynamips
Nov 28 08:24:59.427 HYPERVISOR: exec_cmd: vm create ESW4 4 c3725 
Nov 28 08:24:59.427 VM: VM ESW4 created.
Nov 28 08:24:59.427 HYPERVISOR: exec_cmd: vm set_con_tcp_port ESW4 2006 
Nov 28 08:24:59.428 HYPERVISOR: exec_cmd: c3725 get_mac_addr ESW4 
Nov 28 08:24:59.428 HYPERVISOR: exec_cmd: vm set_disk0 ESW4 1 
Nov 28 08:24:59.428 HYPERVISOR: exec_cmd: vm get_status ESW4 
Nov 28 08:24:59.429 HYPERVISOR: exec_cmd: vm slot_add_binding ESW4 1 0 NM-16ESW 
Nov 28 08:24:59.429 HYPERVISOR: exec_cmd: vm set_ios ESW4 /media/actionmystique/SAMSUNG5-VMs/Images/GNS3/IOS/c3725-adventerprisek9-mz.124-15.T10.image 
Nov 28 08:24:59.429 HYPERVISOR: exec_cmd: c3725 set_mac_addr ESW4 c204.44a3.0000 
Nov 28 08:24:59.430 HYPERVISOR: exec_cmd: vm slot_add_binding ESW4 0 16 WIC-2T 
Nov 28 08:24:59.430 HYPERVISOR: exec_cmd: vm get_status ESW4 
Nov 28 08:24:59.431 HYPERVISOR: exec_cmd: vm set_idle_pc ESW4 0x614ac27c 
Nov 28 08:24:59.431 HYPERVISOR: exec_cmd: vm set_nvram ESW4 256 
Nov 28 08:24:59.431 HYPERVISOR: exec_cmd: vm set_config ESW4 configs/ios_base_startup-config.txt 
Nov 28 08:24:59.432 HYPERVISOR: exec_cmd: vm set_config ESW4 configs/ios_base_startup-config.txt configs/ios_base_private-config.txt 
Nov 28 08:24:59.651 HYPERVISOR: exec_cmd: nio create_udp udp-f01ff794-4928-43fc-90f9-1e5b2fe98c8b 15013 127.0.0.1 15014 
Nov 28 08:24:59.651 HYPERVISOR: exec_cmd: vm slot_add_nio_binding ESW4 1 1 udp-f01ff794-4928-43fc-90f9-1e5b2fe98c8b 
Nov 28 08:24:59.652 HYPERVISOR: exec_cmd: vm get_status ESW4 
Nov 28 08:24:59.657 HYPERVISOR: exec_cmd: nio create_udp udp-25ac91bd-f30a-47a0-898f-b49f7b65f47a 15011 127.0.0.1 15015 
Nov 28 08:24:59.658 HYPERVISOR: exec_cmd: vm slot_add_nio_binding ESW4 1 0 udp-25ac91bd-f30a-47a0-898f-b49f7b65f47a 
Nov 28 08:24:59.658 HYPERVISOR: exec_cmd: vm get_status ESW4 
