Nov 28 08:24:59.411 HYPERVISOR: Release 0.2.17-amd64/Linux (tag 2017072410)
Nov 28 08:24:59.411 HYPERVISOR: Started on IP = 127.0.0.1, TCP port = 36317.
Nov 28 08:24:59.414 HYPERVISOR: exec_cmd: hypervisor version 
Nov 28 08:24:59.415 HYPERVISOR: exec_cmd: hypervisor working_dir /media/actionmystique/SAMSUNG5-VMs/Labs/GNS3/git-Public-Labs-Collection/CCNP/TBSHOOT/L3-Technologies/IPv4/Routing/Static Routing/Jean-Christophe_Manciot/1+/TT 1-linux/project-files/dynamips 
Nov 28 08:24:59.415 GENERAL: working_dir=/media/actionmystique/SAMSUNG5-VMs/Labs/GNS3/git-Public-Labs-Collection/CCNP/TBSHOOT/L3-Technologies/IPv4/Routing/Static Routing/Jean-Christophe_Manciot/1+/TT 1-linux/project-files/dynamips
Nov 28 08:24:59.415 HYPERVISOR: exec_cmd: vm create ESW3 3 c3725 
Nov 28 08:24:59.415 VM: VM ESW3 created.
Nov 28 08:24:59.415 HYPERVISOR: exec_cmd: vm set_con_tcp_port ESW3 2005 
Nov 28 08:24:59.416 HYPERVISOR: exec_cmd: c3725 get_mac_addr ESW3 
Nov 28 08:24:59.416 HYPERVISOR: exec_cmd: vm set_disk0 ESW3 1 
Nov 28 08:24:59.416 HYPERVISOR: exec_cmd: vm get_status ESW3 
Nov 28 08:24:59.417 HYPERVISOR: exec_cmd: vm slot_add_binding ESW3 1 0 NM-16ESW 
Nov 28 08:24:59.417 HYPERVISOR: exec_cmd: vm set_ios ESW3 /media/actionmystique/SAMSUNG5-VMs/Images/GNS3/IOS/c3725-adventerprisek9-mz.124-15.T10.image 
Nov 28 08:24:59.417 HYPERVISOR: exec_cmd: c3725 set_mac_addr ESW3 c203.4490.0000 
Nov 28 08:24:59.418 HYPERVISOR: exec_cmd: vm slot_add_binding ESW3 0 16 WIC-2T 
Nov 28 08:24:59.418 HYPERVISOR: exec_cmd: vm get_status ESW3 
Nov 28 08:24:59.418 HYPERVISOR: exec_cmd: vm set_idle_pc ESW3 0x614ac27c 
Nov 28 08:24:59.419 HYPERVISOR: exec_cmd: vm set_nvram ESW3 256 
Nov 28 08:24:59.419 HYPERVISOR: exec_cmd: vm set_config ESW3 configs/ios_base_startup-config.txt 
Nov 28 08:24:59.420 HYPERVISOR: exec_cmd: vm set_config ESW3 configs/ios_base_startup-config.txt configs/ios_base_private-config.txt 
Nov 28 08:24:59.566 HYPERVISOR: exec_cmd: nio create_udp udp-add79374-a06b-4605-830e-cebf319dfd46 15008 127.0.0.1 15006 
Nov 28 08:24:59.568 HYPERVISOR: exec_cmd: vm slot_add_nio_binding ESW3 1 1 udp-add79374-a06b-4605-830e-cebf319dfd46 
Nov 28 08:24:59.568 HYPERVISOR: exec_cmd: vm get_status ESW3 
Nov 28 08:24:59.599 HYPERVISOR: exec_cmd: nio create_udp udp-9a3a0e48-c5c8-4b30-ac96-8240ce6d74fc 15009 127.0.0.1 15010 
Nov 28 08:24:59.605 HYPERVISOR: exec_cmd: vm slot_add_nio_binding ESW3 1 0 udp-9a3a0e48-c5c8-4b30-ac96-8240ce6d74fc 
Nov 28 08:24:59.605 HYPERVISOR: exec_cmd: vm get_status ESW3 
Nov 28 08:24:59.612 HYPERVISOR: exec_cmd: nio create_udp udp-13539284-089e-41a9-bde4-0c68bc354790 15007 127.0.0.1 15012 
Nov 28 08:24:59.618 HYPERVISOR: exec_cmd: vm slot_add_nio_binding ESW3 1 2 udp-13539284-089e-41a9-bde4-0c68bc354790 
Nov 28 08:24:59.624 HYPERVISOR: exec_cmd: vm get_status ESW3 
