Nov 29 15:30:35.589 HYPERVISOR: Release 0.2.17-amd64/Linux (tag 2017072410)
Nov 29 15:30:35.589 HYPERVISOR: Started on IP = 127.0.0.1, TCP port = 37159.
Nov 29 15:30:35.607 HYPERVISOR: exec_cmd: hypervisor version 
Nov 29 15:30:35.607 HYPERVISOR: exec_cmd: hypervisor working_dir /media/actionmystique/SAMSUNG5-VMs/Labs/GNS3/git-Public-Labs-Collection/CCNP/TBSHOOT/L3-Technologies/IPv4/Routing-Protocols/RIPv2/Jean-Christophe_Manciot/1+/TT 1-linux/project-files/dynamips 
Nov 29 15:30:35.607 GENERAL: working_dir=/media/actionmystique/SAMSUNG5-VMs/Labs/GNS3/git-Public-Labs-Collection/CCNP/TBSHOOT/L3-Technologies/IPv4/Routing-Protocols/RIPv2/Jean-Christophe_Manciot/1+/TT 1-linux/project-files/dynamips
Nov 29 15:30:35.608 HYPERVISOR: exec_cmd: vm create ESW2 2 c3725 
Nov 29 15:30:35.608 VM: VM ESW2 created.
Nov 29 15:30:35.608 HYPERVISOR: exec_cmd: vm set_con_tcp_port ESW2 2005 
Nov 29 15:30:35.609 HYPERVISOR: exec_cmd: c3725 get_mac_addr ESW2 
Nov 29 15:30:35.609 HYPERVISOR: exec_cmd: vm set_nvram ESW2 256 
Nov 29 15:30:35.609 HYPERVISOR: exec_cmd: vm slot_add_binding ESW2 0 16 WIC-2T 
Nov 29 15:30:35.610 HYPERVISOR: exec_cmd: c3725 set_mac_addr ESW2 c202.1bd4.0000 
Nov 29 15:30:35.610 HYPERVISOR: exec_cmd: vm set_disk0 ESW2 1 
Nov 29 15:30:35.610 HYPERVISOR: exec_cmd: vm set_ios ESW2 /media/actionmystique/SAMSUNG5-VMs/Images/GNS3/IOS/c3725-adventerprisek9-mz.124-15.T10.image 
Nov 29 15:30:35.611 HYPERVISOR: exec_cmd: vm get_status ESW2 
Nov 29 15:30:35.611 HYPERVISOR: exec_cmd: vm set_idle_pc ESW2 0x614ac27c 
Nov 29 15:30:35.612 HYPERVISOR: exec_cmd: vm get_status ESW2 
Nov 29 15:30:35.612 HYPERVISOR: exec_cmd: vm slot_add_binding ESW2 1 0 NM-16ESW 
Nov 29 15:30:35.612 HYPERVISOR: exec_cmd: vm set_config ESW2 configs/ios_base_startup-config.txt 
Nov 29 15:30:35.613 HYPERVISOR: exec_cmd: vm set_config ESW2 configs/ios_base_startup-config.txt configs/ios_base_private-config.txt 
Nov 29 15:30:35.774 HYPERVISOR: exec_cmd: nio create_udp udp-953a6473-cd01-43c2-9a2f-912915902517 15005 127.0.0.1 15004 
Nov 29 15:30:35.775 HYPERVISOR: exec_cmd: vm slot_add_nio_binding ESW2 1 0 udp-953a6473-cd01-43c2-9a2f-912915902517 
Nov 29 15:30:35.775 HYPERVISOR: exec_cmd: vm get_status ESW2 
