Nov 26 20:03:19.492 HYPERVISOR: Release 0.2.17-amd64/Linux (tag 2017072410)
Nov 26 20:03:19.492 HYPERVISOR: Started on IP = 127.0.0.1, TCP port = 42099.
Nov 26 20:03:19.514 HYPERVISOR: exec_cmd: hypervisor version 
Nov 26 20:03:19.514 HYPERVISOR: exec_cmd: hypervisor working_dir /media/actionmystique/SAMSUNG5-VMs/Labs/GNS3/Confederations-linux/project-files/dynamips 
Nov 26 20:03:19.514 GENERAL: working_dir=/media/actionmystique/SAMSUNG5-VMs/Labs/GNS3/Confederations-linux/project-files/dynamips
Nov 26 20:03:19.515 HYPERVISOR: exec_cmd: vm create Madrid 8 c7200 
Nov 26 20:03:19.515 VM: VM Madrid created.
Nov 26 20:03:19.515 HYPERVISOR: exec_cmd: vm set_con_tcp_port Madrid 2109 
Nov 26 20:03:19.515 HYPERVISOR: exec_cmd: vm set_aux_tcp_port Madrid 2509 
Nov 26 20:03:19.515 HYPERVISOR: exec_cmd: c7200 get_mac_addr Madrid 
Nov 26 20:03:19.516 HYPERVISOR: exec_cmd: vm get_status Madrid 
Nov 26 20:03:19.516 HYPERVISOR: exec_cmd: vm slot_add_binding Madrid 0 0 C7200-IO-FE 
Nov 26 20:03:19.516 HYPERVISOR: exec_cmd: vm get_status Madrid 
Nov 26 20:03:19.517 HYPERVISOR: exec_cmd: vm set_idle_pc Madrid 0x6062d534 
Nov 26 20:03:19.517 HYPERVISOR: exec_cmd: vm set_ram Madrid 512 
Nov 26 20:03:19.517 HYPERVISOR: exec_cmd: vm set_ios Madrid /media/actionmystique/SAMSUNG5-VMs/Images/GNS3/IOS/c7200-adventerprisek9-mz.152-4.M2.image 
Nov 26 20:03:19.518 HYPERVISOR: exec_cmd: vm get_status Madrid 
Nov 26 20:03:19.518 HYPERVISOR: exec_cmd: vm slot_remove_binding Madrid 0 0 
Nov 26 20:03:19.519 HYPERVISOR: exec_cmd: vm get_status Madrid 
Nov 26 20:03:19.519 HYPERVISOR: exec_cmd: vm slot_add_binding Madrid 0 0 C7200-IO-GE-E 
Nov 26 20:03:19.519 HYPERVISOR: exec_cmd: c7200 set_mac_addr Madrid ca08.1183.0000 
Nov 26 20:03:19.520 HYPERVISOR: exec_cmd: vm set_config Madrid configs/i8_startup-config.cfg 
Nov 26 20:03:19.981 HYPERVISOR: exec_cmd: nio create_udp udp-f2e1677d-8924-4bd2-a98a-15dbf1496463 15022 127.0.0.1 15023 
Nov 26 20:03:19.981 HYPERVISOR: exec_cmd: vm slot_add_nio_binding Madrid 0 0 udp-f2e1677d-8924-4bd2-a98a-15dbf1496463 
Nov 26 20:03:19.982 HYPERVISOR: exec_cmd: vm get_status Madrid 
Nov 26 20:03:25.477 HYPERVISOR: exec_cmd: vm get_status Madrid 
Nov 26 20:03:25.480 HYPERVISOR: exec_cmd: vm extract_config Madrid 
Nov 26 20:03:25.483 HYPERVISOR: exec_cmd: vm delete Madrid 
Nov 26 20:03:25.483 VM: VM Madrid destroyed.
Nov 26 20:03:25.488 HYPERVISOR: exec_cmd: hypervisor stop 
Nov 26 20:03:25.517 HYPERVISOR: Stopped.
Nov 26 20:03:25.518 GENERAL: reset done.
