Nov 27 16:18:51.777 HYPERVISOR: Release 0.2.17-amd64/Linux (tag 2017072410)
Nov 27 16:18:51.777 HYPERVISOR: Started on IP = 127.0.0.1, TCP port = 47641.
Nov 27 16:18:51.784 HYPERVISOR: exec_cmd: hypervisor version 
Nov 27 16:18:51.785 HYPERVISOR: exec_cmd: hypervisor working_dir /media/actionmystique/SAMSUNG5-VMs/Labs/GNS3/git-Public-Labs-Collection/CCNP/TBSHOOT/L3-Technologies/IPv4/High-Availability/GLBP/Jean-Christophe_Manciot/1+/TT 1-solutions-linux/project-files/dynamips 
Nov 27 16:18:51.785 GENERAL: working_dir=/media/actionmystique/SAMSUNG5-VMs/Labs/GNS3/git-Public-Labs-Collection/CCNP/TBSHOOT/L3-Technologies/IPv4/High-Availability/GLBP/Jean-Christophe_Manciot/1+/TT 1-solutions-linux/project-files/dynamips
Nov 27 16:18:51.786 HYPERVISOR: exec_cmd: vm create SW2 2 c3725 
Nov 27 16:18:51.786 VM: VM SW2 created.
Nov 27 16:18:51.787 HYPERVISOR: exec_cmd: vm set_con_tcp_port SW2 2002 
Nov 27 16:18:51.789 HYPERVISOR: exec_cmd: c3725 get_mac_addr SW2 
Nov 27 16:18:51.790 HYPERVISOR: exec_cmd: vm set_nvram SW2 256 
Nov 27 16:18:51.792 HYPERVISOR: exec_cmd: vm get_status SW2 
Nov 27 16:18:51.793 HYPERVISOR: exec_cmd: vm set_idle_pc SW2 0x6026b804 
Nov 27 16:18:51.795 HYPERVISOR: exec_cmd: c3725 set_mac_addr SW2 eeee.eeee.eeee 
Nov 27 16:18:51.800 HYPERVISOR: exec_cmd: vm set_exec_area SW2 16 
Nov 27 16:18:51.801 HYPERVISOR: exec_cmd: vm get_status SW2 
Nov 27 16:18:51.806 HYPERVISOR: exec_cmd: vm slot_add_binding SW2 1 0 NM-16ESW 
Nov 27 16:18:51.806 HYPERVISOR: exec_cmd: vm set_ios SW2 /media/actionmystique/SAMSUNG5-VMs/Images/GNS3/IOS/c3725-adventerprisek9-mz.124-15.T10.image 
Nov 27 16:18:51.807 HYPERVISOR: exec_cmd: vm slot_add_binding SW2 0 16 WIC-2T 
Nov 27 16:18:51.808 HYPERVISOR: exec_cmd: vm set_disk0 SW2 1 
Nov 27 16:18:51.808 HYPERVISOR: exec_cmd: vm set_config SW2 configs/i2_startup-config.cfg 
Nov 27 16:18:51.809 HYPERVISOR: exec_cmd: vm set_config SW2 configs/i2_startup-config.cfg configs/i2_private-config.cfg 
Nov 27 16:18:52.049 HYPERVISOR: exec_cmd: nio create_udp udp-b081654f-6ca5-4b2e-949c-82e29d7f315d 15006 127.0.0.1 15005 
Nov 27 16:18:52.049 HYPERVISOR: exec_cmd: vm slot_add_nio_binding SW2 1 3 udp-b081654f-6ca5-4b2e-949c-82e29d7f315d 
Nov 27 16:18:52.050 HYPERVISOR: exec_cmd: vm get_status SW2 
Nov 27 16:18:52.060 HYPERVISOR: exec_cmd: nio create_udp udp-8b10705d-cfe7-4766-8b01-2867074003d9 15003 127.0.0.1 15007 
Nov 27 16:18:52.062 HYPERVISOR: exec_cmd: vm slot_add_nio_binding SW2 1 0 udp-8b10705d-cfe7-4766-8b01-2867074003d9 
Nov 27 16:18:52.068 HYPERVISOR: exec_cmd: vm get_status SW2 
Nov 27 16:18:52.101 HYPERVISOR: exec_cmd: nio create_udp udp-3f901c4f-a1b7-486a-aff3-806272efdf46 15009 127.0.0.1 15008 
Nov 27 16:18:52.101 HYPERVISOR: exec_cmd: vm slot_add_nio_binding SW2 1 1 udp-3f901c4f-a1b7-486a-aff3-806272efdf46 
Nov 27 16:18:52.102 HYPERVISOR: exec_cmd: vm get_status SW2 
Nov 27 16:18:52.115 HYPERVISOR: exec_cmd: nio create_udp udp-f0ba4c0d-5134-4caa-a6c6-85e3b3bcdcc3 15011 127.0.0.1 15012 
Nov 27 16:18:52.118 HYPERVISOR: exec_cmd: vm slot_add_nio_binding SW2 1 2 udp-f0ba4c0d-5134-4caa-a6c6-85e3b3bcdcc3 
Nov 27 16:18:52.119 HYPERVISOR: exec_cmd: vm get_status SW2 
