Nov 27 16:19:01.035 HYPERVISOR: Release 0.2.17-amd64/Linux (tag 2017072410)
Nov 27 16:19:01.035 HYPERVISOR: Started on IP = 127.0.0.1, TCP port = 42505.
Nov 27 16:19:01.068 HYPERVISOR: exec_cmd: hypervisor version 
Nov 27 16:19:01.069 HYPERVISOR: exec_cmd: hypervisor working_dir /media/actionmystique/SAMSUNG5-VMs/Labs/GNS3/TT 1-solutions-linux-/project-files/dynamips 
Nov 27 16:19:01.069 GENERAL: working_dir=/media/actionmystique/SAMSUNG5-VMs/Labs/GNS3/TT 1-solutions-linux-/project-files/dynamips
Nov 27 16:19:01.070 HYPERVISOR: exec_cmd: vm create SW3 3 c3725 
Nov 27 16:19:01.070 VM: VM SW3 created.
Nov 27 16:19:01.071 HYPERVISOR: exec_cmd: vm set_con_tcp_port SW3 2003 
Nov 27 16:19:01.072 HYPERVISOR: exec_cmd: c3725 get_mac_addr SW3 
Nov 27 16:19:01.073 HYPERVISOR: exec_cmd: vm set_nvram SW3 256 
Nov 27 16:19:01.074 HYPERVISOR: exec_cmd: vm get_status SW3 
Nov 27 16:19:01.075 HYPERVISOR: exec_cmd: vm set_idle_pc SW3 0x6026b804 
Nov 27 16:19:01.076 HYPERVISOR: exec_cmd: c3725 set_mac_addr SW3 cccc.cccc.cccc 
Nov 27 16:19:01.077 HYPERVISOR: exec_cmd: vm set_exec_area SW3 16 
Nov 27 16:19:01.078 HYPERVISOR: exec_cmd: vm get_status SW3 
Nov 27 16:19:01.079 HYPERVISOR: exec_cmd: vm slot_add_binding SW3 1 0 NM-16ESW 
Nov 27 16:19:01.080 HYPERVISOR: exec_cmd: vm set_disk0 SW3 1 
Nov 27 16:19:01.081 HYPERVISOR: exec_cmd: vm set_ios SW3 /media/actionmystique/SAMSUNG5-VMs/Images/GNS3/IOS/c3725-adventerprisek9-mz.124-15.T10.image 
Nov 27 16:19:01.082 HYPERVISOR: exec_cmd: vm slot_add_binding SW3 0 16 WIC-2T 
Nov 27 16:19:01.083 HYPERVISOR: exec_cmd: vm set_config SW3 configs/i3_startup-config.cfg 
Nov 27 16:19:01.085 HYPERVISOR: exec_cmd: vm set_config SW3 configs/i3_startup-config.cfg configs/i3_private-config.cfg 
Nov 27 16:19:01.324 HYPERVISOR: exec_cmd: nio create_udp udp-59885a24-14e6-4ca1-8937-2f2f22afcc23 15004 127.0.0.1 15003 
Nov 27 16:19:01.324 HYPERVISOR: exec_cmd: vm slot_add_nio_binding SW3 1 1 udp-59885a24-14e6-4ca1-8937-2f2f22afcc23 
Nov 27 16:19:01.325 HYPERVISOR: exec_cmd: vm get_status SW3 
Nov 27 16:19:01.336 HYPERVISOR: exec_cmd: nio create_udp udp-8c4114b1-7842-460b-aa99-73a448cebbec 15006 127.0.0.1 15005 
Nov 27 16:19:01.339 HYPERVISOR: exec_cmd: vm slot_add_nio_binding SW3 1 2 udp-8c4114b1-7842-460b-aa99-73a448cebbec 
Nov 27 16:19:01.340 HYPERVISOR: exec_cmd: vm get_status SW3 
Nov 27 16:19:01.388 HYPERVISOR: exec_cmd: nio create_udp udp-758a9788-6773-4c69-b1f3-0baae9c9dc7f 15008 127.0.0.1 15009 
Nov 27 16:19:01.388 HYPERVISOR: exec_cmd: vm slot_add_nio_binding SW3 1 5 udp-758a9788-6773-4c69-b1f3-0baae9c9dc7f 
Nov 27 16:19:01.389 HYPERVISOR: exec_cmd: vm get_status SW3 
Nov 27 16:19:01.400 HYPERVISOR: exec_cmd: nio create_udp udp-d78ec5f3-a131-4e22-ab79-bb04901bae0f 15010 127.0.0.1 15011 
Nov 27 16:19:01.404 HYPERVISOR: exec_cmd: vm slot_add_nio_binding SW3 0 0 udp-d78ec5f3-a131-4e22-ab79-bb04901bae0f 
Nov 27 16:19:01.405 HYPERVISOR: exec_cmd: vm get_status SW3 
Nov 27 16:19:18.993 HYPERVISOR: exec_cmd: vm get_status SW3 
Nov 27 16:19:18.995 HYPERVISOR: exec_cmd: vm extract_config SW3 
Nov 27 16:19:18.998 HYPERVISOR: exec_cmd: vm delete SW3 
Nov 27 16:19:18.998 VM: VM SW3 destroyed.
Nov 27 16:19:19.000 HYPERVISOR: exec_cmd: hypervisor stop 
Nov 27 16:19:19.083 HYPERVISOR: Stopped.
Nov 27 16:19:19.083 GENERAL: reset done.
