Nov 26 20:49:03.619 HYPERVISOR: Release 0.2.17-amd64/Linux (tag 2017072410)
Nov 26 20:49:03.619 HYPERVISOR: Started on IP = 127.0.0.1, TCP port = 46115.
Nov 26 20:49:03.636 HYPERVISOR: exec_cmd: hypervisor version 
Nov 26 20:49:03.637 HYPERVISOR: exec_cmd: hypervisor working_dir /media/actionmystique/SAMSUNG5-VMs/Labs/GNS3/Virtual Links/project-files/dynamips 
Nov 26 20:49:03.637 GENERAL: working_dir=/media/actionmystique/SAMSUNG5-VMs/Labs/GNS3/Virtual Links/project-files/dynamips
Nov 26 20:49:03.638 HYPERVISOR: exec_cmd: vm create IR4 4 c7200 
Nov 26 20:49:03.638 VM: VM IR4 created.
Nov 26 20:49:03.639 HYPERVISOR: exec_cmd: vm set_con_tcp_port IR4 2002 
Nov 26 20:49:03.640 HYPERVISOR: exec_cmd: vm set_aux_tcp_port IR4 2103 
Nov 26 20:49:03.641 HYPERVISOR: exec_cmd: c7200 get_mac_addr IR4 
Nov 26 20:49:03.643 HYPERVISOR: exec_cmd: vm get_status IR4 
Nov 26 20:49:03.644 HYPERVISOR: exec_cmd: vm slot_add_binding IR4 0 0 C7200-IO-FE 
Nov 26 20:49:03.646 HYPERVISOR: exec_cmd: vm get_status IR4 
Nov 26 20:49:03.647 HYPERVISOR: exec_cmd: vm slot_remove_binding IR4 0 0 
Nov 26 20:49:03.649 HYPERVISOR: exec_cmd: vm get_status IR4 
Nov 26 20:49:03.650 HYPERVISOR: exec_cmd: vm slot_add_binding IR4 0 0 C7200-IO-GE-E 
Nov 26 20:49:03.652 HYPERVISOR: exec_cmd: vm get_status IR4 
Nov 26 20:49:03.654 HYPERVISOR: exec_cmd: vm slot_add_binding IR4 2 0 PA-GE 
Nov 26 20:49:03.655 HYPERVISOR: exec_cmd: vm set_ram IR4 512 
Nov 26 20:49:03.656 HYPERVISOR: exec_cmd: vm get_status IR4 
Nov 26 20:49:03.657 HYPERVISOR: exec_cmd: vm set_idle_pc IR4 0x62a29de4 
Nov 26 20:49:03.658 HYPERVISOR: exec_cmd: vm get_status IR4 
Nov 26 20:49:03.660 HYPERVISOR: exec_cmd: vm slot_add_binding IR4 1 0 PA-8T 
Nov 26 20:49:03.661 HYPERVISOR: exec_cmd: vm set_ios IR4 /media/actionmystique/SAMSUNG5-VMs/Images/GNS3/IOS/c7200-adventerprisek9-mz.152-4.M2.image 
Nov 26 20:49:03.662 HYPERVISOR: exec_cmd: vm set_config IR4 configs/i4_startup-config.cfg 
Nov 26 20:49:04.801 HYPERVISOR: exec_cmd: vm extract_config IR4 
Nov 26 20:49:04.828 HYPERVISOR: exec_cmd: nio create_udp udp-a26266e0-dea7-48fe-bef3-1bd1530ad938 15003 127.0.0.1 15000 
Nov 26 20:49:04.829 HYPERVISOR: exec_cmd: vm slot_add_nio_binding IR4 0 0 udp-a26266e0-dea7-48fe-bef3-1bd1530ad938 
Nov 26 20:49:04.829 HYPERVISOR: exec_cmd: vm get_status IR4 
Nov 26 20:49:04.929 HYPERVISOR: exec_cmd: nio create_udp udp-4edcb099-f852-4bda-b6e6-b05469f1467b 15011 127.0.0.1 15010 
Nov 26 20:49:04.930 HYPERVISOR: exec_cmd: vm slot_add_nio_binding IR4 1 0 udp-4edcb099-f852-4bda-b6e6-b05469f1467b 
Nov 26 20:49:04.930 HYPERVISOR: exec_cmd: vm get_status IR4 
Nov 26 20:50:03.768 HYPERVISOR: exec_cmd: vm get_status IR4 
Nov 26 20:50:03.775 HYPERVISOR: exec_cmd: vm extract_config IR4 
Nov 26 20:50:03.780 HYPERVISOR: exec_cmd: vm delete IR4 
Nov 26 20:50:03.780 VM: VM IR4 destroyed.
Nov 26 20:50:03.786 HYPERVISOR: exec_cmd: hypervisor stop 
Nov 26 20:50:04.192 HYPERVISOR: Stopped.
Nov 26 20:50:04.192 GENERAL: reset done.
