Nov 26 20:49:03.830 HYPERVISOR: Release 0.2.17-amd64/Linux (tag 2017072410)
Nov 26 20:49:03.830 HYPERVISOR: Started on IP = 127.0.0.1, TCP port = 55643.
Nov 26 20:49:03.869 HYPERVISOR: exec_cmd: hypervisor version 
Nov 26 20:49:03.879 HYPERVISOR: exec_cmd: hypervisor working_dir /media/actionmystique/SAMSUNG5-VMs/Labs/GNS3/Virtual Links/project-files/dynamips 
Nov 26 20:49:03.879 GENERAL: working_dir=/media/actionmystique/SAMSUNG5-VMs/Labs/GNS3/Virtual Links/project-files/dynamips
Nov 26 20:49:03.882 HYPERVISOR: exec_cmd: vm create BR2 14 c7200 
Nov 26 20:49:03.882 VM: VM BR2 created.
Nov 26 20:49:03.884 HYPERVISOR: exec_cmd: vm set_con_tcp_port BR2 2013 
Nov 26 20:49:03.886 HYPERVISOR: exec_cmd: vm set_aux_tcp_port BR2 2513 
Nov 26 20:49:03.887 HYPERVISOR: exec_cmd: c7200 get_mac_addr BR2 
Nov 26 20:49:03.888 HYPERVISOR: exec_cmd: vm get_status BR2 
Nov 26 20:49:03.890 HYPERVISOR: exec_cmd: vm slot_add_binding BR2 0 0 C7200-IO-FE 
Nov 26 20:49:03.891 HYPERVISOR: exec_cmd: vm get_status BR2 
Nov 26 20:49:03.893 HYPERVISOR: exec_cmd: vm slot_remove_binding BR2 0 0 
Nov 26 20:49:03.895 HYPERVISOR: exec_cmd: vm get_status BR2 
Nov 26 20:49:03.897 HYPERVISOR: exec_cmd: vm slot_add_binding BR2 0 0 C7200-IO-GE-E 
Nov 26 20:49:03.898 HYPERVISOR: exec_cmd: vm get_status BR2 
Nov 26 20:49:03.900 HYPERVISOR: exec_cmd: vm slot_add_binding BR2 2 0 PA-POS-OC3 
Nov 26 20:49:03.902 HYPERVISOR: exec_cmd: vm set_ram BR2 512 
Nov 26 20:49:03.908 HYPERVISOR: exec_cmd: vm get_status BR2 
Nov 26 20:49:03.920 HYPERVISOR: exec_cmd: vm set_idle_pc BR2 0x62a29de4 
Nov 26 20:49:03.922 HYPERVISOR: exec_cmd: vm get_status BR2 
Nov 26 20:49:03.928 HYPERVISOR: exec_cmd: vm slot_add_binding BR2 1 0 PA-GE 
Nov 26 20:49:03.939 HYPERVISOR: exec_cmd: vm get_status BR2 
Nov 26 20:49:03.941 HYPERVISOR: exec_cmd: vm slot_add_binding BR2 3 0 PA-POS-OC3 
Nov 26 20:49:03.943 HYPERVISOR: exec_cmd: vm set_ios BR2 /media/actionmystique/SAMSUNG5-VMs/Images/GNS3/IOS/c7200-adventerprisek9-mz.152-4.M2.image 
Nov 26 20:49:03.945 HYPERVISOR: exec_cmd: vm set_config BR2 configs/i14_startup-config.cfg 
Nov 26 20:49:04.799 HYPERVISOR: exec_cmd: vm extract_config BR2 
Nov 26 20:49:05.297 HYPERVISOR: exec_cmd: nio create_udp udp-18701a98-4dfd-4edf-bb78-b95bfb7006f1 15041 127.0.0.1 15038 
Nov 26 20:49:05.298 HYPERVISOR: exec_cmd: vm slot_add_nio_binding BR2 3 0 udp-18701a98-4dfd-4edf-bb78-b95bfb7006f1 
Nov 26 20:49:05.301 HYPERVISOR: exec_cmd: vm get_status BR2 
Nov 26 20:49:05.311 HYPERVISOR: exec_cmd: nio create_udp udp-94fffcd9-e407-4ecf-892b-7405847516f6 15043 127.0.0.1 15042 
Nov 26 20:49:05.312 HYPERVISOR: exec_cmd: vm slot_add_nio_binding BR2 2 0 udp-94fffcd9-e407-4ecf-892b-7405847516f6 
Nov 26 20:49:05.314 HYPERVISOR: exec_cmd: vm get_status BR2 
Nov 26 20:50:03.767 HYPERVISOR: exec_cmd: vm get_status BR2 
Nov 26 20:50:03.774 HYPERVISOR: exec_cmd: vm extract_config BR2 
Nov 26 20:50:03.779 HYPERVISOR: exec_cmd: vm delete BR2 
Nov 26 20:50:03.780 VM: VM BR2 destroyed.
Nov 26 20:50:03.785 HYPERVISOR: exec_cmd: hypervisor stop 
Nov 26 20:50:03.904 HYPERVISOR: Stopped.
Nov 26 20:50:03.904 GENERAL: reset done.
