Nov 26 21:55:43.133 HYPERVISOR: Release 0.2.17-amd64/Linux (tag 2017072410)
Nov 26 21:55:43.133 HYPERVISOR: Started on IP = 127.0.0.1, TCP port = 58627.
Nov 26 21:55:43.154 HYPERVISOR: exec_cmd: hypervisor version 
Nov 26 21:55:43.156 HYPERVISOR: exec_cmd: hypervisor working_dir /media/actionmystique/SAMSUNG5-VMs/Labs/GNS3/v1-linux-/project-files/dynamips 
Nov 26 21:55:43.156 GENERAL: working_dir=/media/actionmystique/SAMSUNG5-VMs/Labs/GNS3/v1-linux-/project-files/dynamips
Nov 26 21:55:43.158 HYPERVISOR: exec_cmd: vm create R4 8 c7200 
Nov 26 21:55:43.158 VM: VM R4 created.
Nov 26 21:55:43.160 HYPERVISOR: exec_cmd: vm set_con_tcp_port R4 2003 
Nov 26 21:55:43.162 HYPERVISOR: exec_cmd: c7200 get_mac_addr R4 
Nov 26 21:55:43.164 HYPERVISOR: exec_cmd: vm get_status R4 
Nov 26 21:55:43.169 HYPERVISOR: exec_cmd: vm slot_add_binding R4 0 0 C7200-IO-FE 
Nov 26 21:55:43.180 HYPERVISOR: exec_cmd: vm get_status R4 
Nov 26 21:55:43.182 HYPERVISOR: exec_cmd: vm set_idle_pc R4 0x6062f0e0 
Nov 26 21:55:43.188 HYPERVISOR: exec_cmd: vm get_status R4 
Nov 26 21:55:43.191 HYPERVISOR: exec_cmd: vm slot_add_binding R4 1 0 PA-GE 
Nov 26 21:55:43.193 HYPERVISOR: exec_cmd: vm set_nvram R4 256 
Nov 26 21:55:43.196 HYPERVISOR: exec_cmd: vm get_status R4 
Nov 26 21:55:43.202 HYPERVISOR: exec_cmd: vm slot_add_binding R4 3 0 PA-GE 
Nov 26 21:55:43.215 HYPERVISOR: exec_cmd: vm get_status R4 
Nov 26 21:55:43.217 HYPERVISOR: exec_cmd: vm slot_remove_binding R4 0 0 
Nov 26 21:55:43.219 HYPERVISOR: exec_cmd: vm get_status R4 
Nov 26 21:55:43.220 HYPERVISOR: exec_cmd: vm slot_add_binding R4 0 0 C7200-IO-GE-E 
Nov 26 21:55:43.221 HYPERVISOR: exec_cmd: vm get_status R4 
Nov 26 21:55:43.223 HYPERVISOR: exec_cmd: vm slot_add_binding R4 4 0 PA-4T+ 
Nov 26 21:55:43.225 HYPERVISOR: exec_cmd: vm get_status R4 
Nov 26 21:55:43.229 HYPERVISOR: exec_cmd: vm slot_add_binding R4 2 0 PA-GE 
Nov 26 21:55:43.231 HYPERVISOR: exec_cmd: vm set_ram R4 512 
Nov 26 21:55:43.232 HYPERVISOR: exec_cmd: vm get_status R4 
Nov 26 21:55:43.233 HYPERVISOR: exec_cmd: vm slot_add_binding R4 6 0 PA-POS-OC3 
Nov 26 21:55:43.234 HYPERVISOR: exec_cmd: c7200 set_mac_addr R4 ca08.2e77.0000 
Nov 26 21:55:43.235 HYPERVISOR: exec_cmd: vm set_disk0 R4 1 
Nov 26 21:55:43.236 HYPERVISOR: exec_cmd: vm set_ios R4 /media/actionmystique/SAMSUNG5-VMs/Images/GNS3/IOS/c7200-adventerprisek9-mz.152-4.M2.image 
Nov 26 21:55:43.237 HYPERVISOR: exec_cmd: vm get_status R4 
Nov 26 21:55:43.238 HYPERVISOR: exec_cmd: vm slot_add_binding R4 5 0 PA-POS-OC3 
Nov 26 21:55:43.245 HYPERVISOR: exec_cmd: vm set_config R4 configs/i8_startup-config.cfg 
Nov 26 21:55:43.246 HYPERVISOR: exec_cmd: vm set_config R4 configs/i8_startup-config.cfg configs/i8_private-config.cfg 
Nov 26 21:55:44.289 HYPERVISOR: exec_cmd: nio create_udp udp-a1542e6d-7a0f-4302-a844-41924ce3ea3b 15033 127.0.0.1 15035 
Nov 26 21:55:44.290 HYPERVISOR: exec_cmd: vm slot_add_nio_binding R4 0 0 udp-a1542e6d-7a0f-4302-a844-41924ce3ea3b 
Nov 26 21:55:44.291 HYPERVISOR: exec_cmd: vm get_status R4 
Nov 26 21:55:44.300 HYPERVISOR: exec_cmd: nio create_udp udp-dfeeba63-f2a5-49a9-ac1b-b5de5a7e8191 15037 127.0.0.1 15036 
Nov 26 21:55:44.301 HYPERVISOR: exec_cmd: vm slot_add_nio_binding R4 1 0 udp-dfeeba63-f2a5-49a9-ac1b-b5de5a7e8191 
Nov 26 21:55:44.301 HYPERVISOR: exec_cmd: vm get_status R4 
Nov 26 21:55:44.307 HYPERVISOR: exec_cmd: nio create_udp udp-a6361a4a-acdc-406d-8b24-4f904a05b0cf 15038 127.0.0.1 15040 
Nov 26 21:55:44.309 HYPERVISOR: exec_cmd: vm slot_add_nio_binding R4 4 0 udp-a6361a4a-acdc-406d-8b24-4f904a05b0cf 
Nov 26 21:55:44.309 HYPERVISOR: exec_cmd: vm get_status R4 
Nov 26 21:56:01.267 HYPERVISOR: exec_cmd: vm get_status R4 
Nov 26 21:56:01.270 HYPERVISOR: exec_cmd: vm extract_config R4 
Nov 26 21:56:01.278 HYPERVISOR: exec_cmd: vm delete R4 
Nov 26 21:56:01.278 VM: VM R4 destroyed.
Nov 26 21:56:01.281 HYPERVISOR: exec_cmd: hypervisor stop 
Nov 26 21:56:01.669 HYPERVISOR: Stopped.
Nov 26 21:56:01.669 GENERAL: reset done.
