Nov 26 21:55:43.298 HYPERVISOR: Release 0.2.17-amd64/Linux (tag 2017072410)
Nov 26 21:55:43.298 HYPERVISOR: Started on IP = 127.0.0.1, TCP port = 43649.
Nov 26 21:55:43.326 HYPERVISOR: exec_cmd: hypervisor version 
Nov 26 21:55:43.327 HYPERVISOR: exec_cmd: hypervisor working_dir /media/actionmystique/SAMSUNG5-VMs/Labs/GNS3/v1-linux-/project-files/dynamips 
Nov 26 21:55:43.327 GENERAL: working_dir=/media/actionmystique/SAMSUNG5-VMs/Labs/GNS3/v1-linux-/project-files/dynamips
Nov 26 21:55:43.330 HYPERVISOR: exec_cmd: vm create POP 10 c3725 
Nov 26 21:55:43.330 VM: VM POP created.
Nov 26 21:55:43.332 HYPERVISOR: exec_cmd: vm set_con_tcp_port POP 2017 
Nov 26 21:55:43.333 HYPERVISOR: exec_cmd: c3725 get_mac_addr POP 
Nov 26 21:55:43.334 HYPERVISOR: exec_cmd: vm slot_add_binding POP 0 16 WIC-2T 
Nov 26 21:55:43.335 HYPERVISOR: exec_cmd: vm get_status POP 
Nov 26 21:55:43.336 HYPERVISOR: exec_cmd: vm set_idle_pc POP 0x6026b804 
Nov 26 21:55:43.337 HYPERVISOR: exec_cmd: vm set_nvram POP 256 
Nov 26 21:55:43.338 HYPERVISOR: exec_cmd: vm get_status POP 
Nov 26 21:55:43.339 HYPERVISOR: exec_cmd: vm slot_add_binding POP 1 0 NM-16ESW 
Nov 26 21:55:43.341 HYPERVISOR: exec_cmd: vm set_ios POP /media/actionmystique/SAMSUNG5-VMs/Images/GNS3/IOS/c3725-adventerprisek9-mz.124-15.T10.image 
Nov 26 21:55:43.343 HYPERVISOR: exec_cmd: vm set_disk0 POP 1 
Nov 26 21:55:43.346 HYPERVISOR: exec_cmd: c3725 set_mac_addr POP c20a.12bf.0000 
Nov 26 21:55:43.353 HYPERVISOR: exec_cmd: vm set_config POP configs/i10_startup-config.cfg 
Nov 26 21:55:43.354 HYPERVISOR: exec_cmd: vm set_config POP configs/i10_startup-config.cfg configs/i10_private-config.cfg 
Nov 26 21:55:44.508 HYPERVISOR: exec_cmd: nio create_udp udp-66738013-5791-468e-bdb1-ee7c582d45ec 15054 127.0.0.1 15055 
Nov 26 21:55:44.509 HYPERVISOR: exec_cmd: vm slot_add_nio_binding POP 1 4 udp-66738013-5791-468e-bdb1-ee7c582d45ec 
Nov 26 21:55:44.509 HYPERVISOR: exec_cmd: vm get_status POP 
Nov 26 21:55:44.525 HYPERVISOR: exec_cmd: nio create_udp udp-c5a42c1a-7acb-4ffc-955a-8e54b36f5f64 15057 127.0.0.1 15056 
Nov 26 21:55:44.525 HYPERVISOR: exec_cmd: vm slot_add_nio_binding POP 1 3 udp-c5a42c1a-7acb-4ffc-955a-8e54b36f5f64 
Nov 26 21:55:44.526 HYPERVISOR: exec_cmd: vm get_status POP 
Nov 26 21:55:44.561 HYPERVISOR: exec_cmd: nio create_udp udp-906e9d17-cbcb-4f0e-973f-02303f1c92cc 15059 127.0.0.1 15058 
Nov 26 21:55:44.561 HYPERVISOR: exec_cmd: vm slot_add_nio_binding POP 1 2 udp-906e9d17-cbcb-4f0e-973f-02303f1c92cc 
Nov 26 21:55:44.561 HYPERVISOR: exec_cmd: vm get_status POP 
Nov 26 21:55:44.576 HYPERVISOR: exec_cmd: nio create_udp udp-b81937c5-3e9c-486a-946a-9cfccb937eb7 15061 127.0.0.1 15060 
Nov 26 21:55:44.577 HYPERVISOR: exec_cmd: vm slot_add_nio_binding POP 1 1 udp-b81937c5-3e9c-486a-946a-9cfccb937eb7 
Nov 26 21:55:44.577 HYPERVISOR: exec_cmd: vm get_status POP 
Nov 26 21:56:01.266 HYPERVISOR: exec_cmd: vm get_status POP 
Nov 26 21:56:01.270 HYPERVISOR: exec_cmd: vm extract_config POP 
Nov 26 21:56:01.272 HYPERVISOR: exec_cmd: vm delete POP 
Nov 26 21:56:01.272 VM: VM POP destroyed.
Nov 26 21:56:01.280 HYPERVISOR: exec_cmd: hypervisor stop 
Nov 26 21:56:01.341 HYPERVISOR: Stopped.
Nov 26 21:56:01.341 GENERAL: reset done.
