Nov 26 21:57:05.418 HYPERVISOR: Release 0.2.17-amd64/Linux (tag 2017072410)
Nov 26 21:57:05.418 HYPERVISOR: Started on IP = 127.0.0.1, TCP port = 43861.
Nov 26 21:57:05.477 HYPERVISOR: exec_cmd: hypervisor version 
Nov 26 21:57:05.478 HYPERVISOR: exec_cmd: hypervisor working_dir /media/actionmystique/SAMSUNG5-VMs/Labs/GNS3/v2-linux-/project-files/dynamips 
Nov 26 21:57:05.478 GENERAL: working_dir=/media/actionmystique/SAMSUNG5-VMs/Labs/GNS3/v2-linux-/project-files/dynamips
Nov 26 21:57:05.479 HYPERVISOR: exec_cmd: frsw create FR 
Nov 26 21:57:06.492 HYPERVISOR: exec_cmd: nio create_udp udp-0d749361-c4e7-4565-8d38-6394ad5fe3eb 15037 127.0.0.1 15036 
Nov 26 21:57:06.517 HYPERVISOR: exec_cmd: nio create_udp udp-00e2576a-488c-4260-b56e-70cd65927472 15038 127.0.0.1 15039 
Nov 26 21:57:06.544 HYPERVISOR: exec_cmd: nio create_udp udp-ecd9b816-1e8a-4a4b-96c0-8dd689e6e6ee 15041 127.0.0.1 15040 
Nov 26 21:57:06.544 HYPERVISOR: exec_cmd: frsw create_vc FR udp-ecd9b816-1e8a-4a4b-96c0-8dd689e6e6ee 201 udp-00e2576a-488c-4260-b56e-70cd65927472 102 
Nov 26 21:57:06.568 HYPERVISOR: exec_cmd: frsw create_vc FR udp-00e2576a-488c-4260-b56e-70cd65927472 102 udp-ecd9b816-1e8a-4a4b-96c0-8dd689e6e6ee 201 
Nov 26 21:57:06.586 HYPERVISOR: exec_cmd: nio create_udp udp-9972e522-cfe5-47bd-8ff1-db1e1f271036 15043 127.0.0.1 15042 
Nov 26 21:57:06.587 HYPERVISOR: exec_cmd: frsw create_vc FR udp-9972e522-cfe5-47bd-8ff1-db1e1f271036 302 udp-ecd9b816-1e8a-4a4b-96c0-8dd689e6e6ee 203 
Nov 26 21:57:06.604 HYPERVISOR: exec_cmd: frsw create_vc FR udp-ecd9b816-1e8a-4a4b-96c0-8dd689e6e6ee 203 udp-9972e522-cfe5-47bd-8ff1-db1e1f271036 302 
Nov 26 21:57:06.624 HYPERVISOR: exec_cmd: frsw create_vc FR udp-9972e522-cfe5-47bd-8ff1-db1e1f271036 304 udp-0d749361-c4e7-4565-8d38-6394ad5fe3eb 403 
Nov 26 21:57:06.644 HYPERVISOR: exec_cmd: frsw create_vc FR udp-0d749361-c4e7-4565-8d38-6394ad5fe3eb 403 udp-9972e522-cfe5-47bd-8ff1-db1e1f271036 304 
Nov 26 21:57:06.700 HYPERVISOR: exec_cmd: nio create_udp udp-c3aea81c-8ef9-4d7a-b0e1-2d21e72b60d4 15056 127.0.0.1 15054 
Nov 26 21:57:06.701 HYPERVISOR: exec_cmd: frsw create_vc FR udp-c3aea81c-8ef9-4d7a-b0e1-2d21e72b60d4 502 udp-ecd9b816-1e8a-4a4b-96c0-8dd689e6e6ee 205 
Nov 26 21:57:06.703 HYPERVISOR: exec_cmd: frsw create_vc FR udp-ecd9b816-1e8a-4a4b-96c0-8dd689e6e6ee 205 udp-c3aea81c-8ef9-4d7a-b0e1-2d21e72b60d4 502 
Nov 26 21:57:32.435 HYPERVISOR: exec_cmd: frsw delete FR 
Nov 26 21:57:32.593 HYPERVISOR: exec_cmd: hypervisor stop 
Nov 26 21:57:32.996 HYPERVISOR: Stopped.
Nov 26 21:57:32.996 GENERAL: reset done.
