Nov 26 21:56:43.766 HYPERVISOR: Release 0.2.17-amd64/Linux (tag 2017072410)
Nov 26 21:56:43.766 HYPERVISOR: Started on IP = 127.0.0.1, TCP port = 54545.
Nov 26 21:56:43.779 HYPERVISOR: exec_cmd: hypervisor version 
Nov 26 21:56:43.780 HYPERVISOR: exec_cmd: hypervisor working_dir /media/actionmystique/SAMSUNG5-VMs/Labs/GNS3/git-Public-Labs-Collection/CCNP/TBSHOOT/Exam-Topology/Jean-Christophe_Manciot/1+/v2-linux/project-files/dynamips 
Nov 26 21:56:43.780 GENERAL: working_dir=/media/actionmystique/SAMSUNG5-VMs/Labs/GNS3/git-Public-Labs-Collection/CCNP/TBSHOOT/Exam-Topology/Jean-Christophe_Manciot/1+/v2-linux/project-files/dynamips
Nov 26 21:56:43.781 HYPERVISOR: exec_cmd: frsw create FR 
Nov 26 21:56:44.772 HYPERVISOR: exec_cmd: nio create_udp udp-dc8a2266-42c3-46a1-8cac-635d0815d98e 15027 127.0.0.1 15026 
Nov 26 21:56:44.885 HYPERVISOR: exec_cmd: nio create_udp udp-46e9c409-fedd-4362-bc73-6e912e1cbe90 15039 127.0.0.1 15038 
Nov 26 21:56:44.917 HYPERVISOR: exec_cmd: nio create_udp udp-81c1f086-e2fa-4e15-bdff-384e1d51d1b0 15041 127.0.0.1 15040 
Nov 26 21:56:44.917 HYPERVISOR: exec_cmd: frsw create_vc FR udp-81c1f086-e2fa-4e15-bdff-384e1d51d1b0 201 udp-46e9c409-fedd-4362-bc73-6e912e1cbe90 102 
Nov 26 21:56:44.925 HYPERVISOR: exec_cmd: frsw create_vc FR udp-46e9c409-fedd-4362-bc73-6e912e1cbe90 102 udp-81c1f086-e2fa-4e15-bdff-384e1d51d1b0 201 
Nov 26 21:56:44.948 HYPERVISOR: exec_cmd: nio create_udp udp-5f22dad9-de3b-4eff-94a1-d620ad05084c 15043 127.0.0.1 15042 
Nov 26 21:56:44.952 HYPERVISOR: exec_cmd: frsw create_vc FR udp-5f22dad9-de3b-4eff-94a1-d620ad05084c 502 udp-81c1f086-e2fa-4e15-bdff-384e1d51d1b0 205 
Nov 26 21:56:44.964 HYPERVISOR: exec_cmd: frsw create_vc FR udp-81c1f086-e2fa-4e15-bdff-384e1d51d1b0 205 udp-5f22dad9-de3b-4eff-94a1-d620ad05084c 502 
Nov 26 21:56:45.101 HYPERVISOR: exec_cmd: nio create_udp udp-1890a387-d049-4f86-8a65-dcc3641d2e84 15059 127.0.0.1 15058 
Nov 26 21:56:45.101 HYPERVISOR: exec_cmd: frsw create_vc FR udp-1890a387-d049-4f86-8a65-dcc3641d2e84 302 udp-81c1f086-e2fa-4e15-bdff-384e1d51d1b0 203 
Nov 26 21:56:45.104 HYPERVISOR: exec_cmd: frsw create_vc FR udp-81c1f086-e2fa-4e15-bdff-384e1d51d1b0 203 udp-1890a387-d049-4f86-8a65-dcc3641d2e84 302 
Nov 26 21:56:45.125 HYPERVISOR: exec_cmd: frsw create_vc FR udp-1890a387-d049-4f86-8a65-dcc3641d2e84 304 udp-dc8a2266-42c3-46a1-8cac-635d0815d98e 403 
Nov 26 21:56:45.145 HYPERVISOR: exec_cmd: frsw create_vc FR udp-dc8a2266-42c3-46a1-8cac-635d0815d98e 403 udp-1890a387-d049-4f86-8a65-dcc3641d2e84 304 
