Nov 26 21:56:43.815 HYPERVISOR: Release 0.2.17-amd64/Linux (tag 2017072410)
Nov 26 21:56:43.816 HYPERVISOR: Started on IP = 127.0.0.1, TCP port = 60875.
Nov 26 21:56:43.869 HYPERVISOR: exec_cmd: hypervisor version 
Nov 26 21:56:43.870 HYPERVISOR: exec_cmd: hypervisor working_dir /media/actionmystique/SAMSUNG5-VMs/Labs/GNS3/git-Public-Labs-Collection/CCNP/TBSHOOT/Exam-Topology/Jean-Christophe_Manciot/1+/v2-linux/project-files/dynamips 
Nov 26 21:56:43.870 GENERAL: working_dir=/media/actionmystique/SAMSUNG5-VMs/Labs/GNS3/git-Public-Labs-Collection/CCNP/TBSHOOT/Exam-Topology/Jean-Christophe_Manciot/1+/v2-linux/project-files/dynamips
Nov 26 21:56:43.871 HYPERVISOR: exec_cmd: vm create R2 6 c7200 
Nov 26 21:56:43.871 VM: VM R2 created.
Nov 26 21:56:43.872 HYPERVISOR: exec_cmd: vm set_con_tcp_port R2 2001 
Nov 26 21:56:43.873 HYPERVISOR: exec_cmd: c7200 get_mac_addr R2 
Nov 26 21:56:43.874 HYPERVISOR: exec_cmd: vm get_status R2 
Nov 26 21:56:43.875 HYPERVISOR: exec_cmd: vm slot_add_binding R2 0 0 C7200-IO-FE 
Nov 26 21:56:43.876 HYPERVISOR: exec_cmd: vm get_status R2 
Nov 26 21:56:43.876 HYPERVISOR: exec_cmd: vm slot_add_binding R2 2 0 PA-GE 
Nov 26 21:56:43.877 HYPERVISOR: exec_cmd: vm get_status R2 
Nov 26 21:56:43.878 HYPERVISOR: exec_cmd: vm set_idle_pc R2 0x6062f0e0 
Nov 26 21:56:43.879 HYPERVISOR: exec_cmd: vm get_status R2 
Nov 26 21:56:43.879 HYPERVISOR: exec_cmd: vm slot_add_binding R2 1 0 PA-GE 
Nov 26 21:56:43.881 HYPERVISOR: exec_cmd: vm set_nvram R2 256 
Nov 26 21:56:43.890 HYPERVISOR: exec_cmd: vm get_status R2 
Nov 26 21:56:43.893 HYPERVISOR: exec_cmd: vm slot_add_binding R2 3 0 PA-GE 
Nov 26 21:56:43.894 HYPERVISOR: exec_cmd: vm get_status R2 
Nov 26 21:56:43.895 HYPERVISOR: exec_cmd: vm slot_remove_binding R2 0 0 
Nov 26 21:56:43.896 HYPERVISOR: exec_cmd: vm get_status R2 
Nov 26 21:56:43.897 HYPERVISOR: exec_cmd: vm slot_add_binding R2 0 0 C7200-IO-GE-E 
Nov 26 21:56:43.898 HYPERVISOR: exec_cmd: vm set_disk0 R2 1 
Nov 26 21:56:43.899 HYPERVISOR: exec_cmd: vm get_status R2 
Nov 26 21:56:43.900 HYPERVISOR: exec_cmd: vm slot_add_binding R2 4 0 PA-4T+ 
Nov 26 21:56:43.901 HYPERVISOR: exec_cmd: vm set_ram R2 512 
Nov 26 21:56:43.902 HYPERVISOR: exec_cmd: vm get_status R2 
Nov 26 21:56:43.904 HYPERVISOR: exec_cmd: vm slot_add_binding R2 6 0 PA-POS-OC3 
Nov 26 21:56:43.906 HYPERVISOR: exec_cmd: vm get_status R2 
Nov 26 21:56:43.915 HYPERVISOR: exec_cmd: vm slot_add_binding R2 5 0 PA-POS-OC3 
Nov 26 21:56:43.917 HYPERVISOR: exec_cmd: c7200 set_mac_addr R2 ca06.2e53.0000 
Nov 26 21:56:43.918 HYPERVISOR: exec_cmd: vm set_ios R2 /media/actionmystique/SAMSUNG5-VMs/Images/GNS3/IOS/c7200-adventerprisek9-mz.152-4.M2.image 
Nov 26 21:56:43.920 HYPERVISOR: exec_cmd: vm set_config R2 configs/i6_startup-config.cfg 
Nov 26 21:56:43.922 HYPERVISOR: exec_cmd: vm set_config R2 configs/i6_startup-config.cfg configs/i6_private-config.cfg 
Nov 26 21:56:44.901 HYPERVISOR: exec_cmd: nio create_udp udp-aa2783c2-6b34-4aa5-b0be-9f7d020db4fe 15040 127.0.0.1 15041 
Nov 26 21:56:44.901 HYPERVISOR: exec_cmd: vm slot_add_nio_binding R2 4 0 udp-aa2783c2-6b34-4aa5-b0be-9f7d020db4fe 
Nov 26 21:56:44.902 HYPERVISOR: exec_cmd: vm get_status R2 
