Sep 05 16:54:34.117 HYPERVISOR: Release 0.2.16-amd64/Linux (tag 2015060118)
Sep 05 16:54:34.117 HYPERVISOR: Started on IP = 127.0.0.1, TCP port = 51431.
Sep 05 16:54:34.129 HYPERVISOR: exec_cmd: hypervisor version 
Sep 05 16:54:34.129 HYPERVISOR: exec_cmd: hypervisor working_dir /media/actionmystique/SAMSUNG-850-Ext4/Labs/GNS3/CCNP/TBSHOOT/Infrastructure-Services/Device-Management/Telnet-SSH/Jean-Christophe_Manciot/1+/TT 2-solutions-linux/project-files/dynamips 
Sep 05 16:54:34.129 GENERAL: working_dir=/media/actionmystique/SAMSUNG-850-Ext4/Labs/GNS3/CCNP/TBSHOOT/Infrastructure-Services/Device-Management/Telnet-SSH/Jean-Christophe_Manciot/1+/TT 2-solutions-linux/project-files/dynamips
Sep 05 16:54:34.130 HYPERVISOR: exec_cmd: vm create ESW1 1 c3725 
Sep 05 16:54:34.130 VM: VM ESW1 created.
Sep 05 16:54:34.130 HYPERVISOR: exec_cmd: vm set_con_tcp_port ESW1 2004 
Sep 05 16:54:34.130 HYPERVISOR: exec_cmd: c3725 get_mac_addr ESW1 
Sep 05 16:54:34.131 HYPERVISOR: exec_cmd: c3725 set_mac_addr ESW1 c201.1a63.0000 
Sep 05 16:54:34.131 HYPERVISOR: exec_cmd: vm get_status ESW1 
Sep 05 16:54:34.131 HYPERVISOR: exec_cmd: vm set_idle_pc ESW1 0x60c06d20 
Sep 05 16:54:34.132 HYPERVISOR: exec_cmd: vm slot_add_binding ESW1 0 16 WIC-2T 
Sep 05 16:54:34.132 HYPERVISOR: exec_cmd: vm set_ios ESW1 /media/actionmystique/SAMSUNG-850-Ext4/Images/GNS3/IOS/c3725-adventerprisek9-mz.124-15.T10.image 
Sep 05 16:54:34.133 HYPERVISOR: exec_cmd: vm set_disk0 ESW1 1 
Sep 05 16:54:34.133 HYPERVISOR: exec_cmd: vm get_status ESW1 
Sep 05 16:54:34.134 HYPERVISOR: exec_cmd: vm slot_add_binding ESW1 1 0 NM-16ESW 
Sep 05 16:54:34.134 HYPERVISOR: exec_cmd: vm set_nvram ESW1 256 
Sep 05 16:54:34.134 HYPERVISOR: exec_cmd: vm set_config ESW1 configs/i1_startup-config.cfg 
Sep 05 16:54:34.135 HYPERVISOR: exec_cmd: vm set_config ESW1 configs/i1_startup-config.cfg configs/i1_private-config.cfg 
Sep 05 16:54:34.198 HYPERVISOR: exec_cmd: nio create_tap tap-d8754a2a-84bc-4791-97f7-9aec18fab483 tap0 
Sep 05 16:54:34.199 HYPERVISOR: exec_cmd: vm slot_add_nio_binding ESW1 1 1 tap-d8754a2a-84bc-4791-97f7-9aec18fab483 
Sep 05 16:54:34.200 HYPERVISOR: exec_cmd: vm get_status ESW1 
Sep 05 16:54:34.243 HYPERVISOR: exec_cmd: nio create_udp udp-85a2d257-fee5-43f2-bb06-a2c5e9c7148c 15004 127.0.0.1 15005 
Sep 05 16:54:34.249 HYPERVISOR: exec_cmd: vm slot_add_nio_binding ESW1 1 0 udp-85a2d257-fee5-43f2-bb06-a2c5e9c7148c 
Sep 05 16:54:34.249 HYPERVISOR: exec_cmd: vm get_status ESW1 
Sep 05 16:54:35.293 HYPERVISOR: exec_cmd: vm create Ghost 0 c3725 
Sep 05 16:54:35.293 VM: VM Ghost created.
Sep 05 16:54:35.295 HYPERVISOR: exec_cmd: vm set_ios Ghost /media/actionmystique/SAMSUNG-850-Ext4/Images/GNS3/IOS/c3725-adventerprisek9-mz.124-15.T10.image 
Sep 05 16:54:35.296 HYPERVISOR: exec_cmd: vm set_ghost_status Ghost 1 
Sep 05 16:54:35.297 HYPERVISOR: exec_cmd: vm set_ghost_file Ghost c3725-adventerprisek9-mz.124-15.T10.image-128.ghost 
Sep 05 16:54:35.297 HYPERVISOR: exec_cmd: vm get_status Ghost 
Sep 05 16:54:35.298 HYPERVISOR: exec_cmd: vm start Ghost 
Sep 05 16:54:35.560 HYPERVISOR: exec_cmd: vm get_status Ghost 
Sep 05 16:54:35.561 HYPERVISOR: exec_cmd: vm stop Ghost 
Sep 05 16:54:35.716 VM: VM Ghost shutdown.
Sep 05 16:54:35.717 HYPERVISOR: exec_cmd: vm clean_delete Ghost 
Sep 05 16:54:35.717 VM: VM Ghost destroyed.
Sep 05 16:54:35.718 HYPERVISOR: exec_cmd: vm set_ghost_status ESW1 2 
Sep 05 16:54:35.719 HYPERVISOR: exec_cmd: vm set_ghost_file ESW1 c3725-adventerprisek9-mz.124-15.T10.image-128.ghost 
Sep 05 16:54:35.719 HYPERVISOR: exec_cmd: vm get_status ESW1 
Sep 05 16:54:35.720 HYPERVISOR: exec_cmd: vm start ESW1 
Sep 05 16:59:42.551 HYPERVISOR: exec_cmd: vm extract_config ESW1 
Sep 05 16:59:47.804 HYPERVISOR: exec_cmd: vm get_status ESW1 
Sep 05 16:59:47.805 HYPERVISOR: exec_cmd: vm stop ESW1 
Sep 05 16:59:47.899 VM: VM ESW1 shutdown.
Sep 05 16:59:47.900 HYPERVISOR: exec_cmd: vm extract_config ESW1 
Sep 05 16:59:49.623 HYPERVISOR: exec_cmd: vm get_status ESW1 
Sep 05 16:59:49.625 HYPERVISOR: exec_cmd: vm extract_config ESW1 
Sep 05 16:59:49.627 HYPERVISOR: exec_cmd: vm delete ESW1 
Sep 05 16:59:49.627 VM: VM ESW1 destroyed.
Sep 05 16:59:49.627 HYPERVISOR: exec_cmd: hypervisor stop 
Sep 05 16:59:49.893 HYPERVISOR: Stopped.
Sep 05 16:59:49.893 GENERAL: reset done.
