Nov 26 20:44:10.312 HYPERVISOR: Release 0.2.17-amd64/Linux (tag 2017072410)
Nov 26 20:44:10.312 HYPERVISOR: Started on IP = 127.0.0.1, TCP port = 56743.
Nov 26 20:44:10.338 HYPERVISOR: exec_cmd: hypervisor version 
Nov 26 20:44:10.340 HYPERVISOR: exec_cmd: hypervisor working_dir /media/actionmystique/SAMSUNG5-VMs/Labs/GNS3/Redistribution/project-files/dynamips 
Nov 26 20:44:10.340 GENERAL: working_dir=/media/actionmystique/SAMSUNG5-VMs/Labs/GNS3/Redistribution/project-files/dynamips
Nov 26 20:44:10.341 HYPERVISOR: exec_cmd: vm create RD9 11 c7200 
Nov 26 20:44:10.341 VM: VM RD9 created.
Nov 26 20:44:10.343 HYPERVISOR: exec_cmd: vm set_con_tcp_port RD9 2009 
Nov 26 20:44:10.345 HYPERVISOR: exec_cmd: vm set_aux_tcp_port RD9 2109 
Nov 26 20:44:10.351 HYPERVISOR: exec_cmd: c7200 get_mac_addr RD9 
Nov 26 20:44:10.363 HYPERVISOR: exec_cmd: vm get_status RD9 
Nov 26 20:44:10.365 HYPERVISOR: exec_cmd: vm slot_add_binding RD9 0 0 C7200-IO-FE 
Nov 26 20:44:10.366 HYPERVISOR: exec_cmd: vm get_status RD9 
Nov 26 20:44:10.367 HYPERVISOR: exec_cmd: vm slot_remove_binding RD9 0 0 
Nov 26 20:44:10.369 HYPERVISOR: exec_cmd: vm get_status RD9 
Nov 26 20:44:10.372 HYPERVISOR: exec_cmd: vm slot_add_binding RD9 0 0 C7200-IO-GE-E 
Nov 26 20:44:10.383 HYPERVISOR: exec_cmd: vm set_ram RD9 512 
Nov 26 20:44:10.391 HYPERVISOR: exec_cmd: vm get_status RD9 
Nov 26 20:44:10.403 HYPERVISOR: exec_cmd: vm set_idle_pc RD9 0x60188e14 
Nov 26 20:44:10.410 HYPERVISOR: exec_cmd: vm get_status RD9 
Nov 26 20:44:10.421 HYPERVISOR: exec_cmd: vm slot_add_binding RD9 1 0 PA-8T 
Nov 26 20:44:10.424 HYPERVISOR: exec_cmd: vm set_ios RD9 /media/actionmystique/SAMSUNG5-VMs/Images/GNS3/IOS/c7200-adventerprisek9-mz.152-4.M2.image 
Nov 26 20:44:10.426 HYPERVISOR: exec_cmd: vm set_config RD9 configs/i11_startup-config.cfg 
Nov 26 20:44:11.187 HYPERVISOR: exec_cmd: vm extract_config RD9 
Nov 26 20:44:11.513 HYPERVISOR: exec_cmd: nio create_udp udp-080eeb3e-46e8-48c5-8f46-45e56352493c 15033 127.0.0.1 15031 
Nov 26 20:44:11.516 HYPERVISOR: exec_cmd: vm slot_add_nio_binding RD9 1 0 udp-080eeb3e-46e8-48c5-8f46-45e56352493c 
Nov 26 20:44:11.517 HYPERVISOR: exec_cmd: vm get_status RD9 
Nov 26 20:44:11.528 HYPERVISOR: exec_cmd: nio create_udp udp-4eefa736-8b9a-4ea4-8113-1784c7350654 15035 127.0.0.1 15034 
Nov 26 20:44:11.528 HYPERVISOR: exec_cmd: vm slot_add_nio_binding RD9 1 1 udp-4eefa736-8b9a-4ea4-8113-1784c7350654 
Nov 26 20:44:11.529 HYPERVISOR: exec_cmd: vm get_status RD9 
Nov 26 20:44:47.081 HYPERVISOR: exec_cmd: vm extract_config RD9 
Nov 26 20:45:10.989 HYPERVISOR: exec_cmd: vm get_status RD9 
Nov 26 20:45:10.994 HYPERVISOR: exec_cmd: vm extract_config RD9 
Nov 26 20:45:10.998 HYPERVISOR: exec_cmd: vm delete RD9 
Nov 26 20:45:10.998 VM: VM RD9 destroyed.
Nov 26 20:45:11.002 HYPERVISOR: exec_cmd: hypervisor stop 
Nov 26 20:45:11.398 HYPERVISOR: Stopped.
Nov 26 20:45:11.398 GENERAL: reset done.
