Nov 26 21:04:08.337 HYPERVISOR: Release 0.2.17-amd64/Linux (tag 2017072410)
Nov 26 21:04:08.337 HYPERVISOR: Started on IP = 127.0.0.1, TCP port = 50311.
Nov 26 21:04:08.367 HYPERVISOR: exec_cmd: hypervisor version 
Nov 26 21:04:08.368 HYPERVISOR: exec_cmd: hypervisor working_dir /media/actionmystique/SAMSUNG5-VMs/Labs/GNS3/PVST+ GLBP/project-files/dynamips 
Nov 26 21:04:08.368 GENERAL: working_dir=/media/actionmystique/SAMSUNG5-VMs/Labs/GNS3/PVST+ GLBP/project-files/dynamips
Nov 26 21:04:08.374 HYPERVISOR: exec_cmd: vm create GooglISP 17 c7200 
Nov 26 21:04:08.374 VM: VM GooglISP created.
Nov 26 21:04:08.387 HYPERVISOR: exec_cmd: vm set_con_tcp_port GooglISP 2122 
Nov 26 21:04:08.389 HYPERVISOR: exec_cmd: vm set_aux_tcp_port GooglISP 2522 
Nov 26 21:04:08.391 HYPERVISOR: exec_cmd: c7200 get_mac_addr GooglISP 
Nov 26 21:04:08.393 HYPERVISOR: exec_cmd: vm get_status GooglISP 
Nov 26 21:04:08.394 HYPERVISOR: exec_cmd: vm slot_add_binding GooglISP 0 0 C7200-IO-FE 
Nov 26 21:04:08.401 HYPERVISOR: exec_cmd: vm get_status GooglISP 
Nov 26 21:04:08.406 HYPERVISOR: exec_cmd: vm slot_add_binding GooglISP 2 0 PA-FE-TX 
Nov 26 21:04:08.408 HYPERVISOR: exec_cmd: vm set_ram GooglISP 512 
Nov 26 21:04:08.415 HYPERVISOR: exec_cmd: vm get_status GooglISP 
Nov 26 21:04:08.417 HYPERVISOR: exec_cmd: vm set_idle_pc GooglISP 0x60188e14 
Nov 26 21:04:08.418 HYPERVISOR: exec_cmd: vm get_status GooglISP 
Nov 26 21:04:08.419 HYPERVISOR: exec_cmd: vm slot_add_binding GooglISP 1 0 PA-POS-OC3 
Nov 26 21:04:08.420 HYPERVISOR: exec_cmd: vm get_status GooglISP 
Nov 26 21:04:08.421 HYPERVISOR: exec_cmd: vm slot_add_binding GooglISP 3 0 PA-FE-TX 
Nov 26 21:04:08.422 HYPERVISOR: exec_cmd: vm get_status GooglISP 
Nov 26 21:04:08.428 HYPERVISOR: exec_cmd: vm slot_add_binding GooglISP 4 0 PA-FE-TX 
Nov 26 21:04:08.430 HYPERVISOR: exec_cmd: vm set_ios GooglISP /media/actionmystique/SAMSUNG5-VMs/Images/GNS3/IOS/c7200-adventerprisek9-mz.152-4.M2.image 
Nov 26 21:04:08.432 HYPERVISOR: exec_cmd: vm get_status GooglISP 
Nov 26 21:04:08.437 HYPERVISOR: exec_cmd: vm slot_add_binding GooglISP 5 0 PA-FE-TX 
Nov 26 21:04:08.439 HYPERVISOR: exec_cmd: vm set_config GooglISP configs/i17_startup-config.cfg 
Nov 26 21:04:09.607 HYPERVISOR: exec_cmd: vm extract_config GooglISP 
Nov 26 21:04:10.240 HYPERVISOR: exec_cmd: nio create_udp udp-95ac0d66-d254-4a27-8ca6-9b0f2f117d96 15062 127.0.0.1 15064 
Nov 26 21:04:10.240 HYPERVISOR: exec_cmd: vm slot_add_nio_binding GooglISP 0 0 udp-95ac0d66-d254-4a27-8ca6-9b0f2f117d96 
Nov 26 21:04:10.241 HYPERVISOR: exec_cmd: vm get_status GooglISP 
Nov 26 21:04:10.255 HYPERVISOR: exec_cmd: nio create_udp udp-5193ca73-85f3-414d-a189-98f6b6a033f1 15063 127.0.0.1 15065 
Nov 26 21:04:10.256 HYPERVISOR: exec_cmd: vm slot_add_nio_binding GooglISP 2 0 udp-5193ca73-85f3-414d-a189-98f6b6a033f1 
Nov 26 21:04:10.256 HYPERVISOR: exec_cmd: vm get_status GooglISP 
Nov 26 21:04:10.281 HYPERVISOR: exec_cmd: nio create_udp udp-fa78fff7-706e-4eab-9710-f57c3fcbd0c5 15066 127.0.0.1 15067 
Nov 26 21:04:10.281 HYPERVISOR: exec_cmd: vm slot_add_nio_binding GooglISP 3 0 udp-fa78fff7-706e-4eab-9710-f57c3fcbd0c5 
Nov 26 21:04:10.281 HYPERVISOR: exec_cmd: vm get_status GooglISP 
Nov 26 21:04:10.296 HYPERVISOR: exec_cmd: nio create_udp udp-4d05076b-b515-4915-a35a-496fecf156c0 15069 127.0.0.1 15068 
Nov 26 21:04:10.296 HYPERVISOR: exec_cmd: vm slot_add_nio_binding GooglISP 4 0 udp-4d05076b-b515-4915-a35a-496fecf156c0 
Nov 26 21:04:10.297 HYPERVISOR: exec_cmd: vm get_status GooglISP 
Nov 26 21:04:10.312 HYPERVISOR: exec_cmd: nio create_udp udp-44919f17-7fea-41c2-8ceb-980b4b9f8092 15070 127.0.0.1 15071 
Nov 26 21:04:10.313 HYPERVISOR: exec_cmd: vm slot_add_nio_binding GooglISP 5 0 udp-44919f17-7fea-41c2-8ceb-980b4b9f8092 
Nov 26 21:04:10.313 HYPERVISOR: exec_cmd: vm get_status GooglISP 
Nov 26 21:04:10.336 HYPERVISOR: exec_cmd: nio create_udp udp-6d5f7f1d-af20-483f-b47c-460f04bc1a37 15072 127.0.0.1 15073 
Nov 26 21:04:10.336 HYPERVISOR: exec_cmd: vm slot_add_nio_binding GooglISP 1 0 udp-6d5f7f1d-af20-483f-b47c-460f04bc1a37 
Nov 26 21:04:10.337 HYPERVISOR: exec_cmd: vm get_status GooglISP 
Nov 26 21:04:36.144 HYPERVISOR: exec_cmd: vm get_status GooglISP 
Nov 26 21:04:36.150 HYPERVISOR: exec_cmd: vm extract_config GooglISP 
Nov 26 21:04:36.156 HYPERVISOR: exec_cmd: vm delete GooglISP 
Nov 26 21:04:36.156 VM: VM GooglISP destroyed.
Nov 26 21:04:36.161 HYPERVISOR: exec_cmd: hypervisor stop 
Nov 26 21:04:36.393 HYPERVISOR: Stopped.
Nov 26 21:04:36.393 GENERAL: reset done.
