Nov 26 21:04:39.806 HYPERVISOR: Release 0.2.17-amd64/Linux (tag 2017072410)
Nov 26 21:04:39.806 HYPERVISOR: Started on IP = 127.0.0.1, TCP port = 56097.
Nov 26 21:04:39.815 HYPERVISOR: exec_cmd: hypervisor version 
Nov 26 21:04:39.816 HYPERVISOR: exec_cmd: hypervisor working_dir /media/actionmystique/SAMSUNG5-VMs/Labs/GNS3/PVST+ EtherChannel VRRP/project-files/dynamips 
Nov 26 21:04:39.816 GENERAL: working_dir=/media/actionmystique/SAMSUNG5-VMs/Labs/GNS3/PVST+ EtherChannel VRRP/project-files/dynamips
Nov 26 21:04:39.817 HYPERVISOR: exec_cmd: vm create SW2 2 c3725 
Nov 26 21:04:39.818 VM: VM SW2 created.
Nov 26 21:04:39.819 HYPERVISOR: exec_cmd: vm set_con_tcp_port SW2 2002 
Nov 26 21:04:39.820 HYPERVISOR: exec_cmd: vm set_aux_tcp_port SW2 2502 
Nov 26 21:04:39.821 HYPERVISOR: exec_cmd: c3725 get_mac_addr SW2 
Nov 26 21:04:39.822 HYPERVISOR: exec_cmd: vm set_ios SW2 /media/actionmystique/SAMSUNG5-VMs/Images/GNS3/IOS/c3725-adventerprisek9-mz.124-15.T10.image 
Nov 26 21:04:39.823 HYPERVISOR: exec_cmd: vm set_ram SW2 256 
Nov 26 21:04:39.825 HYPERVISOR: exec_cmd: vm get_status SW2 
Nov 26 21:04:39.826 HYPERVISOR: exec_cmd: vm set_idle_pc SW2 0x6026b804 
Nov 26 21:04:39.831 HYPERVISOR: exec_cmd: vm get_status SW2 
Nov 26 21:04:39.843 HYPERVISOR: exec_cmd: vm slot_add_binding SW2 1 0 NM-16ESW 
Nov 26 21:04:39.845 HYPERVISOR: exec_cmd: vm set_config SW2 configs/i2_startup-config.cfg 
Nov 26 21:04:40.912 HYPERVISOR: exec_cmd: vm extract_config SW2 
Nov 26 21:04:40.916 HYPERVISOR: exec_cmd: nio create_udp udp-8b3251fe-3d13-4c51-b32c-a8aeedc2709f 15000 127.0.0.1 15001 
Nov 26 21:04:40.917 HYPERVISOR: exec_cmd: vm slot_add_nio_binding SW2 1 3 udp-8b3251fe-3d13-4c51-b32c-a8aeedc2709f 
Nov 26 21:04:40.918 HYPERVISOR: exec_cmd: vm get_status SW2 
Nov 26 21:04:40.944 HYPERVISOR: exec_cmd: nio create_udp udp-62a5741a-b247-45c0-90bc-69cb78367592 15002 127.0.0.1 15003 
Nov 26 21:04:40.945 HYPERVISOR: exec_cmd: vm slot_add_nio_binding SW2 1 7 udp-62a5741a-b247-45c0-90bc-69cb78367592 
Nov 26 21:04:40.945 HYPERVISOR: exec_cmd: vm get_status SW2 
Nov 26 21:04:40.968 HYPERVISOR: exec_cmd: nio create_udp udp-5f4b1bc1-72f6-4a13-b98e-d2ccb08295c9 15004 127.0.0.1 15005 
Nov 26 21:04:40.969 HYPERVISOR: exec_cmd: vm slot_add_nio_binding SW2 1 8 udp-5f4b1bc1-72f6-4a13-b98e-d2ccb08295c9 
Nov 26 21:04:40.969 HYPERVISOR: exec_cmd: vm get_status SW2 
Nov 26 21:04:40.984 HYPERVISOR: exec_cmd: nio create_udp udp-bcd6eb57-9ac1-4aab-8816-3d8971d8ebc3 15006 127.0.0.1 15008 
Nov 26 21:04:40.984 HYPERVISOR: exec_cmd: vm slot_add_nio_binding SW2 1 9 udp-bcd6eb57-9ac1-4aab-8816-3d8971d8ebc3 
Nov 26 21:04:40.985 HYPERVISOR: exec_cmd: vm get_status SW2 
Nov 26 21:04:41.032 HYPERVISOR: exec_cmd: nio create_udp udp-ebd0507d-b3e0-47f1-b4d1-f3a694ba4f07 15011 127.0.0.1 15012 
Nov 26 21:04:41.033 HYPERVISOR: exec_cmd: vm slot_add_nio_binding SW2 1 0 udp-ebd0507d-b3e0-47f1-b4d1-f3a694ba4f07 
Nov 26 21:04:41.033 HYPERVISOR: exec_cmd: vm get_status SW2 
Nov 26 21:04:41.204 HYPERVISOR: exec_cmd: nio create_udp udp-7248feae-de7e-4687-82fd-5ce0e092189f 15026 127.0.0.1 15029 
Nov 26 21:04:41.205 HYPERVISOR: exec_cmd: vm slot_add_nio_binding SW2 1 11 udp-7248feae-de7e-4687-82fd-5ce0e092189f 
Nov 26 21:04:41.205 HYPERVISOR: exec_cmd: vm get_status SW2 
Nov 26 21:04:41.240 HYPERVISOR: exec_cmd: nio create_udp udp-9028ef73-e9a4-43db-ac2c-6ff8c039200a 15030 127.0.0.1 15033 
Nov 26 21:04:41.241 HYPERVISOR: exec_cmd: vm slot_add_nio_binding SW2 1 2 udp-9028ef73-e9a4-43db-ac2c-6ff8c039200a 
Nov 26 21:04:41.241 HYPERVISOR: exec_cmd: vm get_status SW2 
Nov 26 21:04:41.388 HYPERVISOR: exec_cmd: nio create_udp udp-c84170b1-ba00-42a3-b299-52156bcd89e5 15046 127.0.0.1 15047 
Nov 26 21:04:41.389 HYPERVISOR: exec_cmd: vm slot_add_nio_binding SW2 1 1 udp-c84170b1-ba00-42a3-b299-52156bcd89e5 
Nov 26 21:04:41.389 HYPERVISOR: exec_cmd: vm get_status SW2 
Nov 26 21:04:41.403 HYPERVISOR: exec_cmd: nio create_udp udp-0b23216f-c86c-483e-8d0a-a2d77a4dcc83 15048 127.0.0.1 15049 
Nov 26 21:04:41.404 HYPERVISOR: exec_cmd: vm slot_add_nio_binding SW2 1 10 udp-0b23216f-c86c-483e-8d0a-a2d77a4dcc83 
Nov 26 21:04:41.405 HYPERVISOR: exec_cmd: vm get_status SW2 
Nov 26 21:04:41.508 HYPERVISOR: exec_cmd: nio create_udp udp-f2daf86c-109c-4ad5-a2d8-8e472dcca771 15058 127.0.0.1 15059 
Nov 26 21:04:41.509 HYPERVISOR: exec_cmd: vm slot_add_nio_binding SW2 0 0 udp-f2daf86c-109c-4ad5-a2d8-8e472dcca771 
Nov 26 21:04:41.509 HYPERVISOR: exec_cmd: vm get_status SW2 
Nov 26 21:54:01.425 HYPERVISOR: exec_cmd: vm get_status SW2 
Nov 26 21:54:01.428 HYPERVISOR: exec_cmd: vm extract_config SW2 
Nov 26 21:54:01.472 HYPERVISOR: exec_cmd: vm delete SW2 
Nov 26 21:54:01.472 VM: VM SW2 destroyed.
Nov 26 21:54:01.477 HYPERVISOR: exec_cmd: hypervisor stop 
Nov 26 21:54:01.942 HYPERVISOR: Stopped.
Nov 26 21:54:01.942 GENERAL: reset done.
