Dec 04 11:07:56.849 HYPERVISOR: Release 0.2.17-amd64/Linux (tag 2017072410)
Dec 04 11:07:56.849 HYPERVISOR: Started on IP = 127.0.0.1, TCP port = 55469.
Dec 04 11:07:56.860 HYPERVISOR: exec_cmd: hypervisor version 
Dec 04 11:07:56.862 HYPERVISOR: exec_cmd: hypervisor working_dir /media/actionmystique/SAMSUNG5-VMs/Labs/GNS3/git-Public-Labs-Collection/CCNP/TBSHOOT/L3-Technologies/IPv6/Routing-Protocols/OSPFv3/Jean-Christophe_Manciot/1+/TT 2-solutions-linux/project-files/dynamips 
Dec 04 11:07:56.862 GENERAL: working_dir=/media/actionmystique/SAMSUNG5-VMs/Labs/GNS3/git-Public-Labs-Collection/CCNP/TBSHOOT/L3-Technologies/IPv6/Routing-Protocols/OSPFv3/Jean-Christophe_Manciot/1+/TT 2-solutions-linux/project-files/dynamips
Dec 04 11:07:56.863 HYPERVISOR: exec_cmd: vm create ESW1 1 c3725 
Dec 04 11:07:56.863 VM: VM ESW1 created.
Dec 04 11:07:56.864 HYPERVISOR: exec_cmd: vm set_con_tcp_port ESW1 2004 
Dec 04 11:07:56.865 HYPERVISOR: exec_cmd: c3725 get_mac_addr ESW1 
Dec 04 11:07:56.866 HYPERVISOR: exec_cmd: vm set_nvram ESW1 256 
Dec 04 11:07:56.868 HYPERVISOR: exec_cmd: vm set_ios ESW1 /media/actionmystique/SAMSUNG5-VMs/Images/GNS3/IOS/c3725-adventerprisek9-mz.124-15.T10.image 
Dec 04 11:07:56.870 HYPERVISOR: exec_cmd: c3725 set_mac_addr ESW1 c201.1b91.0000 
Dec 04 11:07:56.874 HYPERVISOR: exec_cmd: vm get_status ESW1 
Dec 04 11:07:56.875 HYPERVISOR: exec_cmd: vm slot_add_binding ESW1 1 0 NM-16ESW 
Dec 04 11:07:56.878 HYPERVISOR: exec_cmd: vm get_status ESW1 
Dec 04 11:07:56.880 HYPERVISOR: exec_cmd: vm set_idle_pc ESW1 0x60c05928 
Dec 04 11:07:56.882 HYPERVISOR: exec_cmd: vm set_disk0 ESW1 1 
Dec 04 11:07:56.883 HYPERVISOR: exec_cmd: vm slot_add_binding ESW1 0 16 WIC-2T 
Dec 04 11:07:56.884 HYPERVISOR: exec_cmd: vm set_config ESW1 configs/ios_base_startup-config.txt 
Dec 04 11:07:56.887 HYPERVISOR: exec_cmd: vm set_config ESW1 configs/ios_base_startup-config.txt configs/ios_base_private-config.txt 
Dec 04 11:07:57.185 HYPERVISOR: exec_cmd: nio create_udp udp-f89dbc17-d459-456f-9d82-d22f9e361775 15002 127.0.0.1 15006 
Dec 04 11:07:57.188 HYPERVISOR: exec_cmd: vm slot_add_nio_binding ESW1 1 0 udp-f89dbc17-d459-456f-9d82-d22f9e361775 
Dec 04 11:07:57.189 HYPERVISOR: exec_cmd: vm get_status ESW1 
Dec 04 11:07:57.204 HYPERVISOR: exec_cmd: nio create_udp udp-6cd7f8b4-12d3-4284-826f-83d9555dfe4c 15005 127.0.0.1 15007 
Dec 04 11:07:57.220 HYPERVISOR: exec_cmd: vm slot_add_nio_binding ESW1 1 1 udp-6cd7f8b4-12d3-4284-826f-83d9555dfe4c 
Dec 04 11:07:57.222 HYPERVISOR: exec_cmd: vm get_status ESW1 
