Nov 26 20:45:13.524 HYPERVISOR: Release 0.2.17-amd64/Linux (tag 2017072410)
Nov 26 20:45:13.524 HYPERVISOR: Started on IP = 127.0.0.1, TCP port = 58001.
Nov 26 20:45:13.539 HYPERVISOR: exec_cmd: hypervisor version 
Nov 26 20:45:13.540 HYPERVISOR: exec_cmd: hypervisor working_dir /media/actionmystique/SAMSUNG5-VMs/Labs/GNS3/MCT and GRE Tunnels/project-files/dynamips 
Nov 26 20:45:13.540 GENERAL: working_dir=/media/actionmystique/SAMSUNG5-VMs/Labs/GNS3/MCT and GRE Tunnels/project-files/dynamips
Nov 26 20:45:13.541 HYPERVISOR: exec_cmd: vm create R8 2 c7200 
Nov 26 20:45:13.541 VM: VM R8 created.
Nov 26 20:45:13.542 HYPERVISOR: exec_cmd: vm set_con_tcp_port R8 2001 
Nov 26 20:45:13.542 HYPERVISOR: exec_cmd: vm set_aux_tcp_port R8 2100 
Nov 26 20:45:13.543 HYPERVISOR: exec_cmd: c7200 get_mac_addr R8 
Nov 26 20:45:13.543 HYPERVISOR: exec_cmd: vm get_status R8 
Nov 26 20:45:13.543 HYPERVISOR: exec_cmd: vm slot_add_binding R8 0 0 C7200-IO-FE 
Nov 26 20:45:13.544 HYPERVISOR: exec_cmd: vm get_status R8 
Nov 26 20:45:13.544 HYPERVISOR: exec_cmd: vm slot_remove_binding R8 0 0 
Nov 26 20:45:13.545 HYPERVISOR: exec_cmd: vm get_status R8 
Nov 26 20:45:13.545 HYPERVISOR: exec_cmd: vm slot_add_binding R8 0 0 C7200-IO-GE-E 
Nov 26 20:45:13.545 HYPERVISOR: exec_cmd: vm set_ram R8 512 
Nov 26 20:45:13.546 HYPERVISOR: exec_cmd: vm get_status R8 
Nov 26 20:45:13.546 HYPERVISOR: exec_cmd: vm set_idle_pc R8 0x606dd06c 
Nov 26 20:45:13.546 HYPERVISOR: exec_cmd: vm get_status R8 
Nov 26 20:45:13.548 HYPERVISOR: exec_cmd: vm slot_add_binding R8 1 0 PA-8T 
Nov 26 20:45:13.549 HYPERVISOR: exec_cmd: vm set_con_tcp_port R8 2001 
Nov 26 20:45:13.550 HYPERVISOR: exec_cmd: vm set_ios R8 /media/actionmystique/SAMSUNG5-VMs/Images/GNS3/IOS/c7200-adventerprisek9-mz.152-4.M2.image 
Nov 26 20:45:13.552 HYPERVISOR: exec_cmd: vm set_config R8 configs/i2_startup-config.cfg 
Nov 26 20:45:14.325 HYPERVISOR: exec_cmd: nio create_udp udp-5d5e69bf-3119-4fde-8c3d-40da99c0ee38 15003 127.0.0.1 15000 
Nov 26 20:45:14.328 HYPERVISOR: exec_cmd: vm slot_add_nio_binding R8 0 0 udp-5d5e69bf-3119-4fde-8c3d-40da99c0ee38 
Nov 26 20:45:14.329 HYPERVISOR: exec_cmd: vm get_status R8 
Nov 26 20:45:14.363 HYPERVISOR: exec_cmd: vm extract_config R8 
Nov 26 20:45:14.436 HYPERVISOR: exec_cmd: nio create_udp udp-47a55960-124b-4682-94fc-cec3388995b9 15005 127.0.0.1 15009 
Nov 26 20:45:14.437 HYPERVISOR: exec_cmd: vm slot_add_nio_binding R8 1 0 udp-47a55960-124b-4682-94fc-cec3388995b9 
Nov 26 20:45:14.437 HYPERVISOR: exec_cmd: vm get_status R8 
Nov 26 20:45:14.624 HYPERVISOR: exec_cmd: nio create_udp udp-77c6568b-83aa-4e0e-8739-8b3e48bd851a 15028 127.0.0.1 15026 
Nov 26 20:45:14.624 HYPERVISOR: exec_cmd: vm slot_add_nio_binding R8 1 1 udp-77c6568b-83aa-4e0e-8739-8b3e48bd851a 
Nov 26 20:45:14.625 HYPERVISOR: exec_cmd: vm get_status R8 
Nov 26 20:45:14.745 HYPERVISOR: exec_cmd: nio create_udp udp-3826a975-9bdf-4ffd-98e5-32f46005ca4d 15037 127.0.0.1 15039 
Nov 26 20:45:14.745 HYPERVISOR: exec_cmd: vm slot_add_nio_binding R8 1 2 udp-3826a975-9bdf-4ffd-98e5-32f46005ca4d 
Nov 26 20:45:14.746 HYPERVISOR: exec_cmd: vm get_status R8 
Nov 26 20:45:21.939 HYPERVISOR: exec_cmd: vm extract_config R8 
Nov 26 20:45:42.061 HYPERVISOR: exec_cmd: vm get_status R8 
Nov 26 20:45:42.066 HYPERVISOR: exec_cmd: vm extract_config R8 
Nov 26 20:45:42.069 HYPERVISOR: exec_cmd: vm delete R8 
Nov 26 20:45:42.069 VM: VM R8 destroyed.
Nov 26 20:45:42.074 HYPERVISOR: exec_cmd: hypervisor stop 
Nov 26 20:45:42.563 HYPERVISOR: Stopped.
Nov 26 20:45:42.563 GENERAL: reset done.
