Nov 27 16:15:07.320 HYPERVISOR: Release 0.2.17-amd64/Linux (tag 2017072410)
Nov 27 16:15:07.320 HYPERVISOR: Started on IP = 127.0.0.1, TCP port = 35441.
Nov 27 16:15:07.346 HYPERVISOR: exec_cmd: hypervisor version 
Nov 27 16:15:07.347 HYPERVISOR: exec_cmd: hypervisor working_dir /media/actionmystique/SAMSUNG5-VMs/Labs/GNS3/TT 2-solutions-linux-/project-files/dynamips 
Nov 27 16:15:07.347 GENERAL: working_dir=/media/actionmystique/SAMSUNG5-VMs/Labs/GNS3/TT 2-solutions-linux-/project-files/dynamips
Nov 27 16:15:07.348 HYPERVISOR: exec_cmd: vm create SW2 2 c3725 
Nov 27 16:15:07.348 VM: VM SW2 created.
Nov 27 16:15:07.348 HYPERVISOR: exec_cmd: vm set_con_tcp_port SW2 2002 
Nov 27 16:15:07.349 HYPERVISOR: exec_cmd: c3725 get_mac_addr SW2 
Nov 27 16:15:07.350 HYPERVISOR: exec_cmd: vm set_nvram SW2 256 
Nov 27 16:15:07.351 HYPERVISOR: exec_cmd: vm get_status SW2 
Nov 27 16:15:07.352 HYPERVISOR: exec_cmd: vm set_idle_pc SW2 0x60c06d20 
Nov 27 16:15:07.353 HYPERVISOR: exec_cmd: c3725 set_mac_addr SW2 eeee.eeee.eeee 
Nov 27 16:15:07.354 HYPERVISOR: exec_cmd: vm set_exec_area SW2 16 
Nov 27 16:15:07.355 HYPERVISOR: exec_cmd: vm get_status SW2 
Nov 27 16:15:07.356 HYPERVISOR: exec_cmd: vm slot_add_binding SW2 1 0 NM-16ESW 
Nov 27 16:15:07.357 HYPERVISOR: exec_cmd: vm set_disk0 SW2 1 
Nov 27 16:15:07.358 HYPERVISOR: exec_cmd: vm set_ios SW2 /media/actionmystique/SAMSUNG5-VMs/Images/GNS3/IOS/c3725-adventerprisek9-mz.124-15.T10.image 
Nov 27 16:15:07.359 HYPERVISOR: exec_cmd: vm slot_add_binding SW2 0 16 WIC-2T 
Nov 27 16:15:07.360 HYPERVISOR: exec_cmd: vm set_config SW2 configs/i2_startup-config.cfg 
Nov 27 16:15:07.361 HYPERVISOR: exec_cmd: vm set_config SW2 configs/i2_startup-config.cfg configs/i2_private-config.cfg 
Nov 27 16:15:07.529 HYPERVISOR: exec_cmd: nio create_udp udp-897a2c06-69f5-4d4c-9e8a-459f740455c6 15002 127.0.0.1 15001 
Nov 27 16:15:07.529 HYPERVISOR: exec_cmd: vm slot_add_nio_binding SW2 1 2 udp-897a2c06-69f5-4d4c-9e8a-459f740455c6 
Nov 27 16:15:07.530 HYPERVISOR: exec_cmd: vm get_status SW2 
Nov 27 16:15:07.541 HYPERVISOR: exec_cmd: nio create_udp udp-77819dc4-8a78-4c04-b56b-17269ee93d64 15003 127.0.0.1 15000 
Nov 27 16:15:07.541 HYPERVISOR: exec_cmd: vm slot_add_nio_binding SW2 1 0 udp-77819dc4-8a78-4c04-b56b-17269ee93d64 
Nov 27 16:15:07.542 HYPERVISOR: exec_cmd: vm get_status SW2 
Nov 27 16:15:07.564 HYPERVISOR: exec_cmd: nio create_udp udp-bf926a1c-4d17-4f92-974e-6f07774af7dd 15005 127.0.0.1 15004 
Nov 27 16:15:07.565 HYPERVISOR: exec_cmd: vm slot_add_nio_binding SW2 1 1 udp-bf926a1c-4d17-4f92-974e-6f07774af7dd 
Nov 27 16:15:07.565 HYPERVISOR: exec_cmd: vm get_status SW2 
Nov 27 16:15:21.156 HYPERVISOR: exec_cmd: vm get_status SW2 
Nov 27 16:15:21.157 HYPERVISOR: exec_cmd: vm extract_config SW2 
Nov 27 16:15:21.160 HYPERVISOR: exec_cmd: vm delete SW2 
Nov 27 16:15:21.160 VM: VM SW2 destroyed.
Nov 27 16:15:21.162 HYPERVISOR: exec_cmd: hypervisor stop 
Nov 27 16:15:21.358 HYPERVISOR: Stopped.
Nov 27 16:15:21.358 GENERAL: reset done.
