Nov 28 08:15:58.170 HYPERVISOR: Release 0.2.17-amd64/Linux (tag 2017072410)
Nov 28 08:15:58.170 HYPERVISOR: Started on IP = 127.0.0.1, TCP port = 44609.
Nov 28 08:15:58.184 HYPERVISOR: exec_cmd: hypervisor version 
Nov 28 08:15:58.186 HYPERVISOR: exec_cmd: hypervisor working_dir /media/actionmystique/SAMSUNG5-VMs/Labs/GNS3/git-Public-Labs-Collection/CCNP/TBSHOOT/L3-Technologies/IPv4/PBR/Jean-Christophe_Manciot/1+/TT 3-solutions-linux/project-files/dynamips 
Nov 28 08:15:58.186 GENERAL: working_dir=/media/actionmystique/SAMSUNG5-VMs/Labs/GNS3/git-Public-Labs-Collection/CCNP/TBSHOOT/L3-Technologies/IPv4/PBR/Jean-Christophe_Manciot/1+/TT 3-solutions-linux/project-files/dynamips
Nov 28 08:15:58.187 HYPERVISOR: exec_cmd: vm create ESW5 5 c3725 
Nov 28 08:15:58.187 VM: VM ESW5 created.
Nov 28 08:15:58.191 HYPERVISOR: exec_cmd: vm set_con_tcp_port ESW5 2010 
Nov 28 08:15:58.193 HYPERVISOR: exec_cmd: c3725 get_mac_addr ESW5 
Nov 28 08:15:58.193 HYPERVISOR: exec_cmd: vm set_disk0 ESW5 1 
Nov 28 08:15:58.194 HYPERVISOR: exec_cmd: vm get_status ESW5 
Nov 28 08:15:58.195 HYPERVISOR: exec_cmd: vm slot_add_binding ESW5 1 0 NM-16ESW 
Nov 28 08:15:58.196 HYPERVISOR: exec_cmd: vm set_ios ESW5 /media/actionmystique/SAMSUNG5-VMs/Images/GNS3/IOS/c3725-adventerprisek9-mz.124-15.T10.image 
Nov 28 08:15:58.197 HYPERVISOR: exec_cmd: c3725 set_mac_addr ESW5 c205.6a03.0000 
Nov 28 08:15:58.197 HYPERVISOR: exec_cmd: vm slot_add_binding ESW5 0 16 WIC-2T 
Nov 28 08:15:58.198 HYPERVISOR: exec_cmd: vm get_status ESW5 
Nov 28 08:15:58.199 HYPERVISOR: exec_cmd: vm set_idle_pc ESW5 0x6026b804 
Nov 28 08:15:58.199 HYPERVISOR: exec_cmd: vm set_nvram ESW5 256 
Nov 28 08:15:58.200 HYPERVISOR: exec_cmd: vm set_config ESW5 configs/ios_base_startup-config.txt 
Nov 28 08:15:58.217 HYPERVISOR: exec_cmd: vm set_config ESW5 configs/ios_base_startup-config.txt configs/ios_base_private-config.txt 
Nov 28 08:15:58.468 HYPERVISOR: exec_cmd: nio create_udp udp-66ca6891-1054-46c1-8a6c-002a93c997ba 15018 127.0.0.1 15016 
Nov 28 08:15:58.468 HYPERVISOR: exec_cmd: vm slot_add_nio_binding ESW5 1 0 udp-66ca6891-1054-46c1-8a6c-002a93c997ba 
Nov 28 08:15:58.469 HYPERVISOR: exec_cmd: vm get_status ESW5 
Nov 28 08:15:58.475 HYPERVISOR: exec_cmd: nio create_udp udp-82fc8d3d-7069-44a7-91cf-ecff36080a44 15017 127.0.0.1 15019 
Nov 28 08:15:58.475 HYPERVISOR: exec_cmd: vm slot_add_nio_binding ESW5 1 1 udp-82fc8d3d-7069-44a7-91cf-ecff36080a44 
Nov 28 08:15:58.476 HYPERVISOR: exec_cmd: vm get_status ESW5 
