Dec 04 11:09:39.589 HYPERVISOR: Release 0.2.17-amd64/Linux (tag 2017072410)
Dec 04 11:09:39.589 HYPERVISOR: Started on IP = 127.0.0.1, TCP port = 56099.
Dec 04 11:09:39.603 HYPERVISOR: exec_cmd: hypervisor version 
Dec 04 11:09:39.604 HYPERVISOR: exec_cmd: hypervisor working_dir /media/actionmystique/SAMSUNG5-VMs/Labs/GNS3/git-Public-Labs-Collection/CCNP/TBSHOOT/L3-Technologies/IPv6/Routing-Protocols/Redistribution/Jean-Christophe_Manciot/1+/TT 1-solutions-linux/project-files/dynamips 
Dec 04 11:09:39.604 GENERAL: working_dir=/media/actionmystique/SAMSUNG5-VMs/Labs/GNS3/git-Public-Labs-Collection/CCNP/TBSHOOT/L3-Technologies/IPv6/Routing-Protocols/Redistribution/Jean-Christophe_Manciot/1+/TT 1-solutions-linux/project-files/dynamips
Dec 04 11:09:39.605 HYPERVISOR: exec_cmd: vm create ESW5 5 c3725 
Dec 04 11:09:39.605 VM: VM ESW5 created.
Dec 04 11:09:39.606 HYPERVISOR: exec_cmd: vm set_con_tcp_port ESW5 2010 
Dec 04 11:09:39.607 HYPERVISOR: exec_cmd: c3725 get_mac_addr ESW5 
Dec 04 11:09:39.608 HYPERVISOR: exec_cmd: vm set_nvram ESW5 256 
Dec 04 11:09:39.609 HYPERVISOR: exec_cmd: vm set_ios ESW5 /media/actionmystique/SAMSUNG5-VMs/Images/GNS3/IOS/c3725-adventerprisek9-mz.124-15.T10.image 
Dec 04 11:09:39.612 HYPERVISOR: exec_cmd: c3725 set_mac_addr ESW5 c205.6a03.0000 
Dec 04 11:09:39.615 HYPERVISOR: exec_cmd: vm get_status ESW5 
Dec 04 11:09:39.618 HYPERVISOR: exec_cmd: vm slot_add_binding ESW5 1 0 NM-16ESW 
Dec 04 11:09:39.621 HYPERVISOR: exec_cmd: vm get_status ESW5 
Dec 04 11:09:39.626 HYPERVISOR: exec_cmd: vm set_idle_pc ESW5 0x6026b804 
Dec 04 11:09:39.627 HYPERVISOR: exec_cmd: vm set_disk0 ESW5 1 
Dec 04 11:09:39.629 HYPERVISOR: exec_cmd: vm slot_add_binding ESW5 0 16 WIC-2T 
Dec 04 11:09:39.630 HYPERVISOR: exec_cmd: vm set_config ESW5 configs/ios_base_startup-config.txt 
Dec 04 11:09:39.639 HYPERVISOR: exec_cmd: vm set_config ESW5 configs/ios_base_startup-config.txt configs/ios_base_private-config.txt 
Dec 04 11:09:39.995 HYPERVISOR: exec_cmd: nio create_udp udp-1b27b1e4-45bc-4321-827d-4907b4a3a4a5 15010 127.0.0.1 15005 
Dec 04 11:09:39.996 HYPERVISOR: exec_cmd: vm slot_add_nio_binding ESW5 1 0 udp-1b27b1e4-45bc-4321-827d-4907b4a3a4a5 
Dec 04 11:09:39.999 HYPERVISOR: exec_cmd: vm get_status ESW5 
Dec 04 11:09:40.008 HYPERVISOR: exec_cmd: nio create_udp udp-7530b862-766a-48a0-b2a4-241a66f3555d 15006 127.0.0.1 15011 
Dec 04 11:09:40.009 HYPERVISOR: exec_cmd: vm slot_add_nio_binding ESW5 1 1 udp-7530b862-766a-48a0-b2a4-241a66f3555d 
Dec 04 11:09:40.009 HYPERVISOR: exec_cmd: vm get_status ESW5 
