Nov 27 16:24:24.831 HYPERVISOR: Release 0.2.17-amd64/Linux (tag 2017072410)
Nov 27 16:24:24.831 HYPERVISOR: Started on IP = 127.0.0.1, TCP port = 44231.
Nov 27 16:24:24.864 HYPERVISOR: exec_cmd: hypervisor version 
Nov 27 16:24:24.865 HYPERVISOR: exec_cmd: hypervisor working_dir /media/actionmystique/SAMSUNG5-VMs/Labs/GNS3/TT 2-solutions-linux-/project-files/dynamips 
Nov 27 16:24:24.865 GENERAL: working_dir=/media/actionmystique/SAMSUNG5-VMs/Labs/GNS3/TT 2-solutions-linux-/project-files/dynamips
Nov 27 16:24:24.866 HYPERVISOR: exec_cmd: vm create SW3 3 c3725 
Nov 27 16:24:24.866 VM: VM SW3 created.
Nov 27 16:24:24.867 HYPERVISOR: exec_cmd: vm set_con_tcp_port SW3 2003 
Nov 27 16:24:24.868 HYPERVISOR: exec_cmd: c3725 get_mac_addr SW3 
Nov 27 16:24:24.869 HYPERVISOR: exec_cmd: vm set_nvram SW3 256 
Nov 27 16:24:24.870 HYPERVISOR: exec_cmd: vm get_status SW3 
Nov 27 16:24:24.871 HYPERVISOR: exec_cmd: vm set_idle_pc SW3 0x60c056e4 
Nov 27 16:24:24.872 HYPERVISOR: exec_cmd: c3725 set_mac_addr SW3 cccc.cccc.cccc 
Nov 27 16:24:24.873 HYPERVISOR: exec_cmd: vm set_exec_area SW3 16 
Nov 27 16:24:24.874 HYPERVISOR: exec_cmd: vm get_status SW3 
Nov 27 16:24:24.875 HYPERVISOR: exec_cmd: vm slot_add_binding SW3 1 0 NM-16ESW 
Nov 27 16:24:24.876 HYPERVISOR: exec_cmd: vm set_disk0 SW3 1 
Nov 27 16:24:24.877 HYPERVISOR: exec_cmd: vm set_ios SW3 /media/actionmystique/SAMSUNG5-VMs/Images/GNS3/IOS/c3725-adventerprisek9-mz.124-15.T10.image 
Nov 27 16:24:24.878 HYPERVISOR: exec_cmd: vm slot_add_binding SW3 0 16 WIC-2T 
Nov 27 16:24:24.879 HYPERVISOR: exec_cmd: vm set_config SW3 configs/i3_startup-config.cfg 
Nov 27 16:24:24.880 HYPERVISOR: exec_cmd: vm set_config SW3 configs/i3_startup-config.cfg configs/i3_private-config.cfg 
Nov 27 16:24:25.064 HYPERVISOR: exec_cmd: nio create_udp udp-e6fc80c8-0bd1-4dce-98dd-49eec5bc13c2 15004 127.0.0.1 15003 
Nov 27 16:24:25.070 HYPERVISOR: exec_cmd: vm slot_add_nio_binding SW3 1 1 udp-e6fc80c8-0bd1-4dce-98dd-49eec5bc13c2 
Nov 27 16:24:25.074 HYPERVISOR: exec_cmd: vm get_status SW3 
Nov 27 16:24:25.101 HYPERVISOR: exec_cmd: nio create_udp udp-0f831f60-4e1d-4aa4-9de8-fbe35b626c29 15001 127.0.0.1 15006 
Nov 27 16:24:25.101 HYPERVISOR: exec_cmd: vm slot_add_nio_binding SW3 1 2 udp-0f831f60-4e1d-4aa4-9de8-fbe35b626c29 
Nov 27 16:24:25.101 HYPERVISOR: exec_cmd: vm get_status SW3 
Nov 27 16:24:25.149 HYPERVISOR: exec_cmd: nio create_udp udp-165ede7a-d179-4aa7-8231-8a058425bcc1 15008 127.0.0.1 15009 
Nov 27 16:24:25.149 HYPERVISOR: exec_cmd: vm slot_add_nio_binding SW3 1 6 udp-165ede7a-d179-4aa7-8231-8a058425bcc1 
Nov 27 16:24:25.149 HYPERVISOR: exec_cmd: vm get_status SW3 
Nov 27 16:24:25.167 HYPERVISOR: exec_cmd: nio create_udp udp-f614ae86-3083-4a07-bf03-b7ff2fce55a5 15010 127.0.0.1 15011 
Nov 27 16:24:25.168 HYPERVISOR: exec_cmd: vm slot_add_nio_binding SW3 0 0 udp-f614ae86-3083-4a07-bf03-b7ff2fce55a5 
Nov 27 16:24:25.168 HYPERVISOR: exec_cmd: vm get_status SW3 
Nov 27 16:24:46.056 HYPERVISOR: exec_cmd: vm get_status SW3 
Nov 27 16:24:46.057 HYPERVISOR: exec_cmd: vm extract_config SW3 
Nov 27 16:24:46.060 HYPERVISOR: exec_cmd: vm delete SW3 
Nov 27 16:24:46.060 VM: VM SW3 destroyed.
Nov 27 16:24:46.062 HYPERVISOR: exec_cmd: hypervisor stop 
Nov 27 16:24:46.384 HYPERVISOR: Stopped.
Nov 27 16:24:46.384 GENERAL: reset done.
