Nov 27 16:24:24.837 HYPERVISOR: Release 0.2.17-amd64/Linux (tag 2017072410)
Nov 27 16:24:24.837 HYPERVISOR: Started on IP = 127.0.0.1, TCP port = 53111.
Nov 27 16:24:24.865 HYPERVISOR: exec_cmd: hypervisor version 
Nov 27 16:24:24.866 HYPERVISOR: exec_cmd: hypervisor working_dir /media/actionmystique/SAMSUNG5-VMs/Labs/GNS3/TT 2-solutions-linux-/project-files/dynamips 
Nov 27 16:24:24.866 GENERAL: working_dir=/media/actionmystique/SAMSUNG5-VMs/Labs/GNS3/TT 2-solutions-linux-/project-files/dynamips
Nov 27 16:24:24.866 HYPERVISOR: exec_cmd: vm create SW2 2 c3725 
Nov 27 16:24:24.866 VM: VM SW2 created.
Nov 27 16:24:24.867 HYPERVISOR: exec_cmd: vm set_con_tcp_port SW2 2002 
Nov 27 16:24:24.868 HYPERVISOR: exec_cmd: c3725 get_mac_addr SW2 
Nov 27 16:24:24.869 HYPERVISOR: exec_cmd: vm set_nvram SW2 256 
Nov 27 16:24:24.870 HYPERVISOR: exec_cmd: vm get_status SW2 
Nov 27 16:24:24.871 HYPERVISOR: exec_cmd: vm set_idle_pc SW2 0x60c056e4 
Nov 27 16:24:24.872 HYPERVISOR: exec_cmd: c3725 set_mac_addr SW2 eeee.eeee.eeee 
Nov 27 16:24:24.873 HYPERVISOR: exec_cmd: vm set_exec_area SW2 16 
Nov 27 16:24:24.874 HYPERVISOR: exec_cmd: vm get_status SW2 
Nov 27 16:24:24.875 HYPERVISOR: exec_cmd: vm slot_add_binding SW2 1 0 NM-16ESW 
Nov 27 16:24:24.876 HYPERVISOR: exec_cmd: vm set_disk0 SW2 1 
Nov 27 16:24:24.877 HYPERVISOR: exec_cmd: vm set_ios SW2 /media/actionmystique/SAMSUNG5-VMs/Images/GNS3/IOS/c3725-adventerprisek9-mz.124-15.T10.image 
Nov 27 16:24:24.878 HYPERVISOR: exec_cmd: vm slot_add_binding SW2 0 16 WIC-2T 
Nov 27 16:24:24.879 HYPERVISOR: exec_cmd: vm set_config SW2 configs/i2_startup-config.cfg 
Nov 27 16:24:24.880 HYPERVISOR: exec_cmd: vm set_config SW2 configs/i2_startup-config.cfg configs/i2_private-config.cfg 
Nov 27 16:24:25.053 HYPERVISOR: exec_cmd: nio create_udp udp-a0dfc0f3-ae88-4029-8329-3617a13ea0c5 15002 127.0.0.1 15000 
Nov 27 16:24:25.055 HYPERVISOR: exec_cmd: vm slot_add_nio_binding SW2 1 0 udp-a0dfc0f3-ae88-4029-8329-3617a13ea0c5 
Nov 27 16:24:25.056 HYPERVISOR: exec_cmd: vm get_status SW2 
Nov 27 16:24:25.108 HYPERVISOR: exec_cmd: nio create_udp udp-2b4b6d52-90f8-4e36-b469-720d71337ba8 15006 127.0.0.1 15001 
Nov 27 16:24:25.109 HYPERVISOR: exec_cmd: vm slot_add_nio_binding SW2 1 2 udp-2b4b6d52-90f8-4e36-b469-720d71337ba8 
Nov 27 16:24:25.109 HYPERVISOR: exec_cmd: vm get_status SW2 
Nov 27 16:24:25.177 HYPERVISOR: exec_cmd: nio create_udp udp-4024dd25-7c79-4378-b738-3ea2ce56ae85 15013 127.0.0.1 15012 
Nov 27 16:24:25.180 HYPERVISOR: exec_cmd: vm slot_add_nio_binding SW2 1 1 udp-4024dd25-7c79-4378-b738-3ea2ce56ae85 
Nov 27 16:24:25.181 HYPERVISOR: exec_cmd: vm get_status SW2 
Nov 27 16:24:46.057 HYPERVISOR: exec_cmd: vm get_status SW2 
Nov 27 16:24:46.058 HYPERVISOR: exec_cmd: vm extract_config SW2 
Nov 27 16:24:46.061 HYPERVISOR: exec_cmd: vm delete SW2 
Nov 27 16:24:46.061 VM: VM SW2 destroyed.
Nov 27 16:24:46.062 HYPERVISOR: exec_cmd: hypervisor stop 
Nov 27 16:24:46.384 HYPERVISOR: Stopped.
Nov 27 16:24:46.384 GENERAL: reset done.
