Dec 04 11:20:04.230 HYPERVISOR: Release 0.2.17-amd64/Linux (tag 2017072410)
Dec 04 11:20:04.230 HYPERVISOR: Started on IP = 127.0.0.1, TCP port = 49281.
Dec 04 11:20:04.278 HYPERVISOR: exec_cmd: hypervisor version 
Dec 04 11:20:04.284 HYPERVISOR: exec_cmd: hypervisor working_dir /media/actionmystique/SAMSUNG5-VMs/Labs/GNS3/Data Center ASA - ASDM - AAA - VMs-linux-/project-files/dynamips 
Dec 04 11:20:04.284 GENERAL: working_dir=/media/actionmystique/SAMSUNG5-VMs/Labs/GNS3/Data Center ASA - ASDM - AAA - VMs-linux-/project-files/dynamips
Dec 04 11:20:04.286 HYPERVISOR: exec_cmd: vm create SW0_Management 12 c3725 
Dec 04 11:20:04.286 VM: VM SW0_Management created.
Dec 04 11:20:04.287 HYPERVISOR: exec_cmd: vm set_con_tcp_port SW0_Management 2112 
Dec 04 11:20:04.288 HYPERVISOR: exec_cmd: vm set_aux_tcp_port SW0_Management 2512 
Dec 04 11:20:04.289 HYPERVISOR: exec_cmd: c3725 get_mac_addr SW0_Management 
Dec 04 11:20:04.290 HYPERVISOR: exec_cmd: vm get_status SW0_Management 
Dec 04 11:20:04.291 HYPERVISOR: exec_cmd: vm slot_add_binding SW0_Management 1 0 NM-16ESW 
Dec 04 11:20:04.292 HYPERVISOR: exec_cmd: vm set_ios SW0_Management /media/actionmystique/SAMSUNG5-VMs/Images/GNS3/IOS/c3725-adventerprisek9-mz.124-15.T10.image 
Dec 04 11:20:04.297 HYPERVISOR: exec_cmd: vm set_exec_area SW0_Management 16 
Dec 04 11:20:04.298 HYPERVISOR: exec_cmd: c3725 set_mac_addr SW0_Management c20c.0f9c.0000 
Dec 04 11:20:04.299 HYPERVISOR: exec_cmd: vm get_status SW0_Management 
Dec 04 11:20:04.301 HYPERVISOR: exec_cmd: vm set_idle_pc SW0_Management 0x602649b4 
Dec 04 11:20:04.302 HYPERVISOR: exec_cmd: vm set_config SW0_Management configs/i12_startup-config.cfg 
Dec 04 11:20:05.022 HYPERVISOR: exec_cmd: nio create_tap tap-01c3c7b0-d7ed-4b77-8678-bb20ecf6ccce tap1 
Dec 04 11:20:05.023 HYPERVISOR: exec_cmd: vm slot_add_nio_binding SW0_Management 1 0 tap-01c3c7b0-d7ed-4b77-8678-bb20ecf6ccce 
Dec 04 11:20:05.023 HYPERVISOR: exec_cmd: vm get_status SW0_Management 
Dec 04 11:20:05.892 HYPERVISOR: exec_cmd: nio create_udp udp-1c6a5da7-de64-42a3-a965-88cb446d52b5 15067 127.0.0.1 15066 
Dec 04 11:20:05.893 HYPERVISOR: exec_cmd: vm slot_add_nio_binding SW0_Management 1 1 udp-1c6a5da7-de64-42a3-a965-88cb446d52b5 
Dec 04 11:20:05.896 HYPERVISOR: exec_cmd: vm get_status SW0_Management 
Dec 04 11:20:06.018 HYPERVISOR: exec_cmd: nio create_udp udp-e1595eeb-6c7a-4ade-bcaf-23766858b629 15079 127.0.0.1 15078 
Dec 04 11:20:06.019 HYPERVISOR: exec_cmd: vm slot_add_nio_binding SW0_Management 1 2 udp-e1595eeb-6c7a-4ade-bcaf-23766858b629 
Dec 04 11:20:06.019 HYPERVISOR: exec_cmd: vm get_status SW0_Management 
Dec 04 11:20:55.989 HYPERVISOR: exec_cmd: vm get_status SW0_Management 
Dec 04 11:20:55.993 HYPERVISOR: exec_cmd: vm extract_config SW0_Management 
Dec 04 11:20:56.001 HYPERVISOR: exec_cmd: vm delete SW0_Management 
Dec 04 11:20:56.001 VM: VM SW0_Management destroyed.
Dec 04 11:20:56.008 HYPERVISOR: exec_cmd: hypervisor stop 
Dec 04 11:20:56.333 HYPERVISOR: Stopped.
Dec 04 11:20:56.333 GENERAL: reset done.
