Nov 27 16:16:14.774 HYPERVISOR: Release 0.2.17-amd64/Linux (tag 2017072410)
Nov 27 16:16:14.774 HYPERVISOR: Started on IP = 127.0.0.1, TCP port = 48979.
Nov 27 16:16:14.811 HYPERVISOR: exec_cmd: hypervisor version 
Nov 27 16:16:14.812 HYPERVISOR: exec_cmd: hypervisor working_dir /media/actionmystique/SAMSUNG5-VMs/Labs/GNS3/git-Public-Labs-Collection/CCNP/TBSHOOT/L3-Technologies/BFD/Jean-Christophe_Manciot/1+/TT 1-linux/project-files/dynamips 
Nov 27 16:16:14.812 GENERAL: working_dir=/media/actionmystique/SAMSUNG5-VMs/Labs/GNS3/git-Public-Labs-Collection/CCNP/TBSHOOT/L3-Technologies/BFD/Jean-Christophe_Manciot/1+/TT 1-linux/project-files/dynamips
Nov 27 16:16:14.812 HYPERVISOR: exec_cmd: vm create ESW5 5 c3725 
Nov 27 16:16:14.812 VM: VM ESW5 created.
Nov 27 16:16:14.813 HYPERVISOR: exec_cmd: vm set_con_tcp_port ESW5 2010 
Nov 27 16:16:14.814 HYPERVISOR: exec_cmd: c3725 get_mac_addr ESW5 
Nov 27 16:16:14.818 HYPERVISOR: exec_cmd: vm set_nvram ESW5 256 
Nov 27 16:16:14.821 HYPERVISOR: exec_cmd: vm get_status ESW5 
Nov 27 16:16:14.823 HYPERVISOR: exec_cmd: vm set_idle_pc ESW5 0x60c06d20 
Nov 27 16:16:14.824 HYPERVISOR: exec_cmd: c3725 set_mac_addr ESW5 c205.6a03.0000 
Nov 27 16:16:14.825 HYPERVISOR: exec_cmd: vm get_status ESW5 
Nov 27 16:16:14.826 HYPERVISOR: exec_cmd: vm slot_add_binding ESW5 1 0 NM-16ESW 
Nov 27 16:16:14.827 HYPERVISOR: exec_cmd: vm set_disk0 ESW5 1 
Nov 27 16:16:14.828 HYPERVISOR: exec_cmd: vm set_ios ESW5 /media/actionmystique/SAMSUNG5-VMs/Images/GNS3/IOS/c3725-adventerprisek9-mz.124-15.T10.image 
Nov 27 16:16:14.829 HYPERVISOR: exec_cmd: vm slot_add_binding ESW5 0 16 WIC-2T 
Nov 27 16:16:14.831 HYPERVISOR: exec_cmd: vm set_config ESW5 configs/ios_base_startup-config.txt 
Nov 27 16:16:14.833 HYPERVISOR: exec_cmd: vm set_config ESW5 configs/ios_base_startup-config.txt configs/ios_base_private-config.txt 
Nov 27 16:16:15.190 HYPERVISOR: exec_cmd: nio create_udp udp-a9459500-e66f-4ce0-9a7c-e0b14a015fb8 15015 127.0.0.1 15014 
Nov 27 16:16:15.191 HYPERVISOR: exec_cmd: vm slot_add_nio_binding ESW5 1 0 udp-a9459500-e66f-4ce0-9a7c-e0b14a015fb8 
Nov 27 16:16:15.192 HYPERVISOR: exec_cmd: vm get_status ESW5 
Nov 27 16:16:15.201 HYPERVISOR: exec_cmd: nio create_udp udp-a4cac2e5-f3e4-4474-82de-6e01f5b09752 15016 127.0.0.1 15017 
Nov 27 16:16:15.201 HYPERVISOR: exec_cmd: vm slot_add_nio_binding ESW5 1 1 udp-a4cac2e5-f3e4-4474-82de-6e01f5b09752 
Nov 27 16:16:15.202 HYPERVISOR: exec_cmd: vm get_status ESW5 
