Nov 29 15:26:44.611 HYPERVISOR: Release 0.2.17-amd64/Linux (tag 2017072410)
Nov 29 15:26:44.611 HYPERVISOR: Started on IP = 127.0.0.1, TCP port = 47607.
Nov 29 15:26:44.625 HYPERVISOR: exec_cmd: hypervisor version 
Nov 29 15:26:44.625 HYPERVISOR: exec_cmd: hypervisor working_dir /media/actionmystique/SAMSUNG5-VMs/Labs/GNS3/TT 3-solutions-linux-/project-files/dynamips 
Nov 29 15:26:44.625 GENERAL: working_dir=/media/actionmystique/SAMSUNG5-VMs/Labs/GNS3/TT 3-solutions-linux-/project-files/dynamips
Nov 29 15:26:44.626 HYPERVISOR: exec_cmd: vm create ESW2 2 c3725 
Nov 29 15:26:44.626 VM: VM ESW2 created.
Nov 29 15:26:44.626 HYPERVISOR: exec_cmd: vm set_con_tcp_port ESW2 2005 
Nov 29 15:26:44.626 HYPERVISOR: exec_cmd: c3725 get_mac_addr ESW2 
Nov 29 15:26:44.627 HYPERVISOR: exec_cmd: vm get_status ESW2 
Nov 29 15:26:44.627 HYPERVISOR: exec_cmd: vm slot_add_binding ESW2 1 0 NM-16ESW 
Nov 29 15:26:44.627 HYPERVISOR: exec_cmd: c3725 set_mac_addr ESW2 c202.1bd4.0000 
Nov 29 15:26:44.628 HYPERVISOR: exec_cmd: vm set_disk0 ESW2 1 
Nov 29 15:26:44.628 HYPERVISOR: exec_cmd: vm set_nvram ESW2 256 
Nov 29 15:26:44.629 HYPERVISOR: exec_cmd: vm set_ios ESW2 /media/actionmystique/SAMSUNG5-VMs/Images/GNS3/IOS/c3725-adventerprisek9-mz.124-15.T10.image 
Nov 29 15:26:44.629 HYPERVISOR: exec_cmd: vm get_status ESW2 
Nov 29 15:26:44.629 HYPERVISOR: exec_cmd: vm set_idle_pc ESW2 0x60c05928 
Nov 29 15:26:44.630 HYPERVISOR: exec_cmd: vm slot_add_binding ESW2 0 16 WIC-2T 
Nov 29 15:26:44.630 HYPERVISOR: exec_cmd: vm set_config ESW2 configs/ios_base_startup-config.txt 
Nov 29 15:26:44.631 HYPERVISOR: exec_cmd: vm set_config ESW2 configs/ios_base_startup-config.txt configs/ios_base_private-config.txt 
Nov 29 15:26:45.003 HYPERVISOR: exec_cmd: nio create_udp udp-0a0e42dd-ebd3-4a33-b95e-151e4923d957 15002 127.0.0.1 15003 
Nov 29 15:26:45.005 HYPERVISOR: exec_cmd: vm slot_add_nio_binding ESW2 1 0 udp-0a0e42dd-ebd3-4a33-b95e-151e4923d957 
Nov 29 15:26:45.006 HYPERVISOR: exec_cmd: vm get_status ESW2 
Nov 29 15:27:07.169 HYPERVISOR: exec_cmd: vm get_status ESW2 
Nov 29 15:27:07.171 HYPERVISOR: exec_cmd: vm extract_config ESW2 
Nov 29 15:27:07.173 HYPERVISOR: exec_cmd: vm delete ESW2 
Nov 29 15:27:07.173 VM: VM ESW2 destroyed.
Nov 29 15:27:07.176 HYPERVISOR: exec_cmd: hypervisor stop 
Nov 29 15:27:07.648 HYPERVISOR: Stopped.
Nov 29 15:27:07.648 GENERAL: reset done.
