Nov 29 15:29:35.476 HYPERVISOR: Release 0.2.17-amd64/Linux (tag 2017072410)
Nov 29 15:29:35.476 HYPERVISOR: Started on IP = 127.0.0.1, TCP port = 50723.
Nov 29 15:29:35.532 HYPERVISOR: exec_cmd: hypervisor version 
Nov 29 15:29:35.533 HYPERVISOR: exec_cmd: hypervisor working_dir /media/actionmystique/SAMSUNG5-VMs/Labs/GNS3/git-Public-Labs-Collection/CCNP/TBSHOOT/L3-Technologies/IPv4/Routing-Protocols/Redistribution/Jean-Christophe_Manciot/1+/TT 4-solutions-linux/project-files/dynamips 
Nov 29 15:29:35.533 GENERAL: working_dir=/media/actionmystique/SAMSUNG5-VMs/Labs/GNS3/git-Public-Labs-Collection/CCNP/TBSHOOT/L3-Technologies/IPv4/Routing-Protocols/Redistribution/Jean-Christophe_Manciot/1+/TT 4-solutions-linux/project-files/dynamips
Nov 29 15:29:35.534 HYPERVISOR: exec_cmd: vm create ESW6 6 c3725 
Nov 29 15:29:35.535 VM: VM ESW6 created.
Nov 29 15:29:35.535 HYPERVISOR: exec_cmd: vm set_con_tcp_port ESW6 2012 
Nov 29 15:29:35.536 HYPERVISOR: exec_cmd: c3725 get_mac_addr ESW6 
Nov 29 15:29:35.537 HYPERVISOR: exec_cmd: vm set_nvram ESW6 256 
Nov 29 15:29:35.543 HYPERVISOR: exec_cmd: vm slot_add_binding ESW6 0 16 WIC-2T 
Nov 29 15:29:35.544 HYPERVISOR: exec_cmd: c3725 set_mac_addr ESW6 c206.1f5a.0000 
Nov 29 15:29:35.545 HYPERVISOR: exec_cmd: vm set_disk0 ESW6 1 
Nov 29 15:29:35.545 HYPERVISOR: exec_cmd: vm set_ios ESW6 /media/actionmystique/SAMSUNG5-VMs/Images/GNS3/IOS/c3725-adventerprisek9-mz.124-15.T10.image 
Nov 29 15:29:35.545 HYPERVISOR: exec_cmd: vm get_status ESW6 
Nov 29 15:29:35.546 HYPERVISOR: exec_cmd: vm set_idle_pc ESW6 0x6026b804 
Nov 29 15:29:35.546 HYPERVISOR: exec_cmd: vm get_status ESW6 
Nov 29 15:29:35.547 HYPERVISOR: exec_cmd: vm slot_add_binding ESW6 1 0 NM-16ESW 
Nov 29 15:29:35.547 HYPERVISOR: exec_cmd: vm set_config ESW6 configs/i6_startup-config.cfg 
Nov 29 15:29:36.160 HYPERVISOR: exec_cmd: nio create_udp udp-e35bd203-9f29-4bca-a4d3-c8501562f861 15019 127.0.0.1 15021 
Nov 29 15:29:36.161 HYPERVISOR: exec_cmd: vm slot_add_nio_binding ESW6 1 2 udp-e35bd203-9f29-4bca-a4d3-c8501562f861 
Nov 29 15:29:36.161 HYPERVISOR: exec_cmd: vm get_status ESW6 
Nov 29 15:29:36.188 HYPERVISOR: exec_cmd: nio create_udp udp-84fed2c1-005f-4b6a-b753-819aa4b2a255 15023 127.0.0.1 15022 
Nov 29 15:29:36.189 HYPERVISOR: exec_cmd: vm slot_add_nio_binding ESW6 1 1 udp-84fed2c1-005f-4b6a-b753-819aa4b2a255 
Nov 29 15:29:36.189 HYPERVISOR: exec_cmd: vm get_status ESW6 
Nov 29 15:29:36.212 HYPERVISOR: exec_cmd: nio create_udp udp-c7f99507-906e-4e5d-a994-82e07d0a4738 15024 127.0.0.1 15025 
Nov 29 15:29:36.213 HYPERVISOR: exec_cmd: vm slot_add_nio_binding ESW6 1 3 udp-c7f99507-906e-4e5d-a994-82e07d0a4738 
Nov 29 15:29:36.213 HYPERVISOR: exec_cmd: vm get_status ESW6 
