Nov 26 20:48:29.977 HYPERVISOR: Release 0.2.17-amd64/Linux (tag 2017072410)
Nov 26 20:48:29.977 HYPERVISOR: Started on IP = 127.0.0.1, TCP port = 44501.
Nov 26 20:48:29.998 HYPERVISOR: exec_cmd: hypervisor version 
Nov 26 20:48:29.999 HYPERVISOR: exec_cmd: hypervisor working_dir /media/actionmystique/SAMSUNG5-VMs/Labs/GNS3/Multi-Areas/project-files/dynamips 
Nov 26 20:48:29.999 GENERAL: working_dir=/media/actionmystique/SAMSUNG5-VMs/Labs/GNS3/Multi-Areas/project-files/dynamips
Nov 26 20:48:30.001 HYPERVISOR: exec_cmd: vm create ISP3 14 c7200 
Nov 26 20:48:30.001 VM: VM ISP3 created.
Nov 26 20:48:30.003 HYPERVISOR: exec_cmd: vm set_con_tcp_port ISP3 2014 
Nov 26 20:48:30.006 HYPERVISOR: exec_cmd: vm set_aux_tcp_port ISP3 2514 
Nov 26 20:48:30.007 HYPERVISOR: exec_cmd: c7200 get_mac_addr ISP3 
Nov 26 20:48:30.009 HYPERVISOR: exec_cmd: vm get_status ISP3 
Nov 26 20:48:30.011 HYPERVISOR: exec_cmd: vm slot_add_binding ISP3 0 0 C7200-IO-FE 
Nov 26 20:48:30.012 HYPERVISOR: exec_cmd: vm get_status ISP3 
Nov 26 20:48:30.014 HYPERVISOR: exec_cmd: vm slot_remove_binding ISP3 0 0 
Nov 26 20:48:30.022 HYPERVISOR: exec_cmd: vm get_status ISP3 
Nov 26 20:48:30.039 HYPERVISOR: exec_cmd: vm slot_add_binding ISP3 0 0 C7200-IO-GE-E 
Nov 26 20:48:30.049 HYPERVISOR: exec_cmd: vm get_status ISP3 
Nov 26 20:48:30.059 HYPERVISOR: exec_cmd: vm slot_add_binding ISP3 2 0 PA-POS-OC3 
Nov 26 20:48:30.073 HYPERVISOR: exec_cmd: vm set_ram ISP3 512 
Nov 26 20:48:30.077 HYPERVISOR: exec_cmd: vm get_status ISP3 
Nov 26 20:48:30.078 HYPERVISOR: exec_cmd: vm set_idle_pc ISP3 0x60188e14 
Nov 26 20:48:30.080 HYPERVISOR: exec_cmd: vm get_status ISP3 
Nov 26 20:48:30.087 HYPERVISOR: exec_cmd: vm slot_add_binding ISP3 1 0 PA-POS-OC3 
Nov 26 20:48:30.099 HYPERVISOR: exec_cmd: vm get_status ISP3 
Nov 26 20:48:30.101 HYPERVISOR: exec_cmd: vm slot_add_binding ISP3 3 0 PA-GE 
Nov 26 20:48:30.104 HYPERVISOR: exec_cmd: vm set_ios ISP3 /media/actionmystique/SAMSUNG5-VMs/Images/GNS3/IOS/c7200-adventerprisek9-mz.152-4.M2.image 
Nov 26 20:48:30.107 HYPERVISOR: exec_cmd: vm set_config ISP3 configs/i14_startup-config.cfg 
Nov 26 20:48:30.829 HYPERVISOR: exec_cmd: vm extract_config ISP3 
Nov 26 20:48:31.288 HYPERVISOR: exec_cmd: nio create_udp udp-2b7be8bd-aaa4-4a18-b080-2cfc192e9e47 15040 127.0.0.1 15041 
Nov 26 20:48:31.292 HYPERVISOR: exec_cmd: vm slot_add_nio_binding ISP3 0 0 udp-2b7be8bd-aaa4-4a18-b080-2cfc192e9e47 
Nov 26 20:48:31.293 HYPERVISOR: exec_cmd: vm get_status ISP3 
Nov 26 20:48:31.317 HYPERVISOR: exec_cmd: nio create_udp udp-606533a9-35d2-434a-a1f5-751796f98266 15043 127.0.0.1 15042 
Nov 26 20:48:31.317 HYPERVISOR: exec_cmd: vm slot_add_nio_binding ISP3 2 0 udp-606533a9-35d2-434a-a1f5-751796f98266 
Nov 26 20:48:31.317 HYPERVISOR: exec_cmd: vm get_status ISP3 
Nov 26 20:48:31.352 HYPERVISOR: exec_cmd: nio create_udp udp-556700bf-4940-4809-862a-66a43965e6e6 15047 127.0.0.1 15044 
Nov 26 20:48:31.353 HYPERVISOR: exec_cmd: vm slot_add_nio_binding ISP3 3 0 udp-556700bf-4940-4809-862a-66a43965e6e6 
Nov 26 20:48:31.353 HYPERVISOR: exec_cmd: vm get_status ISP3 
Nov 26 20:48:31.421 HYPERVISOR: exec_cmd: nio create_udp udp-b97638b2-b077-4884-9482-7a9be31b882e 15053 127.0.0.1 15052 
Nov 26 20:48:31.421 HYPERVISOR: exec_cmd: vm slot_add_nio_binding ISP3 1 0 udp-b97638b2-b077-4884-9482-7a9be31b882e 
Nov 26 20:48:31.422 HYPERVISOR: exec_cmd: vm get_status ISP3 
Nov 26 20:48:38.518 HYPERVISOR: exec_cmd: vm extract_config ISP3 
Nov 26 20:49:00.819 HYPERVISOR: exec_cmd: vm get_status ISP3 
Nov 26 20:49:00.825 HYPERVISOR: exec_cmd: vm extract_config ISP3 
Nov 26 20:49:00.829 HYPERVISOR: exec_cmd: vm delete ISP3 
Nov 26 20:49:00.830 VM: VM ISP3 destroyed.
Nov 26 20:49:00.833 HYPERVISOR: exec_cmd: hypervisor stop 
Nov 26 20:49:01.025 HYPERVISOR: Stopped.
Nov 26 20:49:01.025 GENERAL: reset done.
