Nov 26 20:48:29.890 HYPERVISOR: Release 0.2.17-amd64/Linux (tag 2017072410)
Nov 26 20:48:29.890 HYPERVISOR: Started on IP = 127.0.0.1, TCP port = 60573.
Nov 26 20:48:29.962 HYPERVISOR: exec_cmd: hypervisor version 
Nov 26 20:48:29.965 HYPERVISOR: exec_cmd: hypervisor working_dir /media/actionmystique/SAMSUNG5-VMs/Labs/GNS3/Multi-Areas/project-files/dynamips 
Nov 26 20:48:29.965 GENERAL: working_dir=/media/actionmystique/SAMSUNG5-VMs/Labs/GNS3/Multi-Areas/project-files/dynamips
Nov 26 20:48:29.966 HYPERVISOR: exec_cmd: vm create ABR9 10 c7200 
Nov 26 20:48:29.966 VM: VM ABR9 created.
Nov 26 20:48:29.976 HYPERVISOR: exec_cmd: vm set_con_tcp_port ABR9 2012 
Nov 26 20:48:29.978 HYPERVISOR: exec_cmd: vm set_aux_tcp_port ABR9 2512 
Nov 26 20:48:29.980 HYPERVISOR: exec_cmd: c7200 get_mac_addr ABR9 
Nov 26 20:48:29.982 HYPERVISOR: exec_cmd: vm get_status ABR9 
Nov 26 20:48:29.984 HYPERVISOR: exec_cmd: vm slot_add_binding ABR9 0 0 C7200-IO-FE 
Nov 26 20:48:29.986 HYPERVISOR: exec_cmd: vm get_status ABR9 
Nov 26 20:48:29.988 HYPERVISOR: exec_cmd: vm slot_remove_binding ABR9 0 0 
Nov 26 20:48:29.990 HYPERVISOR: exec_cmd: vm get_status ABR9 
Nov 26 20:48:29.992 HYPERVISOR: exec_cmd: vm slot_add_binding ABR9 0 0 C7200-IO-GE-E 
Nov 26 20:48:29.994 HYPERVISOR: exec_cmd: vm set_ram ABR9 512 
Nov 26 20:48:29.996 HYPERVISOR: exec_cmd: vm get_status ABR9 
Nov 26 20:48:29.997 HYPERVISOR: exec_cmd: vm set_idle_pc ABR9 0x60188e14 
Nov 26 20:48:29.999 HYPERVISOR: exec_cmd: vm get_status ABR9 
Nov 26 20:48:30.000 HYPERVISOR: exec_cmd: vm slot_add_binding ABR9 1 0 PA-2FE-TX 
Nov 26 20:48:30.002 HYPERVISOR: exec_cmd: vm get_status ABR9 
Nov 26 20:48:30.005 HYPERVISOR: exec_cmd: vm slot_add_binding ABR9 3 0 PA-2FE-TX 
Nov 26 20:48:30.007 HYPERVISOR: exec_cmd: vm get_status ABR9 
Nov 26 20:48:30.008 HYPERVISOR: exec_cmd: vm slot_add_binding ABR9 2 0 PA-2FE-TX 
Nov 26 20:48:30.010 HYPERVISOR: exec_cmd: vm set_ios ABR9 /media/actionmystique/SAMSUNG5-VMs/Images/GNS3/IOS/c7200-adventerprisek9-mz.152-4.M2.image 
Nov 26 20:48:30.012 HYPERVISOR: exec_cmd: vm get_status ABR9 
Nov 26 20:48:30.013 HYPERVISOR: exec_cmd: vm slot_add_binding ABR9 4 0 PA-2FE-TX 
Nov 26 20:48:30.020 HYPERVISOR: exec_cmd: vm set_config ABR9 configs/i10_startup-config.cfg 
Nov 26 20:48:30.829 HYPERVISOR: exec_cmd: vm extract_config ABR9 
Nov 26 20:48:31.196 HYPERVISOR: exec_cmd: nio create_udp udp-e97457ab-e91a-480f-8a36-e8895e864f01 15032 127.0.0.1 15033 
Nov 26 20:48:31.197 HYPERVISOR: exec_cmd: vm slot_add_nio_binding ABR9 1 0 udp-e97457ab-e91a-480f-8a36-e8895e864f01 
Nov 26 20:48:31.197 HYPERVISOR: exec_cmd: vm get_status ABR9 
Nov 26 20:48:31.385 HYPERVISOR: exec_cmd: nio create_udp udp-2504ef81-196d-4c0d-a1ed-582bcdfba019 15048 127.0.0.1 15051 
Nov 26 20:48:31.385 HYPERVISOR: exec_cmd: vm slot_add_nio_binding ABR9 0 0 udp-2504ef81-196d-4c0d-a1ed-582bcdfba019 
Nov 26 20:48:31.385 HYPERVISOR: exec_cmd: vm get_status ABR9 
Nov 26 20:48:38.518 HYPERVISOR: exec_cmd: vm extract_config ABR9 
Nov 26 20:49:00.820 HYPERVISOR: exec_cmd: vm get_status ABR9 
Nov 26 20:49:00.826 HYPERVISOR: exec_cmd: vm extract_config ABR9 
Nov 26 20:49:00.830 HYPERVISOR: exec_cmd: vm delete ABR9 
Nov 26 20:49:00.830 VM: VM ABR9 destroyed.
Nov 26 20:49:00.835 HYPERVISOR: exec_cmd: hypervisor stop 
Nov 26 20:49:00.960 HYPERVISOR: Stopped.
Nov 26 20:49:00.960 GENERAL: reset done.
