Nov 26 20:45:44.754 HYPERVISOR: Release 0.2.17-amd64/Linux (tag 2017072410)
Nov 26 20:45:44.754 HYPERVISOR: Started on IP = 127.0.0.1, TCP port = 41791.
Nov 26 20:45:44.952 HYPERVISOR: exec_cmd: hypervisor version 
Nov 26 20:45:44.954 HYPERVISOR: exec_cmd: hypervisor working_dir /media/actionmystique/SAMSUNG5-VMs/Labs/GNS3/RIPng/project-files/dynamips 
Nov 26 20:45:44.954 GENERAL: working_dir=/media/actionmystique/SAMSUNG5-VMs/Labs/GNS3/RIPng/project-files/dynamips
Nov 26 20:45:44.955 HYPERVISOR: exec_cmd: frsw create FR1 
Nov 26 20:45:45.321 HYPERVISOR: exec_cmd: nio create_udp udp-d3d1dddf-626f-4953-b976-916162a20d97 15000 127.0.0.1 15003 
Nov 26 20:45:45.397 HYPERVISOR: exec_cmd: nio create_udp udp-e479c4f6-2704-49f7-911f-c8ac64505bf3 15001 127.0.0.1 15005 
Nov 26 20:45:45.444 HYPERVISOR: exec_cmd: nio create_udp udp-212ae1b7-02c9-4370-ba0f-d8fc7e03041c 15004 127.0.0.1 15008 
Nov 26 20:45:45.445 HYPERVISOR: exec_cmd: frsw create_vc FR1 udp-212ae1b7-02c9-4370-ba0f-d8fc7e03041c 103 udp-e479c4f6-2704-49f7-911f-c8ac64505bf3 301 
Nov 26 20:45:45.453 HYPERVISOR: exec_cmd: frsw create_vc FR1 udp-e479c4f6-2704-49f7-911f-c8ac64505bf3 301 udp-212ae1b7-02c9-4370-ba0f-d8fc7e03041c 103 
Nov 26 20:45:45.472 HYPERVISOR: exec_cmd: frsw create_vc FR1 udp-212ae1b7-02c9-4370-ba0f-d8fc7e03041c 104 udp-d3d1dddf-626f-4953-b976-916162a20d97 401 
Nov 26 20:45:45.492 HYPERVISOR: exec_cmd: frsw create_vc FR1 udp-d3d1dddf-626f-4953-b976-916162a20d97 401 udp-212ae1b7-02c9-4370-ba0f-d8fc7e03041c 104 
Nov 26 20:45:45.516 HYPERVISOR: exec_cmd: nio create_udp udp-765bea85-76ba-4383-afeb-cabf688a3fd1 15010 127.0.0.1 15011 
Nov 26 20:45:45.517 HYPERVISOR: exec_cmd: frsw create_vc FR1 udp-765bea85-76ba-4383-afeb-cabf688a3fd1 501 udp-212ae1b7-02c9-4370-ba0f-d8fc7e03041c 105 
Nov 26 20:45:45.532 HYPERVISOR: exec_cmd: frsw create_vc FR1 udp-212ae1b7-02c9-4370-ba0f-d8fc7e03041c 105 udp-765bea85-76ba-4383-afeb-cabf688a3fd1 501 
Nov 26 20:45:45.557 HYPERVISOR: exec_cmd: nio create_udp udp-5b34e396-aa4e-4b90-9be3-970c0629eeb6 15012 127.0.0.1 15013 
Nov 26 20:45:45.558 HYPERVISOR: exec_cmd: frsw create_vc FR1 udp-5b34e396-aa4e-4b90-9be3-970c0629eeb6 203 udp-e479c4f6-2704-49f7-911f-c8ac64505bf3 302 
Nov 26 20:45:45.576 HYPERVISOR: exec_cmd: frsw create_vc FR1 udp-e479c4f6-2704-49f7-911f-c8ac64505bf3 302 udp-5b34e396-aa4e-4b90-9be3-970c0629eeb6 203 
Nov 26 20:45:45.592 HYPERVISOR: exec_cmd: frsw create_vc FR1 udp-5b34e396-aa4e-4b90-9be3-970c0629eeb6 204 udp-d3d1dddf-626f-4953-b976-916162a20d97 402 
Nov 26 20:45:45.614 HYPERVISOR: exec_cmd: frsw create_vc FR1 udp-d3d1dddf-626f-4953-b976-916162a20d97 402 udp-5b34e396-aa4e-4b90-9be3-970c0629eeb6 204 
Nov 26 20:45:45.636 HYPERVISOR: exec_cmd: frsw create_vc FR1 udp-5b34e396-aa4e-4b90-9be3-970c0629eeb6 205 udp-765bea85-76ba-4383-afeb-cabf688a3fd1 502 
Nov 26 20:45:45.653 HYPERVISOR: exec_cmd: frsw create_vc FR1 udp-765bea85-76ba-4383-afeb-cabf688a3fd1 502 udp-5b34e396-aa4e-4b90-9be3-970c0629eeb6 205 
Nov 26 20:47:04.271 HYPERVISOR: exec_cmd: frsw delete FR1 
Nov 26 20:47:04.503 HYPERVISOR: exec_cmd: hypervisor stop 
Nov 26 20:47:04.533 HYPERVISOR: Stopped.
Nov 26 20:47:04.533 GENERAL: reset done.
