Nov 26 20:45:44.943 HYPERVISOR: Release 0.2.17-amd64/Linux (tag 2017072410)
Nov 26 20:45:44.943 HYPERVISOR: Started on IP = 127.0.0.1, TCP port = 60909.
Nov 26 20:45:44.976 HYPERVISOR: exec_cmd: hypervisor version 
Nov 26 20:45:44.977 HYPERVISOR: exec_cmd: hypervisor working_dir /media/actionmystique/SAMSUNG5-VMs/Labs/GNS3/RIPng/project-files/dynamips 
Nov 26 20:45:44.977 GENERAL: working_dir=/media/actionmystique/SAMSUNG5-VMs/Labs/GNS3/RIPng/project-files/dynamips
Nov 26 20:45:44.978 HYPERVISOR: exec_cmd: vm create R5 6 c7200 
Nov 26 20:45:44.978 VM: VM R5 created.
Nov 26 20:45:44.980 HYPERVISOR: exec_cmd: vm set_con_tcp_port R5 2005 
Nov 26 20:45:44.981 HYPERVISOR: exec_cmd: vm set_aux_tcp_port R5 2105 
Nov 26 20:45:44.983 HYPERVISOR: exec_cmd: c7200 get_mac_addr R5 
Nov 26 20:45:44.985 HYPERVISOR: exec_cmd: vm get_status R5 
Nov 26 20:45:44.987 HYPERVISOR: exec_cmd: vm slot_add_binding R5 0 0 C7200-IO-FE 
Nov 26 20:45:44.988 HYPERVISOR: exec_cmd: vm get_status R5 
Nov 26 20:45:44.990 HYPERVISOR: exec_cmd: vm slot_remove_binding R5 0 0 
Nov 26 20:45:44.996 HYPERVISOR: exec_cmd: vm get_status R5 
Nov 26 20:45:45.006 HYPERVISOR: exec_cmd: vm slot_add_binding R5 0 0 C7200-IO-GE-E 
Nov 26 20:45:45.009 HYPERVISOR: exec_cmd: vm set_ram R5 512 
Nov 26 20:45:45.018 HYPERVISOR: exec_cmd: vm get_status R5 
Nov 26 20:45:45.031 HYPERVISOR: exec_cmd: vm set_idle_pc R5 0x62a29de4 
Nov 26 20:45:45.035 HYPERVISOR: exec_cmd: vm get_status R5 
Nov 26 20:45:45.037 HYPERVISOR: exec_cmd: vm slot_add_binding R5 1 0 PA-8T 
Nov 26 20:45:45.038 HYPERVISOR: exec_cmd: vm set_ios R5 /media/actionmystique/SAMSUNG5-VMs/Images/GNS3/IOS/c7200-adventerprisek9-mz.152-4.S.image 
Nov 26 20:45:45.039 HYPERVISOR: exec_cmd: vm set_config R5 configs/i6_startup-config.cfg 
Nov 26 20:45:45.403 HYPERVISOR: exec_cmd: vm extract_config R5 
Nov 26 20:45:45.505 HYPERVISOR: exec_cmd: nio create_udp udp-35aa5fdf-52ee-4f6e-a0a2-3bfa24a59584 15011 127.0.0.1 15010 
Nov 26 20:45:45.505 HYPERVISOR: exec_cmd: vm slot_add_nio_binding R5 1 0 udp-35aa5fdf-52ee-4f6e-a0a2-3bfa24a59584 
Nov 26 20:45:45.506 HYPERVISOR: exec_cmd: vm get_status R5 
Nov 26 20:45:49.343 HYPERVISOR: exec_cmd: vm extract_config R5 
Nov 26 20:47:04.618 HYPERVISOR: exec_cmd: vm get_status R5 
Nov 26 20:47:04.620 HYPERVISOR: exec_cmd: vm extract_config R5 
Nov 26 20:47:04.623 HYPERVISOR: exec_cmd: vm delete R5 
Nov 26 20:47:04.623 VM: VM R5 destroyed.
Nov 26 20:47:04.625 HYPERVISOR: exec_cmd: hypervisor stop 
Nov 26 20:47:05.054 HYPERVISOR: Stopped.
Nov 26 20:47:05.054 GENERAL: reset done.
