Nov 26 20:45:44.653 HYPERVISOR: Release 0.2.17-amd64/Linux (tag 2017072410)
Nov 26 20:45:44.653 HYPERVISOR: Started on IP = 127.0.0.1, TCP port = 35473.
Nov 26 20:45:44.950 HYPERVISOR: exec_cmd: hypervisor version 
Nov 26 20:45:44.952 HYPERVISOR: exec_cmd: hypervisor working_dir /media/actionmystique/SAMSUNG5-VMs/Labs/GNS3/RIPng/project-files/dynamips 
Nov 26 20:45:44.952 GENERAL: working_dir=/media/actionmystique/SAMSUNG5-VMs/Labs/GNS3/RIPng/project-files/dynamips
Nov 26 20:45:44.953 HYPERVISOR: exec_cmd: vm create R3 4 c7200 
Nov 26 20:45:44.953 VM: VM R3 created.
Nov 26 20:45:44.954 HYPERVISOR: exec_cmd: vm set_con_tcp_port R3 2003 
Nov 26 20:45:44.956 HYPERVISOR: exec_cmd: vm set_aux_tcp_port R3 2103 
Nov 26 20:45:44.959 HYPERVISOR: exec_cmd: c7200 get_mac_addr R3 
Nov 26 20:45:44.969 HYPERVISOR: exec_cmd: vm get_status R3 
Nov 26 20:45:44.971 HYPERVISOR: exec_cmd: vm slot_add_binding R3 0 0 C7200-IO-FE 
Nov 26 20:45:44.974 HYPERVISOR: exec_cmd: vm get_status R3 
Nov 26 20:45:44.975 HYPERVISOR: exec_cmd: vm slot_remove_binding R3 0 0 
Nov 26 20:45:44.977 HYPERVISOR: exec_cmd: vm get_status R3 
Nov 26 20:45:44.978 HYPERVISOR: exec_cmd: vm slot_add_binding R3 0 0 C7200-IO-GE-E 
Nov 26 20:45:44.979 HYPERVISOR: exec_cmd: vm set_ram R3 512 
Nov 26 20:45:44.981 HYPERVISOR: exec_cmd: vm get_status R3 
Nov 26 20:45:44.982 HYPERVISOR: exec_cmd: vm set_idle_pc R3 0x62a29de4 
Nov 26 20:45:44.984 HYPERVISOR: exec_cmd: vm get_status R3 
Nov 26 20:45:44.986 HYPERVISOR: exec_cmd: vm slot_add_binding R3 1 0 PA-8T 
Nov 26 20:45:44.988 HYPERVISOR: exec_cmd: vm set_ios R3 /media/actionmystique/SAMSUNG5-VMs/Images/GNS3/IOS/c7200-adventerprisek9-mz.152-4.S.image 
Nov 26 20:45:44.989 HYPERVISOR: exec_cmd: vm set_config R3 configs/i4_startup-config.cfg 
Nov 26 20:45:45.401 HYPERVISOR: exec_cmd: nio create_udp udp-6746eb53-ba3c-4382-ac70-32e222bd3f0b 15005 127.0.0.1 15001 
Nov 26 20:45:45.403 HYPERVISOR: exec_cmd: vm extract_config R3 
Nov 26 20:45:45.404 HYPERVISOR: exec_cmd: vm slot_add_nio_binding R3 1 0 udp-6746eb53-ba3c-4382-ac70-32e222bd3f0b 
Nov 26 20:45:45.404 HYPERVISOR: exec_cmd: vm get_status R3 
Nov 26 20:45:45.413 HYPERVISOR: exec_cmd: nio create_udp udp-647129cc-19a3-49b1-b91a-8b53deff7a21 15002 127.0.0.1 15007 
Nov 26 20:45:45.417 HYPERVISOR: exec_cmd: vm slot_add_nio_binding R3 0 0 udp-647129cc-19a3-49b1-b91a-8b53deff7a21 
Nov 26 20:45:45.418 HYPERVISOR: exec_cmd: vm get_status R3 
Nov 26 20:45:49.343 HYPERVISOR: exec_cmd: vm extract_config R3 
Nov 26 20:47:04.618 HYPERVISOR: exec_cmd: vm get_status R3 
Nov 26 20:47:04.621 HYPERVISOR: exec_cmd: vm extract_config R3 
Nov 26 20:47:04.623 HYPERVISOR: exec_cmd: vm delete R3 
Nov 26 20:47:04.623 VM: VM R3 destroyed.
Nov 26 20:47:04.625 HYPERVISOR: exec_cmd: hypervisor stop 
Nov 26 20:47:05.028 HYPERVISOR: Stopped.
Nov 26 20:47:05.028 GENERAL: reset done.
