Nov 27 16:22:05.017 HYPERVISOR: Release 0.2.17-amd64/Linux (tag 2017072410)
Nov 27 16:22:05.017 HYPERVISOR: Started on IP = 127.0.0.1, TCP port = 41031.
Nov 27 16:22:05.036 HYPERVISOR: exec_cmd: hypervisor version 
Nov 27 16:22:05.036 HYPERVISOR: exec_cmd: hypervisor working_dir /media/actionmystique/SAMSUNG5-VMs/Labs/GNS3/git-Public-Labs-Collection/CCNP/TBSHOOT/L3-Technologies/IPv4/High-Availability/HSRP/Jean-Christophe_Manciot/1+/TT 3-linux/project-files/dynamips 
Nov 27 16:22:05.036 GENERAL: working_dir=/media/actionmystique/SAMSUNG5-VMs/Labs/GNS3/git-Public-Labs-Collection/CCNP/TBSHOOT/L3-Technologies/IPv4/High-Availability/HSRP/Jean-Christophe_Manciot/1+/TT 3-linux/project-files/dynamips
Nov 27 16:22:05.037 HYPERVISOR: exec_cmd: vm create SW2 2 c3725 
Nov 27 16:22:05.037 VM: VM SW2 created.
Nov 27 16:22:05.037 HYPERVISOR: exec_cmd: vm set_con_tcp_port SW2 2002 
Nov 27 16:22:05.037 HYPERVISOR: exec_cmd: c3725 get_mac_addr SW2 
Nov 27 16:22:05.038 HYPERVISOR: exec_cmd: vm set_nvram SW2 256 
Nov 27 16:22:05.039 HYPERVISOR: exec_cmd: vm get_status SW2 
Nov 27 16:22:05.039 HYPERVISOR: exec_cmd: vm set_idle_pc SW2 0x614ac21c 
Nov 27 16:22:05.039 HYPERVISOR: exec_cmd: c3725 set_mac_addr SW2 eeee.eeee.eeee 
Nov 27 16:22:05.040 HYPERVISOR: exec_cmd: vm set_exec_area SW2 16 
Nov 27 16:22:05.040 HYPERVISOR: exec_cmd: vm get_status SW2 
Nov 27 16:22:05.040 HYPERVISOR: exec_cmd: vm slot_add_binding SW2 1 0 NM-16ESW 
Nov 27 16:22:05.041 HYPERVISOR: exec_cmd: vm set_ios SW2 /media/actionmystique/SAMSUNG5-VMs/Images/GNS3/IOS/c3725-adventerprisek9-mz.124-15.T10.image 
Nov 27 16:22:05.041 HYPERVISOR: exec_cmd: vm slot_add_binding SW2 0 16 WIC-2T 
Nov 27 16:22:05.042 HYPERVISOR: exec_cmd: vm set_disk0 SW2 1 
Nov 27 16:22:05.042 HYPERVISOR: exec_cmd: vm set_config SW2 configs/i2_startup-config.cfg 
Nov 27 16:22:05.043 HYPERVISOR: exec_cmd: vm set_config SW2 configs/i2_startup-config.cfg configs/i2_private-config.cfg 
Nov 27 16:22:05.276 HYPERVISOR: exec_cmd: nio create_udp udp-9950c499-e13e-4a77-a639-263a28b4d01d 15006 127.0.0.1 15009 
Nov 27 16:22:05.277 HYPERVISOR: exec_cmd: vm slot_add_nio_binding SW2 1 0 udp-9950c499-e13e-4a77-a639-263a28b4d01d 
Nov 27 16:22:05.277 HYPERVISOR: exec_cmd: vm get_status SW2 
Nov 27 16:22:05.309 HYPERVISOR: exec_cmd: nio create_udp udp-b525d2fe-ee03-443b-bec4-92bc8e966544 15011 127.0.0.1 15012 
Nov 27 16:22:05.309 HYPERVISOR: exec_cmd: vm slot_add_nio_binding SW2 1 2 udp-b525d2fe-ee03-443b-bec4-92bc8e966544 
Nov 27 16:22:05.310 HYPERVISOR: exec_cmd: vm get_status SW2 
Nov 27 16:22:05.325 HYPERVISOR: exec_cmd: nio create_udp udp-d58bef8c-bbc7-4d88-ac95-4114431a5f50 15013 127.0.0.1 15010 
Nov 27 16:22:05.325 HYPERVISOR: exec_cmd: vm slot_add_nio_binding SW2 1 1 udp-d58bef8c-bbc7-4d88-ac95-4114431a5f50 
Nov 27 16:22:05.326 HYPERVISOR: exec_cmd: vm get_status SW2 
